<?xml version="1.0" encoding="utf-8"?>
<!-- Generator: Adobe Illustrator 24.3.0, SVG Export Plug-In . SVG Version: 6.00 Build 0)  -->
<svg version="1.1" id="aa8e9963-0c76-4c17-8798-89e90805736a"
	 xmlns="http://www.w3.org/2000/svg" xmlns:xlink="http://www.w3.org/1999/xlink" x="0px" y="0px" viewBox="0 0 140 45"
	 style="enable-background:new 0 0 140 45;" xml:space="preserve">
<g>
	<path style="fill:#F25022;" d="M0,7.6h14.2c0,4.7,0,9.5,0,14.2H0V7.6z"/>
	<path style="fill:#FEFEFE;" d="M29.9,37.4V23.2c-4.7,0-9.5,0-14.2,0c0,4.7,0,9.5,0,14.2h-1.5c0-4.7,0-9.5,0-14.2
		c-4.7,0-9.5,0-14.2,0v-1.5h14.2c0-4.7,0-9.5,0-14.2h1.5c0,4.7,0,9.5,0,14.2c4.7,0,9.5,0,14.2,0c0-4.7,0-9.5,0-14.2"/>
	<path style="fill:#80BA01;" d="M15.7,7.6h14.2c0,4.7,0,9.5,0,14.2c-4.7,0-9.5,0-14.2,0C15.7,17,15.7,12.3,15.7,7.6z"/>
	<path style="fill:#777777;" d="M128.3,13c1.3-0.9,3-0.9,4.5-0.5c0,0.9,0,1.8,0,2.6c-0.7-0.3-1.5-0.5-2.3-0.2
		c-0.6,0.2-0.9,0.8-1,1.4c-0.1,0.8,0,1.5-0.1,2.3c1.5,0,3,0,4.5,0c0-1,0-1.9,0-2.9c1-0.3,2-0.6,3-0.9c0,1.3,0,2.6,0,3.9c1,0,2,0,3,0
		v2.5c-1,0-2,0-3.1,0c0,1.4,0,2.9,0,4.3c0,0.8,0,1.6,0.1,2.4c0.1,0.5,0.2,1,0.7,1.2c0.7,0.4,1.7,0.2,2.3-0.2v2.5
		c-0.9,0.4-1.9,0.5-2.8,0.4c-0.9-0.1-1.8-0.4-2.4-1.1c-0.7-0.8-0.9-1.9-0.9-2.9c0-2.2,0-4.4,0-6.6c-1.5,0-3,0-4.5,0
		c0,3.5,0,6.9,0,10.4h-3.1c0-3.5,0-6.9,0-10.4c-0.7,0-1.4,0-2.1,0c0-0.8,0-1.6,0-2.5c0.7,0,1.4,0,2.1,0c0.1-1.1-0.1-2.2,0.2-3.3
		C126.8,14.4,127.4,13.5,128.3,13L128.3,13z"/>
	<path style="fill:#777777;" d="M62.4,13.2c0.6-0.1,1.3,0.1,1.7,0.6c0.5,0.6,0.6,1.4,0.2,2c-0.4,0.7-1.3,1-2,0.9
		c-0.8-0.1-1.5-0.9-1.4-1.7C60.8,14,61.5,13.2,62.4,13.2L62.4,13.2z"/>
	<path style="fill:#777777;" d="M38.8,13.5h4.5c1.4,3.5,2.8,7.1,4.2,10.6c0.4,0.9,0.7,1.8,1.1,2.7c1.8-4.4,3.6-8.8,5.4-13.2
		c1.4,0,2.9,0,4.3,0c0,6,0,12,0,17.9c-1,0-2.1,0-3.1,0c0-4.4,0-8.8,0-13.2c0-0.2,0-0.4,0-0.6c-0.1,0.1-0.1,0.2-0.2,0.3
		c-1.8,4.5-3.6,9-5.4,13.5c-0.7,0-1.5,0-2.2,0c-1.8-4.5-3.6-9-5.5-13.6c0-0.1-0.1-0.2-0.2-0.3c0,1.9,0,3.9,0,5.8c0,2.7,0,5.4,0,8
		c-1,0-2,0-2.9,0C38.8,25.5,38.8,19.5,38.8,13.5L38.8,13.5z"/>
	<path style="fill:#777777;" d="M70.9,18.6c1.5-0.4,3.1-0.4,4.6,0c0.3,0.1,0.6,0.2,0.9,0.4c0,1,0,2,0,2.9c-1-0.8-2.2-1.2-3.5-1.1
		c-1,0.1-1.9,0.6-2.6,1.4c-0.8,1-0.9,2.3-0.8,3.6c0.1,1,0.5,1.9,1.2,2.6c0.8,0.7,1.9,0.9,2.9,0.9c1-0.1,1.9-0.5,2.8-1.1
		c0,0.9,0,1.9,0,2.8c-1.3,0.7-2.8,0.9-4.2,0.9c-1.5-0.1-2.9-0.6-4-1.7c-1.2-1.1-1.8-2.7-1.9-4.3c-0.1-1.7,0.3-3.4,1.2-4.8
		C68.2,19.8,69.5,19,70.9,18.6L70.9,18.6z"/>
	<path style="fill:#777777;" d="M104.5,18.4c1.4-0.3,2.9-0.1,4.3,0.4c0,0.9,0,1.9,0,2.8c-0.9-0.7-2.1-1-3.2-1
		c-0.6,0-1.2,0.3-1.5,0.8c-0.2,0.5-0.1,1.2,0.4,1.6c0.9,0.6,1.9,0.8,2.8,1.4c0.7,0.4,1.4,0.9,1.8,1.7c0.7,1.4,0.4,3.3-0.8,4.3
		c-1.1,1.1-2.8,1.4-4.3,1.3c-1.1-0.1-2.1-0.3-3.1-0.7c0-1,0-2,0-3c0.8,0.6,1.8,1,2.8,1.2c0.7,0.1,1.5,0.1,2.1-0.2
		c0.6-0.3,0.7-1.2,0.4-1.7c-0.3-0.4-0.9-0.7-1.3-0.9c-0.9-0.4-1.9-0.7-2.7-1.4c-0.6-0.4-1-1.1-1.1-1.7c-0.2-1-0.2-2.2,0.4-3.1
		C102.1,19.2,103.3,18.6,104.5,18.4L104.5,18.4z"/>
	<path style="fill:#777777;" d="M83.2,18.8c0.8-0.5,1.9-0.6,2.9-0.2c0,1,0,2.1,0,3.1c-0.6-0.4-1.4-0.6-2.1-0.5
		c-0.9,0.1-1.6,0.8-1.9,1.5c-0.4,0.8-0.5,1.7-0.4,2.6c0,2,0,4.1,0,6.1h-3c0-4.3,0-8.6,0-12.8c1,0,2,0,3,0c0,0.7,0,1.5,0,2.2
		C81.9,20,82.4,19.2,83.2,18.8L83.2,18.8z"/>
	<path style="fill:#777777;" d="M61.1,18.6c1,0,2,0,3.1,0c0,4.3,0,8.6,0,12.8h-3.1C61.1,27.2,61.1,22.9,61.1,18.6z"/>
	<path style="fill:#777777;" d="M98.8,21.6c-0.5-1.2-1.5-2.2-2.7-2.7c-1.4-0.6-2.9-0.7-4.4-0.5c-1.6,0.2-3.1,0.9-4,2.2
		c-0.9,1.1-1.3,2.5-1.4,3.9c-0.1,1.7,0.2,3.4,1.1,4.8c0.8,1.2,2.1,2,3.6,2.3c1.2,0.2,2.4,0.2,3.6,0c1.4-0.3,2.7-1,3.5-2.2
		c0.8-1.1,1.3-2.4,1.4-3.7C99.5,24.3,99.4,22.9,98.8,21.6z M95.8,27.5c-0.3,0.7-0.8,1.2-1.5,1.5c-0.8,0.3-1.7,0.3-2.5,0.1
		c-0.8-0.2-1.5-0.8-1.9-1.6c-0.5-1-0.6-2.1-0.5-3.2c0.1-1,0.4-2,1.2-2.7c0.5-0.5,1.3-0.8,2-0.8c0.9-0.1,1.9,0.2,2.6,0.9
		c0.7,0.7,1,1.7,1.1,2.7C96.3,25.4,96.3,26.5,95.8,27.5z"/>
	<path style="fill:#777777;" d="M123.4,22c-0.5-1.3-1.4-2.4-2.6-3c-1.4-0.7-3-0.8-4.6-0.6c-1.2,0.2-2.5,0.6-3.4,1.5
		c-1.2,1-1.8,2.5-2,3.9c-0.2,1.5-0.1,3.1,0.5,4.5c0.6,1.4,1.7,2.5,3.1,3c1.4,0.5,2.9,0.6,4.3,0.4c1.5-0.2,2.9-1,3.8-2.2
		c1-1.2,1.4-2.8,1.4-4.4C123.9,24,123.8,23,123.4,22z M120.6,26.3c-0.1,0.7-0.4,1.4-0.8,1.9c-0.4,0.5-1.1,0.9-1.8,1
		c-0.7,0.1-1.5,0.1-2.2-0.2c-0.7-0.3-1.3-1-1.6-1.7c-0.4-0.9-0.4-1.9-0.4-2.8c0.1-0.9,0.3-1.9,0.9-2.6c0.6-0.7,1.4-1,2.2-1.1
		c0.9-0.1,1.8,0.1,2.5,0.7c0.6,0.5,1,1.3,1.1,2C120.8,24.5,120.8,25.4,120.6,26.3z"/>
	<path style="fill:#02A4EF;" d="M0,23.2c4.7,0,9.5,0,14.2,0c0,4.7,0,9.5,0,14.2H0V23.2z"/>
	<path style="fill:#FFB902;" d="M15.7,23.2c4.7,0,9.5,0,14.2,0v14.2H15.7C15.7,32.7,15.7,28,15.7,23.2z"/>
</g>
</svg>
