<svg version="1.1" id="Layer_1" xmlns="http://www.w3.org/2000/svg" xmlns:xlink="http://www.w3.org/1999/xlink" x="0px" y="0px" viewbox="0 0 64 64" style="enable-background:new 0 0 64 64;" xml:space="preserve">
									<title>Handcuff Image</title>
									<path d="M25.4,36.1c2.9,2.3,4.9,5.6,5.4,9.3c0.3,1.9,0.2,3.9-0.4,5.7c-0.5,1.8-1.3,3.5-2.4,5c-1.1,1.5-2.6,2.8-4.2,3.8
										c-1.7,1-3.6,1.6-5.5,1.9C18,62,17.7,62,17.3,62h-1c-1.8,0-3.5-0.3-5.1-1c-1.6-0.6-3.1-1.4-4.4-2.6c-1.3-1.1-2.4-2.5-3.3-4
										c-0.9-1.6-1.4-3.2-1.7-5c-0.3-1.8-0.2-3.7,0.3-5.5c0.4-1.8,1.2-3.4,2.3-4.9L2.9,28.8c-0.1-0.4,0-0.9,0.3-1.2
										c0.3-0.4,0.7-0.6,1.2-0.7L22,24.4c0.5,0,0.9,0.1,1.3,0.3c0.4,0.2,0.6,0.7,0.6,1.1L25.4,36.1z M24.7,53.7c0.8-1.1,1.4-2.4,1.8-3.7
										c0.3-1.3,0.4-2.7,0.2-4c-0.4-2.5-1.7-4.8-3.6-6.4c-0.9-0.8-2-1.4-3.2-1.8c-1.2-0.4-2.4-0.6-3.6-0.6c-0.2,0-0.5,0-0.7,0s-0.5,0-0.7,0
										c-1.4,0.2-2.7,0.7-3.9,1.4c-1.2,0.7-2.2,1.6-3,2.7c-0.8,1.1-1.4,2.4-1.8,3.7c-0.3,1.3-0.4,2.7-0.2,4.1c0.2,1.2,0.5,2.4,1.2,3.5
										c0.6,1.1,1.4,2.1,2.4,2.9c1,0.8,2,1.4,3.2,1.9c1.2,0.4,2.4,0.7,3.6,0.7c0.2,0,0.5,0,0.7,0l0.8-0.1c1.4-0.2,2.7-0.7,3.8-1.4
										C22.8,55.8,23.8,54.8,24.7,53.7z M12.1,24h-0.2c-1.1,0-2.1-0.5-2.8-1.3C8.3,22,7.9,20.9,8,19.9l0.4-8v-0.4c0.2,0.6,0.5,1.1,0.8,1.6
										c0.3,0.5,0.7,0.9,1.1,1.3L10,19.9c0,0.3,0,0.5,0.1,0.8c0.1,0.2,0.2,0.4,0.4,0.6c0.2,0.2,0.4,0.4,0.6,0.5c0.2,0.1,0.5,0.2,0.7,0.2
										h0.1c0.5,0,1-0.2,1.3-0.5c0.4-0.3,0.6-0.8,0.6-1.3l0.1-3.1l0.1-3.1c-1,0-1.9-0.3-2.7-1c-0.7-0.6-1.2-1.6-1.3-2.5
										c-0.1-1.1,0.2-2.1,0.9-2.9c0.6-0.9,1.6-1.4,2.7-1.6l8-0.9c0.1,0,0.2-0.1,0.3-0.1h0.2c2,0,3.8,1.5,4,3.6c0.2,1-0.1,2.1-0.8,2.9
										c-0.7,0.9-1.6,1.4-2.7,1.5l-4.2,0.6l0.1-1c0-0.2,0-0.4,0-0.6c0-0.2,0-0.4,0-0.6l4-0.5c0.5,0,1-0.3,1.3-0.7c0.3-0.4,0.5-0.9,0.4-1.4
										c-0.1-0.5-0.3-0.9-0.7-1.2c-0.4-0.3-0.8-0.5-1.3-0.5h-0.1C22,6.9,22,7,22,7l-8,0.9L13.6,8c-0.1,0-0.3,0.1-0.4,0.2
										c0.9,0.2,1.7,0.7,2.3,1.4c0.6,0.7,0.9,1.7,0.9,2.7l-0.4,8c0,1-0.5,2-1.2,2.7C14.1,23.7,13.1,24.1,12.1,24z M13.5,28.1
										c-0.5,0-1,0.3-1.3,0.7c-0.3,0.4-0.5,1-0.4,1.5c0,0.3,0.2,0.6,0.4,0.9c0.2,0.3,0.5,0.5,0.8,0.6l0.2,1.3c0,0.2,0.2,0.4,0.3,0.6
										c0.2,0.2,0.4,0.2,0.7,0.2h0.1c0.3,0,0.5-0.2,0.7-0.4c0.2-0.2,0.3-0.5,0.2-0.8l-0.2-1.3c0.2-0.2,0.4-0.5,0.6-0.8
										c0.1-0.3,0.2-0.7,0.1-1C15.6,28.7,14.6,28,13.5,28.1C13.5,28.1,13.5,28.1,13.5,28.1z M12.4,10.1c0,0.5,0.3,0.9,0.6,1.2
										c0.3,0.3,0.8,0.4,1.2,0.4h0.1c-0.1-0.4-0.3-0.8-0.6-1.1c-0.3-0.3-0.7-0.5-1.2-0.5L12.4,10.1L12.4,10.1z M54.4,8
										c1.7,0.9,3.3,2.1,4.5,3.6c1.2,1.5,2.1,3.1,2.7,4.9c0.6,1.8,0.8,3.6,0.7,5.5c-0.2,1.9-0.7,3.8-1.6,5.6c-1.2,2.4-3.1,4.5-5.5,5.8
										c-2.3,1.4-4.9,2.1-7.5,2.1c-1.1,0-2.3-0.2-3.4-0.4c-1.1-0.3-2.3-0.7-3.3-1.2c-1.7-0.8-3.2-2-4.4-3.4c-1.2-1.4-2.1-3-2.7-4.7
										l-9.4-4.8c-0.4-0.2-0.7-0.6-0.8-1c-0.1-0.4-0.1-0.9,0.1-1.3L32,2.9c0.2-0.4,0.6-0.7,1-0.8c0.4-0.1,0.9-0.1,1.3,0.1L43.7,7
										c0.7-0.2,1.3-0.4,2-0.4c0.7-0.1,1.4-0.1,2.1-0.2c1.1,0,2.3,0.1,3.4,0.4C52.2,7,53.4,7.5,54.4,8z M35.5,14.6c0.1-0.2,0.1-0.5,0.1-0.8
										c-0.1-0.3-0.3-0.5-0.5-0.6l-1.1-0.6c0-0.4-0.1-0.7-0.3-1c-0.2-0.3-0.4-0.5-0.8-0.7c-0.5-0.2-1-0.3-1.5-0.1c-0.5,0.2-1,0.5-1.2,1
										c-0.2,0.5-0.3,1-0.1,1.5c0.2,0.5,0.5,0.9,1,1.1c0.3,0.2,0.7,0.2,1,0.2c0.4,0,0.7-0.1,1-0.3l1.2,0.6c0.1,0,0.1,0.1,0.2,0.1
										c0.1,0,0.2,0,0.2,0c0.2,0,0.4,0,0.5-0.1C35.3,14.9,35.4,14.8,35.5,14.6z M57,25.6c0.6-1.2,1-2.5,1.2-3.9c0.1-1.4,0-2.7-0.5-4
										c-0.4-1.3-1.1-2.5-2-3.6c-0.9-1-2-1.9-3.2-2.5c-0.7-0.4-1.5-0.7-2.3-0.9c-4.7-1.1-9.6,1.1-11.8,5.4c-0.6,1.2-1,2.5-1.1,3.8
										c-0.1,1.4,0.1,2.7,0.5,4c0.4,1.3,1.1,2.5,2,3.6c0.9,1,2,1.9,3.2,2.5c0.7,0.4,1.5,0.7,2.3,0.9c0.8,0.2,1.6,0.3,2.5,0.3
										c1.9,0,3.8-0.5,5.5-1.5C54.8,28.8,56.1,27.3,57,25.6z"></path>
									</svg>