<svg class="mainIconPack" version="1.1" xmlns="http://www.w3.org/2000/svg">
    <defs>
        <symbol id="menuOpenIcon" viewbox="0 0 24 24">
            <path transform="matrix(1 0 0 1 4.9999999999999964 5)" width="4" height="4" stroke-width="0" stroke-miterlimit="3" stroke="#000000" fill="#000000" d="M0,2.000000000000001 C0,0.8954303999999986 0.8954303999999986,0 2,0 C3.104569599999998,0 4,0.8954303999999986 4,2.000000000000001 C4,3.1045696000000014 3.104569599999998,4 2,4 C0.8954303999999986,4 0,3.1045696000000014 0,2.000000000000001 Z "></path>
            <path transform="matrix(1 0 0 1 9.999999999999996 5)" width="4" height="4" stroke-width="0" stroke-miterlimit="3" stroke="#000000" fill="#000000" d="M0,2.000000000000001 C0,0.8954303999999986 0.8954303999999986,0 2,0 C3.104569599999998,0 4,0.8954303999999986 4,2.000000000000001 C4,3.1045696000000014 3.104569599999998,4 2,4 C0.8954303999999986,4 0,3.1045696000000014 0,2.000000000000001 Z "></path>
            <path transform="matrix(1 0 0 1 15 5)" width="4" height="4" stroke-width="0" stroke-miterlimit="3" stroke="#000000" fill="#000000" d="M0,2.000000000000001 C0,0.8954303999999986 0.8954303999999986,0 2,0 C3.104569599999998,0 4,0.8954303999999986 4,2.000000000000001 C4,3.1045696000000014 3.104569599999998,4 2,4 C0.8954303999999986,4 0,3.1045696000000014 0,2.000000000000001 Z "></path>
            <path transform="matrix(1 0 0 1 4.9999999999999964 10.100000000000001)" width="4" height="4" stroke-width="0" stroke-miterlimit="3" stroke="#000000" fill="#000000" d="M0,2.000000000000001 C0,0.8954303999999986 0.8954303999999986,0 2,0 C3.104569599999998,0 4,0.8954303999999986 4,2.000000000000001 C4,3.1045696000000014 3.104569599999998,4 2,4 C0.8954303999999986,4 0,3.1045696000000014 0,2.000000000000001 Z "></path>
            <path transform="matrix(1 0 0 1 9.999999999999996 10.000000000000002)" width="4" height="4" stroke-width="0" stroke-miterlimit="3" stroke="#000000" fill="#000000" d="M0,2.000000000000001 C0,0.8954303999999986 0.8954303999999986,0 2,0 C3.104569599999998,0 4,0.8954303999999986 4,2.000000000000001 C4,3.1045696000000014 3.104569599999998,4 2,4 C0.8954303999999986,4 0,3.1045696000000014 0,2.000000000000001 Z "></path>
            <path transform="matrix(1 0 0 1 15 10)" width="4" height="4" stroke-width="0" stroke-miterlimit="3" stroke="#000000" fill="#000000" d="M0,2.000000000000001 C0,0.8954303999999986 0.8954303999999986,0 2,0 C3.104569599999998,0 4,0.8954303999999986 4,2.000000000000001 C4,3.1045696000000014 3.104569599999998,4 2,4 C0.8954303999999986,4 0,3.1045696000000014 0,2.000000000000001 Z "></path>
            <path transform="matrix(1 0 0 1 4.9999999999999964 15)" width="4" height="4" stroke-width="0" stroke-miterlimit="3" stroke="#000000" fill="#000000" d="M0,2.000000000000001 C0,0.8954303999999986 0.8954303999999986,0 2,0 C3.104569599999998,0 4,0.8954303999999986 4,2.000000000000001 C4,3.1045696000000014 3.104569599999998,4 2,4 C0.8954303999999986,4 0,3.1045696000000014 0,2.000000000000001 Z "></path>
            <path transform="matrix(1 0 0 1 9.999999999999996 15)" width="4" height="4" stroke-width="0" stroke-miterlimit="3" stroke="#000000" fill="#000000" d="M0,2.000000000000001 C0,0.8954303999999986 0.8954303999999986,0 2,0 C3.104569599999998,0 4,0.8954303999999986 4,2.000000000000001 C4,3.1045696000000014 3.104569599999998,4 2,4 C0.8954303999999986,4 0,3.1045696000000014 0,2.000000000000001 Z "></path>
        </symbol>
        <symbol id="menuCloseIcon" viewbox="0 0 24 24">
            <path d="M294,95.01a12,12,0,1,1,12-12A12.014,12.014,0,0,1,294,95.01Zm0-23.144A11.143,11.143,0,1,0,305.144,83.01,11.157,11.157,0,0,0,294,71.867Zm-5.012,7.1,0.5-.525,9.522,8.592-0.5.525Zm9.216-.976,0.549,0.5-8.962,9.521-0.549-.5Z" transform="translate(-282 -71)"></path>
        </symbol>
        <symbol id="poweredByGoogle" viewbox="0 0 259.33 40.91">
            <defs>
                <style>
                    .google1 {
                        fill: #ea4335;
                        fill-opacity: 0.8;
                    }

                    .google2 {
                        fill: #fbbc05;
                        fill-opacity: 0.8;
                    }

                    .google3 {
                        fill: #4285f4;
                        fill-opacity: 0.8;
                    }

                    .google4 {
                        fill: #34a853;
                        fill-opacity: 0.8;
                    }

                    .google5 {
                        fill: #c8c8c8;
                        opacity: 0;
                    }
                </style>
            </defs>
            <path class="google1" d="M190.9,49.85a10.26,10.26,0,1,1-10.26-10.22A10.1,10.1,0,0,1,190.9,49.85Zm-4.49,0a5.78,5.78,0,1,0-11.53,0A5.78,5.78,0,1,0,186.41,49.85Z" transform="translate(-2.67 -28.32)"></path>
            <path class="google2" d="M213,49.85a10.26,10.26,0,1,1-10.26-10.22A10.1,10.1,0,0,1,213,49.85Zm-4.49,0a5.78,5.78,0,1,0-11.53,0A5.78,5.78,0,1,0,208.54,49.85Z" transform="translate(-2.67 -28.32)"></path>
            <path class="google3" d="M234.23,40.24V58.6c0,7.55-4.45,10.63-9.72,10.63a9.74,9.74,0,0,1-9.06-6l3.91-1.63a5.65,5.65,0,0,0,5.15,3.63c3.37,0,5.46-2.08,5.46-6V57.74h-0.16a7,7,0,0,1-5.38,2.32,10.23,10.23,0,0,1,0-20.44,7.08,7.08,0,0,1,5.38,2.29H230V40.25h4.26Zm-3.95,9.64c0-3.6-2.4-6.23-5.46-6.23a5.91,5.91,0,0,0-5.69,6.23A5.87,5.87,0,0,0,224.83,56C227.88,56,230.28,53.45,230.28,49.88Z" transform="translate(-2.67 -28.32)"></path>
            <path class="google4" d="M241.26,29.48v30h-4.38v-30h4.38Z" transform="translate(-2.67 -28.32)"></path>
            <path class="google1" d="M258.32,53.21l3.48,2.32a10.18,10.18,0,0,1-8.52,4.53,10,10,0,0,1-10.15-10.22c0-6.08,4.37-10.22,9.64-10.22s7.9,4.22,8.75,6.5L262,47.28l-13.67,5.66a5.2,5.2,0,0,0,5,3.1,5.83,5.83,0,0,0,5-2.83h0ZM247.6,49.53l9.14-3.79a4,4,0,0,0-3.79-2.17A5.61,5.61,0,0,0,247.6,49.53Z" transform="translate(-2.67 -28.32)"></path>
            <path class="google3" d="M153.81,47.19V42.85h14.62a14.37,14.37,0,0,1,.22,2.62c0,3.25-.89,7.28-3.76,10.15a14.52,14.52,0,0,1-11.07,4.45,16.1,16.1,0,0,1-16.11-15.87,16.1,16.1,0,0,1,16.11-15.87,15.13,15.13,0,0,1,10.88,4.37l-3.06,3.06a11.06,11.06,0,0,0-7.82-3.1,11.54,11.54,0,0,0,0,23.07,10.62,10.62,0,0,0,8-3.18,9,9,0,0,0,2.35-5.37H153.81Z" transform="translate(-2.67 -28.32)"></path>
            <path class="google5" d="M12.08,54.26H4.79a4.45,4.45,0,0,0,1,2.78,2.77,2.77,0,0,0,2.13.89,4.64,4.64,0,0,0,1.52-.24,6.16,6.16,0,0,0,1.45-.76l0.87,1.19a6.32,6.32,0,0,1-4,1.43A4.63,4.63,0,0,1,4,58a6.4,6.4,0,0,1-1.33-4.29,8.14,8.14,0,0,1,.57-3.16,5,5,0,0,1,1.65-2.16,4.18,4.18,0,0,1,2.53-.78,4.24,4.24,0,0,1,3.49,1.5,6.4,6.4,0,0,1,1.21,4.14Q12.12,53.74,12.08,54.26Zm-1.93-1.6a4.23,4.23,0,0,0-.67-2.58,2.37,2.37,0,0,0-2-.89q-2.45,0-2.67,3.6h5.36V52.65Z" transform="translate(-2.67 -28.32)"></path>
            <path class="google5" d="M23.23,48.53a3.58,3.58,0,0,1,.88,2.56v8.2h-2V51.37a2.54,2.54,0,0,0-.46-1.71,1.73,1.73,0,0,0-1.34-.5,2.6,2.6,0,0,0-1.6.52,5.41,5.41,0,0,0-1.3,1.5v8.11h-2V47.86h1.71l0.17,1.69a4.51,4.51,0,0,1,1.51-1.43,3.9,3.9,0,0,1,2-.52A3.19,3.19,0,0,1,23.23,48.53Z" transform="translate(-2.67 -28.32)"></path>
            <path class="google5" d="M35.94,48.53a3.58,3.58,0,0,1,.88,2.56v8.2h-2V51.37a2.5,2.5,0,0,0-.47-1.71,1.77,1.77,0,0,0-1.36-.5,2.56,2.56,0,0,0-1.58.52,5.49,5.49,0,0,0-1.3,1.47v8.13h-2v-16l2-.22v6.38A4,4,0,0,1,33.5,47.6,3.19,3.19,0,0,1,35.94,48.53Z" transform="translate(-2.67 -28.32)"></path>
            <path class="google5" d="M48.77,57.65a1.46,1.46,0,0,0,.72.51L49,59.55A3.05,3.05,0,0,1,47.6,59a2.29,2.29,0,0,1-.8-1.21,3.83,3.83,0,0,1-3.4,1.71,3.65,3.65,0,0,1-2.67-1,3.33,3.33,0,0,1-1-2.49,3.28,3.28,0,0,1,1.31-2.8,6.14,6.14,0,0,1,3.72-1h1.76V51.48a2.22,2.22,0,0,0-.59-1.74,2.65,2.65,0,0,0-1.8-.52,10.07,10.07,0,0,0-3.08.61l-0.5-1.45a11.5,11.5,0,0,1,3.95-.78,4.12,4.12,0,0,1,3,1,3.78,3.78,0,0,1,1,2.81v5.23A1.79,1.79,0,0,0,48.77,57.65Zm-2.23-1.38V53.65H45q-3.17,0-3.17,2.34a2.14,2.14,0,0,0,.5,1.54,2,2,0,0,0,1.47.52A3,3,0,0,0,46.53,56.27Z" transform="translate(-2.67 -28.32)"></path>
            <path class="google5" d="M60.45,48.53a3.58,3.58,0,0,1,.88,2.56v8.2h-2V51.37a2.54,2.54,0,0,0-.46-1.71,1.73,1.73,0,0,0-1.34-.5,2.6,2.6,0,0,0-1.6.52,5.41,5.41,0,0,0-1.3,1.5v8.11h-2V47.86h1.71l0.17,1.69A4.51,4.51,0,0,1,56,48.12a3.9,3.9,0,0,1,2-.52A3.19,3.19,0,0,1,60.45,48.53Z" transform="translate(-2.67 -28.32)"></path>
            <path class="google5" d="M71.36,47.89a5.2,5.2,0,0,1,1.63.94l-1,1.3a4.59,4.59,0,0,0-1.15-.67,3.56,3.56,0,0,0-1.28-.22,2.48,2.48,0,0,0-2.16,1.11,5.73,5.73,0,0,0-.77,3.27,5.41,5.41,0,0,0,.76,3.2,2.53,2.53,0,0,0,2.17,1,3.39,3.39,0,0,0,1.25-.22,5,5,0,0,0,1.2-.72l1,1.37a5.43,5.43,0,0,1-3.49,1.26A4.55,4.55,0,0,1,65.84,58a6.43,6.43,0,0,1-1.33-4.31,7.78,7.78,0,0,1,.61-3.19,4.89,4.89,0,0,1,1.72-2.13,4.61,4.61,0,0,1,2.66-.76A5.67,5.67,0,0,1,71.36,47.89Z" transform="translate(-2.67 -28.32)"></path>
            <path class="google5" d="M84.07,54.26H76.78a4.45,4.45,0,0,0,1,2.78,2.77,2.77,0,0,0,2.13.89,4.64,4.64,0,0,0,1.52-.24,6.16,6.16,0,0,0,1.45-.76l0.87,1.19a6.32,6.32,0,0,1-4,1.43A4.63,4.63,0,0,1,76,58a6.4,6.4,0,0,1-1.33-4.29,8.14,8.14,0,0,1,.57-3.16,5,5,0,0,1,1.65-2.16,4.18,4.18,0,0,1,2.53-.78,4.24,4.24,0,0,1,3.49,1.5,6.4,6.4,0,0,1,1.21,4.14Q84.11,53.74,84.07,54.26Zm-1.93-1.6a4.23,4.23,0,0,0-.67-2.58,2.37,2.37,0,0,0-2-.89q-2.45,0-2.67,3.6h5.36V52.65Z" transform="translate(-2.67 -28.32)"></path>
            <path class="google5" d="M96.26,59.29H94.5l-0.2-1.58a4.13,4.13,0,0,1-1.41,1.36,3.93,3.93,0,0,1-5.06-1.12,7.32,7.32,0,0,1-1.14-4.31,8.42,8.42,0,0,1,.54-3.12,4.83,4.83,0,0,1,1.56-2.14,3.84,3.84,0,0,1,2.39-.77A4.1,4.1,0,0,1,94.26,49V43l2,0.24v16ZM93,57.54a4.88,4.88,0,0,0,1.26-1.27V50.68a4.33,4.33,0,0,0-1.2-1.12,2.77,2.77,0,0,0-1.44-.38,2.31,2.31,0,0,0-2,1.11,6.05,6.05,0,0,0-.73,3.3,6.38,6.38,0,0,0,.67,3.3A2.14,2.14,0,0,0,91.44,58,2.81,2.81,0,0,0,93,57.54Z" transform="translate(-2.67 -28.32)"></path>
            <path class="google5" d="M114.45,49.17a7.32,7.32,0,0,1,1.15,4.39,8.39,8.39,0,0,1-.54,3.13,4.68,4.68,0,0,1-1.56,2.1,3.93,3.93,0,0,1-2.39.75,3.78,3.78,0,0,1-3-1.52l-0.2,1.26h-1.76v-16l2-.24v6.27a3.82,3.82,0,0,1,3.23-1.69A3.64,3.64,0,0,1,114.45,49.17Zm-1.75,7.72a5.89,5.89,0,0,0,.75-3.33,6.18,6.18,0,0,0-.69-3.35,2.24,2.24,0,0,0-2-1A3.23,3.23,0,0,0,108.12,51v5.46a3.53,3.53,0,0,0,1.12,1.13,2.6,2.6,0,0,0,1.4.41A2.39,2.39,0,0,0,112.71,56.89Z" transform="translate(-2.67 -28.32)"></path>
            <path class="google5" d="M121.49,62.51a5.67,5.67,0,0,1-3.44,1.4l-0.22-1.56a5.87,5.87,0,0,0,1.8-.56,3.11,3.11,0,0,0,1.07-.94,6.62,6.62,0,0,0,.75-1.55h-0.67l-3.84-11.43h2.12l3.06,10,3-10h2.06l-3.82,11.49A7.71,7.71,0,0,1,121.49,62.51Z" transform="translate(-2.67 -28.32)"></path>
        </symbol>
        <symbol id="videoIconBig" viewbox="0 0 29 29">
            <path d="M137.436,559.513l-10.764,6.214V553.3Zm-6.936,14.5a14.5,14.5,0,1,1,14.5-14.5A14.517,14.517,0,0,1,130.5,574.012Zm0-27.965a13.466,13.466,0,1,0,13.466,13.466A13.481,13.481,0,0,0,130.5,546.047Z" transform="translate(-116 -545)"></path>
        </symbol>
        <symbol id="photoIconBig" viewbox="0 0 29 29">
            <path d="M291.5,575.013a14.5,14.5,0,1,1,14.5-14.5A14.517,14.517,0,0,1,291.5,575.013Zm0-27.966a13.465,13.465,0,1,0,13.466,13.466A13.481,13.481,0,0,0,291.5,547.047Zm5.764,19.062h-11.3a1.246,1.246,0,0,1-1.256-1.227V558.13a1.245,1.245,0,0,1,1.256-1.227h1.883l1-1.842h5.53l1,1.842h1.883a1.245,1.245,0,0,1,1.256,1.227v6.752A1.246,1.246,0,0,1,297.264,566.109Zm-5.649-7.978a2.762,2.762,0,1,0,2.825,2.762A2.794,2.794,0,0,0,291.615,558.131Z" transform="translate(-277 -546)"></path>
        </symbol>
        <symbol id="podcastIconBig" viewbox="0 0 31 31">
            <path d="M15.5,1C7.49,1,1,7.49,1,15.5C1,23.51,7.49,30,15.5,30c8-0.01,14.49-6.5,14.5-14.5C30,7.49,23.51,1,15.5,1z M15.5,28.96
		c-7.44,0-13.47-6.03-13.47-13.46S8.06,2.03,15.5,2.03c7.43,0.01,13.46,6.03,13.47,13.47C28.97,22.94,22.94,28.96,15.5,28.96z"></path>
	        <path d="M15.31,7.01c-2.55,0-4.73,0.92-6.13,2.6c-1.51,1.81-2.02,4.33-1.48,7.31c0.08,0.46,0.42,1.92,0.53,2.35l0.38,2.56
		c0.04,0.27,0.24,0.47,0.47,0.47c0.03,0,0.06,0,0.08-0.01l0.95-0.2l0.07,0.5c0.04,0.24,0.22,0.42,0.43,0.42c0.03,0,0.05,0,0.08-0.01
		l1.36-0.28c0.24-0.05,0.39-0.32,0.35-0.59c0,0,0,0,0,0l-1.04-6.96c-0.04-0.28-0.27-0.47-0.5-0.42c0,0,0,0,0,0L9.5,15.03
		c-0.24,0.05-0.39,0.32-0.35,0.6l0.07,0.5l-0.54,0.11c-0.24-1.72-0.09-3.25,0.46-4.52c0.48-0.92,1.11-1.73,1.88-2.37
		c0.04-0.03,0.08-0.05,0.12-0.08l0.3,1.08c0.04,0.16,0.19,0.25,0.33,0.2c0.01-0.01,0.03-0.01,0.04-0.02c2.3-1.46,4.66-1.45,6.96,0
		c0.07,0.04,0.15,0.05,0.22,0.01c0.07-0.03,0.13-0.1,0.15-0.19l0.35-1.12c0.45,0.29,0.87,0.64,1.22,1.04
		c1.25,1.4,1.77,3.36,1.51,5.68c-0.01,0.11-0.03,0.23-0.05,0.34l-0.79-0.16l0.07-0.5c0.04-0.28-0.11-0.54-0.35-0.6c0,0,0,0,0,0
		l-1.36-0.29c-0.11-0.02-0.23,0.01-0.32,0.08c-0.09,0.08-0.16,0.2-0.18,0.33l-1.04,6.96c-0.02,0.13,0.01,0.27,0.07,0.38
		c0.07,0.11,0.17,0.19,0.28,0.21L19.91,23c0.03,0,0.05,0.01,0.08,0.01c0.21,0,0.39-0.18,0.43-0.42l0.07-0.5l0.95,0.2
		c0.03,0.01,0.06,0.01,0.08,0.01c0.23,0,0.43-0.2,0.47-0.47l0.39-2.58c0,0,0.78-1.76,0.9-3.18c0.22-2.63-0.31-4.87-1.77-6.5
		C20.04,7.91,17.84,7.01,15.31,7.01z"></path>
        </symbol>
        <symbol id="nativeIconBig" viewbox="0 0 29 29">
            <path d="M14.5,0C6.49,0,0,6.49,0,14.5S6.49,29,14.5,29c8-0.01,14.49-6.5,14.5-14.5C29,6.49,22.51,0,14.5,0z
		 M14.5,27.96c-7.44,0-13.47-6.03-13.47-13.46S7.06,1.03,14.5,1.03c7.43,0.01,13.46,6.03,13.47,13.47
		C27.97,21.94,21.94,27.96,14.5,27.96z"></path>
            <polygon points="7.48,9.54 7.48,10.54 14.58,10.54 13.48,9.54"></polygon>
            <polygon points="7.48,12.54 7.48,13.54 14.18,13.54 14.39,12.54"></polygon>
            <rect x="7.48" y="15.54" width="13.6" height="1"></rect>
            <rect x="7.48" y="18.55" width="12.9" height="0.98"></rect>
            <path d="M22.98,20.04c0,0.55-0.45,1-1,1h-15c-0.55,0-1-0.45-1-1v-11c0-0.55,0.45-1,1-1h5.95l-1.14-1h-4.8
                c-1.1,0-2,0.9-2,2v11c0,1.1,0.9,2,2,2h15c1.1,0,2-0.9,2-2v-4.17l-1-0.6V20.04z"></path>
            <polygon points="21.1,6.82 19.48,3.04 17.87,6.82 13.78,7.19 16.87,9.89 15.96,13.89 19.48,11.79 23.01,13.89
                22.1,9.89 25.19,7.19"></polygon>
        </symbol>
        <symbol id="videoIconSmall" viewbox="0 0 16 16">
            <path d="M157,1988a8,8,0,1,0,8,8A8,8,0,0,0,157,1988Zm-2.237,11.61v-7.22l6.249,3.61Z" transform="translate(-149 -1988)"></path>
        </symbol>
        <symbol id="photoIconSmall" viewbox="0 0 17 14">
            <path d="M121.136,2132.33h2.319a1.556,1.556,0,0,1,1.545,1.56v8.55a1.556,1.556,0,0,1-1.545,1.56h-13.91a1.556,1.556,0,0,1-1.545-1.56v-8.55a1.556,1.556,0,0,1,1.545-1.56h2.319m0,0L113.1,2130H119.9l1.233,2.33m-1.159,5.06a3.477,3.477,0,1,0-3.477,3.5A3.49,3.49,0,0,0,119.977,2137.39Z" transform="translate(-108 -2130)"></path>
        </symbol>
        <symbol id="podcastIconSmall" viewbox="0 0 18 18">
            <path d="M15.1,3.55C13.63,1.91,11.43,1,8.91,1C6.36,1,4.18,1.92,2.78,3.6c-1.51,1.81-2.02,4.33-1.48,7.31
	c0.08,0.46,0.42,1.92,0.53,2.35l0.38,2.56c0.04,0.27,0.24,0.47,0.47,0.47c0.03,0,0.06,0,0.08-0.01l0.95-0.2l0.07,0.5
	C3.82,16.82,4,17,4.21,17c0.03,0,0.05,0,0.08-0.01l1.36-0.28c0.24-0.05,0.39-0.32,0.35-0.59c0,0,0,0,0,0L4.96,9.15
	c-0.04-0.28-0.27-0.47-0.5-0.42c0,0,0,0,0,0L3.09,9.02C2.85,9.07,2.7,9.33,2.74,9.61l0.07,0.5l-0.54,0.11
	C2.03,8.5,2.18,6.97,2.73,5.71c0.48-0.92,1.11-1.73,1.88-2.37c0.04-0.03,0.08-0.05,0.12-0.08l0.3,1.08c0.04,0.16,0.19,0.25,0.33,0.2
	C5.37,4.53,5.39,4.52,5.4,4.51c2.3-1.46,4.66-1.45,6.96,0c0.07,0.04,0.15,0.05,0.22,0.01c0.07-0.03,0.13-0.1,0.15-0.19l0.35-1.12
	c0.45,0.29,0.87,0.64,1.22,1.04c1.25,1.4,1.77,3.36,1.51,5.68c-0.01,0.11-0.03,0.23-0.05,0.34l-0.79-0.16l0.07-0.5
	c0.04-0.28-0.11-0.54-0.35-0.6c0,0,0,0,0,0l-1.36-0.29c-0.11-0.02-0.23,0.01-0.32,0.08c-0.09,0.08-0.16,0.2-0.18,0.33l-1.04,6.96
	c-0.02,0.13,0.01,0.27,0.07,0.38c0.07,0.11,0.17,0.19,0.28,0.21l1.36,0.29c0.03,0,0.05,0.01,0.08,0.01c0.21,0,0.39-0.18,0.43-0.42
	l0.07-0.5l0.95,0.2c0.03,0.01,0.06,0.01,0.08,0.01c0.23,0,0.43-0.2,0.47-0.47l0.39-2.58c0,0,0.78-1.76,0.9-3.18
	C17.09,7.42,16.55,5.18,15.1,3.55z"></path>
        </symbol>
        <symbol id="nativeIconSmall" viewbox="0 0 22.35 19.27">
            <polygon points="2.65,7.5 11.65,7.5 10.65,6.5 2.65,6.5"></polygon>
            <polygon points="2.65,9.5 2.65,10.5 11.35,10.5 11.65,9.5"></polygon>
            <rect x="2.65" y="12.5" width="14.6" height="1"></rect>
            <rect x="2.65" y="15.51" width="14.3" height="0.98"></rect>
            <polygon points="13.12,10.91 16.65,8.81 20.17,10.91 19.26,6.91 22.35,4.21 18.26,3.84 16.65,0.06 15.03,3.84
                10.94,4.21 14.03,6.91"></polygon>
            <path d="M19.8,17.3c0,0.55-0.45,0.97-1,0.97H2c-0.55,0-1-0.42-1-0.97V5.29c0-0.55,0.45-1,1-1h7.75l-1.14-1H2
                c-1.1,0-2,0.9-2,2V17.3c0,1.1,0.9,1.97,2,1.97h16.8c1.1,0,2-0.87,2-1.97v-4.17l-1-0.6V17.3z"></path>
        </symbol>
        <symbol id="iconMail" viewbox="0 0 16.97 13">
            <path d="M1333.79,162v13h16.98V162h-16.98Zm15.45,1.5v0.842l-0.11-.2-6.85,3.669-6.86-3.669-0.11.2V163.5h13.93Zm-13.93,10v-7.707l6.97,3.727,6.96-3.727V173.5h-13.93Z" transform="translate(-1333.78 -162)"></path>
        </symbol>
        <symbol id="iconSympatia" viewbox="0 0 426.61 402.8">
			<path d="M423.89,91c-7.32-34.38-28.47-62.69-58-77.67A122.14,122.14,0,0,0,310.17,0c-37.34,0-72.25,16.78-96.91,46.31C188.6,16.78,153.68,0,116.34,0A122,122,0,0,0,64.46,11.51C33.61,25.87,11.28,54.24,3.18,89.34c-8.51,36.88.29,76,23.53,104.62L185.13,389.18a35.87,35.87,0,0,0,56.27,0L399.86,193.91C422.64,165.83,431.63,127.37,423.89,91ZM219.66,371.53a7.9,7.9,0,0,1-12.79,0L48.45,176.32c-17.85-22-24.57-52.14-18-80.68C36.61,69,53.31,47.59,76.28,36.9A94.23,94.23,0,0,1,116.34,28c34.18,0,65.95,18.53,85,49.57a14,14,0,0,0,23.87,0c19-31,50.8-49.57,85-49.57a94.39,94.39,0,0,1,43.05,10.35c22,11.13,37.73,32.47,43.28,58.53,6,28.13-.88,57.81-18.39,79.39Z"></path>
        </symbol>
        <symbol id="iconShopping" viewbox="0 0 500.44 423.63">
			<path d="M657.34,189.6a91.27,91.27,0,0,0-86.45,62.3l-2.77,8.31H192.2a17.65,17.65,0,0,0-16.74,23.24L234.4,460a17.71,17.71,0,0,0,14.36,11.9l259,35.3a20.51,20.51,0,0,1,7.33,2.31,14.75,14.75,0,0,1,5.94,6.06,19.25,19.25,0,0,1,2.15,9,21,21,0,0,1-1.22,7.1,18,18,0,0,1-2.34,4.46,14.7,14.7,0,0,1-5.31,4.57,19.36,19.36,0,0,1-9,1.92H251.14a17.65,17.65,0,1,0,0,35.3h8a35.3,35.3,0,0,0,70.6,0H443.5a35.3,35.3,0,1,0,70.6,0c0-.22,0-.42,0-.64a53,53,0,0,0,13.81-4,49.93,49.93,0,0,0,13.49-8.8A52,52,0,0,0,554.3,546a56.18,56.18,0,0,0,4.21-21.39,55.5,55.5,0,0,0-2.77-17.36,50.9,50.9,0,0,0-15.3-22.93,49.5,49.5,0,0,0-8-5.54l72-215.67a56,56,0,0,1,53-38.17,17.65,17.65,0,1,0,0-35.3ZM216.71,295.51H556.34l-58.28,174.7L264.41,438.36Z" transform="translate(-174.56 -189.6)"></path>
		</symbol>
		<symbol id="iconZumi" viewbox="250 274 300 211.76">
			<path d="M506.7,237.47c-29.51-30.29-67.4-47-106.7-47s-77.19,16.68-106.7,47c-28,28.72-44,65.48-44,100.86,0,67.06,38.68,136,71.14,182a664.86,664.86,0,0,0,70.31,83.92l9.27,9,9.26-9a659.25,659.25,0,0,0,70.32-83.92c32.45-46,71.14-114.95,71.14-182C550.72,303,534.67,266.19,506.7,237.47ZM400,217.12c32.36,0,63.66,14.12,88.15,39.75,22.51,23.57,36,54,36,81.46,0,97.59-95.48,206.73-124.1,237.25-28.62-30.52-124.1-139.67-124.1-237.25,0-27.44,13.44-57.89,36-81.46C336.34,231.23,367.64,217.12,400,217.12Z"></path>
			<path d="M400,415.84a80.54,80.54,0,1,0-80.54-80.54A80.63,80.63,0,0,0,400,415.84Zm0-134.46a53.92,53.92,0,1,1-53.92,53.92A54,54,0,0,1,400,281.39Z"></path>
		</symbol>
		<symbol id="iconVod" viewbox="0 0 535 535.01">
			<polygon points="191.21 152.87 191.21 382.14 389.79 267.51 191.21 152.87"></polygon>
			<path d="M267.5,0C120,0,0,120,0,267.52S120,535,267.5,535,535,415,535,267.52,415,0,267.5,0ZM501.06,267.52c0,128.76-104.77,233.53-233.56,233.53S33.93,396.28,33.93,267.52,138.71,34,267.5,34,501.06,138.73,501.06,267.52Z"></path>
		</symbol>
		<symbol id="iconGry" viewbox="0 0 283.5 268.6">
			<ellipse transform="matrix(0.2419 -0.9703 0.9703 0.2419 1.8019 354.3722)" cx="227.7" cy="176" rx="13.8" ry="13.8"></ellipse>
			<ellipse transform="matrix(0.2419 -0.9703 0.9703 0.2419 -35.5818 340.0114)" cx="199.8" cy="192.8" rx="13.8" ry="13.8"></ellipse>
			<ellipse transform="matrix(0.2419 -0.9703 0.9703 0.2419 -12.5514 391.7656)" cx="244.4" cy="203.9" rx="13.8" ry="13.8"></ellipse>
			<ellipse transform="matrix(0.2419 -0.9703 0.9703 0.2419 -49.935 377.4048)" cx="216.6" cy="220.7" rx="13.8" ry="13.8"></ellipse>
			<path d="M95.1,153.5l-13.7-3.4l3.4-13.5c0.5-1.8-0.6-3.6-2.3-4.1c0,0-0.1,0-0.1,0L64.5,128c-1.8-0.5-3.7,0.6-4.2,2.4  c0,0,0,0,0,0.1L56.9,144l-13.5-3.4c-1.9-0.5-3.8,0.7-4.3,2.6L34.6,161c-0.4,1.9,0.7,3.8,2.6,4.3l13.5,3.4l-3.4,13.5  c-0.4,1.9,0.7,3.7,2.6,4.2c0,0,0,0,0,0l17.8,4.4c1.8,0.5,3.6-0.6,4.1-2.4c0,0,0-0.1,0-0.1l3.4-13.5l13.7,3.4  c1.9,0.4,3.8-0.7,4.3-2.6l4.4-17.9C98.1,155.9,97,154,95.1,153.5z"></path>
			<path d="M273.4,164.1c-4.7-7.6-10.8-14.3-18-19.6c-7.5-5.5-16-9.5-25-11.8l-64.3-16c5.1-8.1,11.4-21.5,7.8-35  c-3.3-12.6-14.1-22.2-32.2-28.5c-9.3-3.2-16.6-7.1-21.6-11.5c-3.6-3-6.3-7-7.6-11.4c-3.2-12,6.6-23.6,6.7-23.7L111.8,0  c-0.6,0.6-13.4,15.6-8.8,32.8c3.4,12.8,15.4,22.9,35.6,29.9c14.7,5.1,23.4,12.3,25.8,21.5c3,11.5-4.3,24-8.5,29.9L86.4,96.8  c-17.7-4.6-36.6-2.1-52.5,7C17.9,112.9,6.5,128.2,2.2,146c-2.3,9.1-2.7,18.5-1.3,27.8c1.4,9,4.4,17.6,9,25.4  c4.6,7.8,10.6,14.7,17.8,20.2c7.4,5.7,16,9.8,25,12c20.8,5.2,41.8,1.3,58.2-10.8l39.6,9.9c4.1,8.5,10.1,16,17.6,21.9  c8.5,6.7,18.4,11.5,28.9,14.1c9,2.3,18.4,2.7,27.6,1.4c8.9-1.3,17.4-4.2,25.1-8.8c32.7-19.3,43.5-61.4,24.2-94.1  C273.8,164.7,273.6,164.4,273.4,164.1z M243.3,248.1c-13,7.6-28.6,9.8-43.2,6c-8.8-2.1-17-6-24.1-11.6c-6.6-5.2-11.9-12.1-15.2-19.9  l-1.2-2.9L108,206.9l-2.5,2c-13.6,11-31.7,14.8-49.7,10.3c-7.4-1.8-14.3-5.2-20.4-9.8c-5.9-4.5-10.9-10.1-14.6-16.5  c-3.8-6.4-6.3-13.5-7.4-20.9c-1.2-7.6-0.8-15.3,1-22.8c3.5-14.4,12.8-26.8,25.7-34.2c13.1-7.4,28.5-9.4,43.1-5.6l144.1,35.9  c14.7,3.5,27.3,12.7,35.3,25.6c16.1,26.4,7.8,60.9-18.6,77C243.7,247.9,243.5,248,243.3,248.1L243.3,248.1z"></path>
		</symbol>
        <symbol id="logoOnet" viewbox="0 0 77 24">
            <defs>
                <style>
                    .logoOnet1 {
                        fill: #1e1e1e;
                    }
                    .logoOnet1, .logoOnet2 {
                        fill-rule: evenodd;
                    }
                    .logoOnet2 {
                        fill: #ffd200;
                    }
                </style>
            </defs>
            <path class="logoOnet1" d="M50.315,89.332a6.345,6.345,0,1,1,6.4-6.344,6.291,6.291,0,0,1-6.4,6.344m0-9.6a3.258,3.258,0,1,0,3.225,3.258,3.124,3.124,0,0,0-3.225-3.258M66.217,89V82.009a2.187,2.187,0,0,0-2.337-2.422,2.892,2.892,0,0,0-2.6,1.663V89H58.105V77h2.777V78.23a5.009,5.009,0,0,1,3.934-1.586,4.468,4.468,0,0,1,3.25,1.293,5.155,5.155,0,0,1,1.325,3.691V89H66.217Zm23.611,0.21a4.277,4.277,0,0,1-3.139-1.03,4.077,4.077,0,0,1-1-3.022V79.994H83.7V77h1.984V74.2l3.174-.751V77H92v3H88.86v5.2c0,0.47.272,1.069,1.566,1.069,0.568,0,1.542-.119,1.542-0.119v2.816a10.862,10.862,0,0,1-2.14.247M77.4,89.332c-3.895,0-6.615-2.609-6.615-6.345a6.244,6.244,0,1,1,12.486,0,7.048,7.048,0,0,1-.121,1.274l-0.006.031H74.112a3.115,3.115,0,0,0,3.333,2.168,3.351,3.351,0,0,0,2.527-1.023l2.6,1.441a6.119,6.119,0,0,1-5.18,2.453m2.687-7.506a2.864,2.864,0,0,0-2.927-2.334,2.96,2.96,0,0,0-3.095,2.334h6.022Z" transform="translate(-15 -71)"></path>
            <path class="logoOnet2" d="M39.117,83A12.059,12.059,0,1,1,27.058,71,12.029,12.029,0,0,1,39.117,83" transform="translate(-15 -71)"></path>
        </symbol>
        <symbol id="loupe" viewbox="0 0 16 16">
            <path transform="matrix(1 0 0 1 0.6947637292464943 0.6947637292464885)" width="11.994891443167306" height="12.019515705164753" stroke-width="1.5" stroke-miterlimit="3" stroke="#C4C4C4" fill="#FFFFFF" fill-opacity="0" d="M0,6.009757852582376 C0,2.69065993892049 2.68514761072797,-2.220446049250313e-16 5.997445721583654,-2.220446049250313e-16 C9.30974383243934,-2.220446049250313e-16 11.994891443167306,2.69065993892049 11.994891443167306,6.009757852582376 C11.994891443167306,9.328855766244265 9.30974383243934,12.019515705164753 5.997445721583654,12.019515705164753 C2.68514761072797,12.019515705164753 0,9.328855766244265 0,6.009757852582376 Z "></path>
            <path transform="matrix(1 0 0 1 10.964091122638077 10.963732332481126)" width="4.485863949916055" height="4.506656967403778" stroke-width="1.5" stroke-miterlimit="3" stroke="#C4C4C4" fill="#FFFFFF" fill-opacity="0" d="M0,0 L4.485863949916055,4.506656967403778 "></path>
        </symbol>
    </defs>

</svg>