<?xml version="1.0" encoding="utf-8"?>
<!-- Generator: Adobe Illustrator 22.1.0, SVG Export Plug-In . SVG Version: 6.00 Build 0)  -->
<svg version="1.1" id="flag-icon-css-us" xmlns="http://www.w3.org/2000/svg" xmlns:xlink="http://www.w3.org/1999/xlink" x="0px"
	 y="0px" width="42.7px" height="32px" viewBox="0 0 42.7 32" style="enable-background:new 0 0 42.7 32;" xml:space="preserve">
<style type="text/css">
	.st0{fill:#BD3D44;}
	.st1{fill:#FFFFFF;}
	.st2{fill:#192F5D;}
</style>
<g>
	<g>
		<path class="st0" d="M0,0h42.7v2.5H0V0z M0,4.9h42.7v2.5H0V4.9z M0,9.8h42.7v2.5H0V9.8z M0,14.8h42.7v2.5H0V14.8z M0,19.7h42.7
			v2.5H0V19.7z M0,24.6h42.7v2.5H0V24.6z M0,29.5h42.7V32H0V29.5z"/>
		<path class="st1" d="M0,2.5h42.7v2.5H0V2.5z M0,7.4h42.7v2.5H0V7.4z M0,12.3h42.7v2.5H0V12.3z M0,17.2h42.7v2.5H0V17.2z M0,22.2
			h42.7v2.5H0V22.2z M0,27.1h42.7v2.5H0V27.1z"/>
	</g>
	<path class="st2" d="M0,0h24.3v17.2H0V0z"/>
	<path class="st1" d="M2,0.7l0.2,0.7H3L2.4,1.8l0.2,0.7L2,2.1L1.5,2.5l0.2-0.7L1.1,1.4h0.7L2,0.7z M6.1,0.7l0.2,0.7H7L6.4,1.8
		l0.2,0.7L6.1,2.1L5.5,2.5l0.2-0.7L5.1,1.4h0.7L6.1,0.7z M10.1,0.7l0.2,0.7h0.7l-0.6,0.4l0.2,0.7l-0.6-0.4L9.6,2.5l0.2-0.7L9.2,1.4
		h0.7L10.1,0.7z M14.2,0.7l0.2,0.7h0.7l-0.6,0.4l0.2,0.7l-0.6-0.4l-0.6,0.4l0.2-0.7l-0.6-0.4H14L14.2,0.7z M18.2,0.7l0.2,0.7h0.7
		l-0.6,0.4l0.2,0.7l-0.6-0.4l-0.6,0.4l0.2-0.7l-0.6-0.4H18L18.2,0.7z M22.3,0.7l0.2,0.7h0.7l-0.6,0.4l0.2,0.7l-0.6-0.4l-0.6,0.4
		l0.2-0.7l-0.6-0.4h0.7L22.3,0.7z M4.1,2.5l0.2,0.7H5L4.4,3.6l0.2,0.7L4.1,3.8L3.5,4.2l0.2-0.7L3.1,3.1h0.7L4.1,2.5z M8.1,2.5
		l0.2,0.7H9L8.5,3.6l0.2,0.7L8.1,3.8L7.5,4.2l0.2-0.7L7.2,3.1h0.7L8.1,2.5z M12.2,2.5l0.2,0.7h0.7l-0.6,0.4l0.2,0.7l-0.6-0.4
		l-0.6,0.4l0.2-0.7l-0.6-0.4h0.7L12.2,2.5z M16.2,2.5l0.2,0.7h0.7l-0.6,0.4l0.2,0.7l-0.6-0.4l-0.6,0.4l0.2-0.7l-0.6-0.4H16L16.2,2.5
		z M20.3,2.5l0.2,0.7h0.7l-0.6,0.4l0.2,0.7l-0.6-0.4l-0.6,0.4l0.2-0.7l-0.6-0.4H20L20.3,2.5z M2,4.2l0.2,0.7H3L2.4,5.3L2.6,6L2,5.5
		L1.5,6l0.2-0.7L1.1,4.9h0.7L2,4.2z M6.1,4.2l0.2,0.7H7L6.4,5.3L6.7,6L6.1,5.5L5.5,6l0.2-0.7L5.1,4.9h0.7L6.1,4.2z M10.1,4.2
		l0.2,0.7h0.7l-0.6,0.4L10.7,6l-0.6-0.4L9.6,6l0.2-0.7L9.2,4.9h0.7L10.1,4.2z M14.2,4.2l0.2,0.7h0.7l-0.6,0.4L14.8,6l-0.6-0.4
		L13.6,6l0.2-0.7l-0.6-0.4H14L14.2,4.2z M18.2,4.2l0.2,0.7h0.7l-0.6,0.4L18.8,6l-0.6-0.4L17.7,6l0.2-0.7l-0.6-0.4H18L18.2,4.2z
		 M22.3,4.2l0.2,0.7h0.7l-0.6,0.4L22.9,6l-0.6-0.4L21.7,6l0.2-0.7l-0.6-0.4h0.7L22.3,4.2z M4.1,5.9l0.2,0.7H5L4.4,7l0.2,0.7L4.1,7.3
		L3.5,7.7L3.7,7L3.1,6.6h0.7L4.1,5.9z M8.1,5.9l0.2,0.7H9L8.5,7l0.2,0.7L8.1,7.3L7.5,7.7L7.8,7L7.2,6.6h0.7L8.1,5.9z M12.2,5.9
		l0.2,0.7h0.7L12.5,7l0.2,0.7l-0.6-0.4l-0.6,0.4L11.8,7l-0.6-0.4h0.7L12.2,5.9z M16.2,5.9l0.2,0.7h0.7L16.6,7l0.2,0.7l-0.6-0.4
		l-0.6,0.4L15.9,7l-0.6-0.4H16L16.2,5.9z M20.3,5.9l0.2,0.7h0.7L20.6,7l0.2,0.7l-0.6-0.4l-0.6,0.4L19.9,7l-0.6-0.4H20L20.3,5.9z
		 M2,7.6l0.2,0.7H3L2.4,8.7l0.2,0.7L2,9L1.5,9.4l0.2-0.7L1.1,8.3h0.7L2,7.6z M6.1,7.6l0.2,0.7H7L6.4,8.7l0.2,0.7L6.1,9L5.5,9.4
		l0.2-0.7L5.1,8.3h0.7L6.1,7.6z M10.1,7.6l0.2,0.7h0.7l-0.6,0.4l0.2,0.7L10.1,9L9.6,9.4l0.2-0.7L9.2,8.3h0.7L10.1,7.6z M14.2,7.6
		l0.2,0.7h0.7l-0.6,0.4l0.2,0.7L14.2,9l-0.6,0.4l0.2-0.7l-0.6-0.4H14L14.2,7.6z M18.2,7.6l0.2,0.7h0.7l-0.6,0.4l0.2,0.7L18.2,9
		l-0.6,0.4l0.2-0.7l-0.6-0.4H18L18.2,7.6z M22.3,7.6l0.2,0.7h0.7l-0.6,0.4l0.2,0.7L22.3,9l-0.6,0.4l0.2-0.7l-0.6-0.4h0.7L22.3,7.6z
		 M4.1,9.4L4.3,10H5l-0.6,0.4l0.2,0.7l-0.6-0.4l-0.6,0.4l0.2-0.7L3.1,10h0.7L4.1,9.4z M8.1,9.4L8.3,10H9l-0.6,0.4l0.2,0.7l-0.6-0.4
		l-0.6,0.4l0.2-0.7L7.2,10h0.7L8.1,9.4z M12.2,9.4l0.2,0.7h0.7l-0.6,0.4l0.2,0.7l-0.6-0.4l-0.6,0.4l0.2-0.7L11.2,10h0.7L12.2,9.4z
		 M16.2,9.4l0.2,0.7h0.7l-0.6,0.4l0.2,0.7l-0.6-0.4l-0.6,0.4l0.2-0.7L15.3,10H16L16.2,9.4z M20.3,9.4l0.2,0.7h0.7l-0.6,0.4l0.2,0.7
		l-0.6-0.4l-0.6,0.4l0.2-0.7L19.3,10H20L20.3,9.4z M2,11.1l0.2,0.7H3l-0.6,0.4l0.2,0.7L2,12.4l-0.6,0.4l0.2-0.7l-0.6-0.4h0.7L2,11.1
		z M6.1,11.1l0.2,0.7H7l-0.6,0.4l0.2,0.7l-0.6-0.4l-0.6,0.4l0.2-0.7l-0.6-0.4h0.7L6.1,11.1z M10.1,11.1l0.2,0.7h0.7l-0.6,0.4
		l0.2,0.7l-0.6-0.4l-0.6,0.4l0.2-0.7l-0.6-0.4h0.7L10.1,11.1z M14.2,11.1l0.2,0.7h0.7l-0.6,0.4l0.2,0.7l-0.6-0.4l-0.6,0.4l0.2-0.7
		l-0.6-0.4H14L14.2,11.1z M18.2,11.1l0.2,0.7h0.7l-0.6,0.4l0.2,0.7l-0.6-0.4l-0.6,0.4l0.2-0.7l-0.6-0.4H18L18.2,11.1z M22.3,11.1
		l0.2,0.7h0.7l-0.6,0.4l0.2,0.7l-0.6-0.4l-0.6,0.4l0.2-0.7l-0.6-0.4h0.7L22.3,11.1z M4.1,12.8l0.2,0.7H5l-0.6,0.4l0.2,0.7l-0.6-0.4
		l-0.6,0.4l0.2-0.7l-0.6-0.4h0.7L4.1,12.8z M8.1,12.8l0.2,0.7H9l-0.6,0.4l0.2,0.7l-0.6-0.4l-0.6,0.4l0.2-0.7l-0.6-0.4h0.7L8.1,12.8z
		 M12.2,12.8l0.2,0.7h0.7l-0.6,0.4l0.2,0.7l-0.6-0.4l-0.6,0.4l0.2-0.7l-0.6-0.4h0.7L12.2,12.8z M16.2,12.8l0.2,0.7h0.7l-0.6,0.4
		l0.2,0.7l-0.6-0.4l-0.6,0.4l0.2-0.7l-0.6-0.4H16L16.2,12.8z M20.3,12.8l0.2,0.7h0.7l-0.6,0.4l0.2,0.7l-0.6-0.4l-0.6,0.4l0.2-0.7
		l-0.6-0.4H20L20.3,12.8z M2,14.5l0.2,0.7H3l-0.6,0.4l0.2,0.7L2,15.9l-0.6,0.4l0.2-0.7l-0.6-0.4h0.7L2,14.5z M6.1,14.5l0.2,0.7H7
		l-0.6,0.4l0.2,0.7l-0.6-0.4l-0.6,0.4l0.2-0.7l-0.6-0.4h0.7L6.1,14.5z M10.1,14.5l0.2,0.7h0.7l-0.6,0.4l0.2,0.7l-0.6-0.4l-0.6,0.4
		l0.2-0.7l-0.6-0.4h0.7L10.1,14.5z M14.2,14.5l0.2,0.7h0.7l-0.6,0.4l0.2,0.7l-0.6-0.4l-0.6,0.4l0.2-0.7l-0.6-0.4H14L14.2,14.5z
		 M18.2,14.5l0.2,0.7h0.7l-0.6,0.4l0.2,0.7l-0.6-0.4l-0.6,0.4l0.2-0.7l-0.6-0.4H18L18.2,14.5z M22.3,14.5l0.2,0.7h0.7l-0.6,0.4
		l0.2,0.7l-0.6-0.4l-0.6,0.4l0.2-0.7l-0.6-0.4h0.7L22.3,14.5z"/>
</g>
</svg>
