<?xml version="1.0" encoding="utf-8"?>
<!-- Generator: Adobe Illustrator 24.3.0, SVG Export Plug-In . SVG Version: 6.00 Build 0)  -->
<svg version="1.1" id="Layer_1" xmlns="http://www.w3.org/2000/svg" xmlns:xlink="http://www.w3.org/1999/xlink" x="0px" y="0px"
	 viewBox="0 0 300 131" style="enable-background:new 0 0 300 131;" xml:space="preserve">
<style type="text/css">
	.st0{fill:#48B8F0;}
	.st1{fill:#1C2B36;}
</style>
<g>
	<g>
		<path class="st0" d="M63.2,89.3h23.4L44.8,2L3,89.3h23.4l18.4-38.4L63.2,89.3z"/>
	</g>
</g>
<g>
	<g>
		<path class="st1" d="M102.3,89.3h23.4L83.9,2l-15.8,33l11.7,24.5l4.1-8.5L102.3,89.3z"/>
	</g>
</g>
<g>
	<path class="st0" d="M147.6,43.4c7.3,0,12.4,3.3,15.1,6.9v-6.2h11.6v43.4h-11.6v-6.3c-2.7,3.7-7.9,7.1-15.2,7.1
		c-11.5,0-20.7-9-20.7-22.5C126.8,52.1,136,43.4,147.6,43.4z M150.5,53c-6.2,0-12,4.4-12,12.6s5.9,12.9,12,12.9
		c6.3,0,12.1-4.5,12.1-12.8S156.8,53,150.5,53z"/>
	<path class="st0" d="M147.5,90c-13,0-22.5-10.2-22.5-24.3c0-14,9.5-24.1,22.6-24.1c5.1,0,9.8,1.5,13.3,4.3v-3.6H176v47h-15.2v-3.7
		C157.3,88.4,152.6,90,147.5,90z M147.6,45.2c-11.2,0-19,8.4-19,20.5c0,12,8,20.7,18.9,20.7c5.7,0,10.8-2.4,13.7-6.3l3.2-4.5v10.1h8
		V45.9h-8v9.8l-3.2-4.4C159.8,49.5,155.7,45.2,147.6,45.2z M150.5,80.3c-8.9,0-13.8-7.6-13.8-14.7c0-7.2,4.7-14.4,13.8-14.4
		c9.1,0,13.8,7.3,13.8,14.6C164.3,73,159.6,80.3,150.5,80.3z M150.5,54.8c-7,0-10.2,5.6-10.2,10.8c0,7.3,5.1,11.1,10.2,11.1
		c5.1,0,10.3-3.4,10.3-11C160.8,58.2,155.6,54.8,150.5,54.8z"/>
</g>
<g>
	<path class="st0" d="M199.8,87.5h-11.5V44.1h11.5v6.7c2.9-4.4,7.6-7.4,14-7.4V55h-3c-6.8,0-10.9,2.5-10.9,10.9V87.5z"/>
	<path class="st0" d="M201.6,89.3h-15.1v-47h15.1V46c3.2-2.8,7.4-4.4,12.2-4.4h1.8v15.1h-4.8c-6.7,0-9.2,2.5-9.2,9.1V89.3z
		 M190.1,85.7h7.9V65.8c0-8.5,4.2-12.7,12.7-12.7h1.2v-7.8c-4.5,0.5-8.3,2.7-10.7,6.5l-3.3,5.1v-11h-7.9V85.7z"/>
</g>
<g>
	<path class="st0" d="M281.3,63.5c0-7-4-10.7-10.2-10.7c-6.3,0-10.3,3.7-10.3,10.7v24h-11.5V43.3h11.5v6.2c2.9-3.6,7.9-6,13.7-6
		c10.6,0,18.2,6.6,18.2,18.6v25.5h-11.5L281.3,63.5L281.3,63.5z"/>
	<path class="st0" d="M294.6,89.3h-15.1V62c-0.5-4.8-3.4-7.4-8.3-7.4c-5.5,0-8.5,3.2-8.5,8.9v25.7h-15.1V41.5h15.1v3.9
		c3.3-2.4,7.5-3.7,11.9-3.7c12.1,0,20,8,20,20.4V89.3z M283.1,85.7h7.9V62c0-10.5-6.1-16.8-16.4-16.8c-5,0-9.6,2-12.3,5.4l-3.2,4
		v-9.5h-7.9v40.6h7.9V63.5c0-7.7,4.6-12.5,12.1-12.5c7.4,0,11.9,4.8,11.9,12.5v1.8h-0.1V85.7z"/>
</g>
<g>
	<g>
		<path class="st0" d="M225.3,43.3h11.5v44.2h-11.5V43.3z"/>
		<path class="st0" d="M238.6,89.3h-15.1V41.5h15.1V89.3z M227.1,85.7h7.9V45.1h-7.9V85.7z"/>
	</g>
	<g>
		<circle class="st0" cx="231.2" cy="26" r="5.9"/>
		<path class="st0" d="M231.2,33.7c-4.2,0-7.7-3.4-7.7-7.7s3.4-7.7,7.7-7.7s7.7,3.4,7.7,7.7S235.4,33.7,231.2,33.7z M231.2,21.9
			c-2.2,0-4.1,1.8-4.1,4.1c0,2.2,1.8,4.1,4.1,4.1s4.1-1.8,4.1-4.1C235.2,23.7,233.4,21.9,231.2,21.9z"/>
	</g>
</g>
<g>
	<path d="M1.5,126.6l3.2-3.5c0.6,0.6,1.3,1.2,2.3,1.8c1,0.6,2.1,0.9,3.3,0.9c0.5,0,1-0.1,1.5-0.3c0.5-0.2,0.9-0.5,1.2-0.8
		c0.3-0.4,0.5-0.8,0.5-1.3c0-0.8-0.4-1.4-1.2-1.9c-0.8-0.5-2-0.9-3.8-1.3c-1.7-0.4-3.1-1.2-4.2-2.2c-1.1-1.1-1.6-2.4-1.6-4.1
		c0-1.2,0.3-2.4,0.9-3.4c0.6-1,1.5-1.8,2.7-2.5c1.2-0.6,2.7-0.9,4.5-0.9c1.5,0,2.8,0.2,3.8,0.6c1,0.4,1.8,0.8,2.5,1.3
		c0.6,0.5,1,0.8,1.3,1.1l-2.9,3.2c-0.5-0.4-1.1-0.8-1.9-1.3c-0.8-0.5-1.7-0.7-2.8-0.7c-0.7,0-1.4,0.2-2,0.6
		c-0.6,0.4-0.9,0.9-0.9,1.5c0,0.7,0.4,1.4,1.2,1.8c0.8,0.5,1.9,0.8,3.3,1.2c1.1,0.3,2.1,0.7,3.1,1.2c1,0.5,1.8,1.3,2.5,2.2
		c0.6,0.9,1,2.2,1,3.7c0,1.3-0.4,2.5-1.1,3.5c-0.7,1-1.8,1.8-3,2.4c-1.3,0.6-2.7,0.9-4.3,0.9c-1.4,0-2.7-0.2-3.9-0.5
		c-1.1-0.4-2.1-0.8-2.9-1.4C2.7,127.8,2,127.3,1.5,126.6z"/>
	<path d="M50.7,130.3c-1.6,0-3.1-0.3-4.5-0.9c-1.4-0.6-2.6-1.4-3.6-2.5c-1-1.1-1.9-2.3-2.4-3.7c-0.6-1.4-0.9-2.9-0.9-4.5
		c0-1.6,0.3-3.2,0.9-4.6c0.6-1.4,1.4-2.6,2.4-3.7c1-1.1,2.2-1.9,3.6-2.5c1.4-0.6,2.9-0.9,4.5-0.9c1.6,0,3.1,0.3,4.5,0.9
		c1.4,0.6,2.6,1.4,3.6,2.5c1,1.1,1.9,2.3,2.4,3.7c0.6,1.4,0.9,2.9,0.9,4.6c0,1.6-0.3,3.1-0.9,4.5c-0.6,1.4-1.4,2.6-2.4,3.7
		c-1,1.1-2.3,1.9-3.6,2.5C53.8,130,52.3,130.3,50.7,130.3z M50.7,125.6c1.3,0,2.4-0.3,3.3-1c0.9-0.6,1.6-1.5,2.1-2.5
		c0.5-1.1,0.7-2.2,0.7-3.5s-0.2-2.4-0.7-3.4c-0.5-1-1.2-1.9-2.1-2.5c-0.9-0.6-2-0.9-3.3-0.9c-1.3,0-2.4,0.3-3.3,0.9
		c-0.9,0.6-1.7,1.5-2.2,2.5c-0.5,1-0.8,2.2-0.8,3.4s0.3,2.4,0.8,3.5c0.5,1.1,1.2,1.9,2.2,2.5C48.3,125.3,49.4,125.6,50.7,125.6z"/>
	<path d="M83.2,129.7v-22H98v4.4h-9.8v5h7.4v4.3h-7.4v8.4H83.2z"/>
	<path d="M124.3,129.7v-17.6h-7.1v-4.4h19.2v4.4h-7.1v17.6H124.3z"/>
	<path d="M160.7,129.7l-5.5-22h5.3l3.2,15.9l3.9-15.3h4.5l3.9,15.3l3.2-15.9h5.1l-5.6,22h-5.2l-3.8-14.4l-3.8,14.4H160.7z"/>
	<path d="M200.9,129.7l8.2-22h5.5l8,22h-5.4l-1.7-5h-7.7l-1.7,5H200.9z M208.9,120.8h5.4l-2.7-8.3L208.9,120.8z"/>
	<path d="M242.6,129.7v-22h8.2c1.7,0,3.1,0.3,4.3,0.9c1.1,0.6,2,1.5,2.6,2.5c0.6,1,0.9,2.2,0.9,3.4c0,1.4-0.3,2.6-0.9,3.7
		c-0.6,1.1-1.5,1.9-2.7,2.6l4.9,8.8h-5.5l-4.1-8.1h-2.8v8.1H242.6z M247.5,117.7h3.1c0.9,0,1.6-0.3,2.2-0.8c0.5-0.5,0.8-1.2,0.8-2.1
		c0-0.9-0.3-1.6-0.8-2.1c-0.5-0.5-1.3-0.8-2.2-0.8h-3.1V117.7z"/>
	<path d="M280.3,129.7v-22h15v4.3h-10v4.3h7.8v4.2h-7.8v4.7h10.8v4.4H280.3z"/>
</g>
</svg>
