<?xml version="1.0" encoding="UTF-8" ?>
<svg width="16" height="16" viewBox="0 0 16 16" fill="none" xmlns="http://www.w3.org/2000/svg">
<path fill-rule="evenodd" clip-rule="evenodd" d="M16 0H0V9.517C0 12.91 2.777 16 8 16C12.953 16 16 12.91 16 9.518V0Z" fill="#CE0000"/>
<path fill-rule="evenodd" clip-rule="evenodd" d="M13 5L8 12L3 5H6V0H10V5H13Z" fill="white"/>
</svg>
