<svg class="svg-icons" xmlns="http://www.w3.org/2000/svg">
<symbol id="andy-logo" viewbox="0 0 642 362">
  <path d="M478.33 109.291l53.428-92.607c3.06-5.321 1.241-12.12-4.07-15.196-5.31-3.066-12.11-1.242-15.184 4.073l-54.095 93.78c-41.372-18.895-87.833-29.42-137.41-29.42-49.575 0-96.04 10.525-137.408 29.42L129.496 5.56c-3.073-5.315-9.876-7.139-15.187-4.073-5.308 3.076-7.14 9.875-4.067 15.196l53.429 92.607C71.927 159.23 9.178 252.183 0 362h642c-9.187-109.817-71.937-202.77-163.67-252.709M468.497 217C483.113 217 495 229.109 495 243.994 495 258.882 483.113 271 468.498 271 453.887 271 442 258.882 442 243.994 442 229.109 453.887 217 468.498 217zM173.5 217c14.611 0 26.5 12.109 26.5 26.994C200 258.882 188.111 271 173.5 271c-14.614 0-26.5-12.118-26.5-27.006C147 229.109 158.886 217 173.5 217z" fill="#3DDC84" fill-rule="evenodd"></path>
</symbol><symbol id="android-logo" class="logo-android__logo-icon" viewbox="0 0 898 160">
  <path fill="none" d="M2130-164h540v486h-540z"></path>
  <path d="M2224.2 210.9c-10.7 0-17.9 8.4-17.9 19.2s7.2 19.2 17.9 19.2 17.9-8.4 17.9-19.2-7.2-19.2-17.9-19.2m-2.4-11.9c8.6 0 15.8 4.4 19.2 9.2v-8h13.2v59.9h-10.1c-1.7 0-3-1.4-3-3v-5c-3.4 4.8-10.5 9.2-19.2 9.2-16.4 0-28.9-14-28.9-31.1s12.4-31.2 28.8-31.2M2269.2 200.2h13.2v8.1c3.6-6 10.4-9.3 18.2-9.3 13.9 0 22.9 9.8 22.9 25v36.1h-10.1c-1.7 0-3-1.4-3-3v-30.9c0-9.5-4.8-15.2-12.5-15.2-8.7 0-15.5 6.8-15.5 19.6v29.5h-10.1c-1.7 0-3-1.4-3-3v-56.9zM2365.1 210.9c-10.7 0-17.9 8.4-17.9 19.2s7.2 19.2 17.9 19.2 17.9-8.4 17.9-19.2-7.2-19.2-17.9-19.2m-2.4-11.9c8.6 0 15.8 4.4 19.2 9.2v-38h13.2v89.9H2385c-1.7 0-3-1.4-3-3v-5c-3.4 4.8-10.5 9.2-19.2 9.2-16.4 0-28.9-14-28.9-31.1s12.4-31.2 28.8-31.2M2410.1 200.2h13.2v10.7c2.3-6.8 9-11.3 15.8-11.3 1.7 0 3.4.1 5.1.5v13.5c-2.3-.7-4.2-1.1-6.6-1.1-7.5 0-14.4 6.4-14.4 18.3V260h-10.1c-1.7 0-3-1.4-3-3v-56.8zM2479.7 249c10.5 0 18-8.3 18-18.9 0-10.7-7.4-18.9-18-18.9-10.7 0-18.1 8.3-18.1 18.9.1 10.7 7.5 18.9 18.1 18.9m0 12.3c-17.7 0-31.4-13.8-31.4-31.1 0-17.4 13.7-31.2 31.4-31.2s31.4 13.8 31.4 31.2c0 17.3-13.6 31.1-31.4 31.1M2521.8 200.2h13.2v59.9h-10.1c-1.7 0-3-1.4-3-3v-56.9zm6.6-13.1c-4.8 0-8.9-4-8.9-8.9 0-4.8 4.1-8.7 8.9-8.7 4.9 0 8.7 4 8.7 8.7 0 4.9-3.8 8.9-8.7 8.9M2577.1 210.9c-10.7 0-17.9 8.4-17.9 19.2s7.2 19.2 17.9 19.2 17.9-8.4 17.9-19.2c-.1-10.8-7.2-19.2-17.9-19.2m-2.4-11.9c8.6 0 15.8 4.4 19.2 9.2v-38h13.2v89.9H2597c-1.7 0-3-1.4-3-3v-5c-3.4 4.8-10.5 9.2-19.2 9.2-16.4 0-28.9-14-28.9-31.1s12.4-31.2 28.8-31.2"></path>
  <path d="M2501.5-30.8l34.5-59.7c2-3.4.8-7.8-2.6-9.8s-7.8-.8-9.8 2.6l-34.9 60.4c-26.7-12.2-56.7-19-88.6-19-32 0-61.9 6.8-88.6 19l-34.9-60.4c-2-3.4-6.4-4.6-9.8-2.6s-4.6 6.4-2.6 9.8l34.5 59.7C2239.3 1.4 2198.9 61.3 2193 132h414c-5.9-70.7-46.4-130.6-105.5-162.8zM2304.7 73c-9.5 0-17.2-7.7-17.2-17.2s7.7-17.2 17.2-17.2 17.2 7.7 17.2 17.2-7.7 17.2-17.2 17.2zm190.6 0c-9.5 0-17.2-7.7-17.2-17.2s7.7-17.2 17.2-17.2 17.2 7.7 17.2 17.2-7.7 17.2-17.2 17.2z"></path>
  <path fill="none" d="M-72-75H974v309H-72z"></path>
  <path d="M59.3 56.4c12.4 0 22.7 6.4 27.6 13.3V58.1h18.9v86.1H92.2c-3 0-5.4-2.4-5.4-5.4v-6.2c-4.8 7-15.1 13.4-27.5 13.4-23.6 0-41.5-20.2-41.5-44.8s17.9-44.8 41.5-44.8m3.4 17.2C47.4 73.6 37 85.7 37 101.2s10.3 27.6 25.7 27.6c15.3 0 25.7-12.1 25.7-27.6S78.1 73.6 62.7 73.6M127.3 58.1h19v11.7c5.2-8.6 15-13.4 26.2-13.4 20 0 32.9 14.1 32.9 36v51.8h-13.6c-3 0-5.4-2.4-5.4-5.4V95.5c0-13.6-6.9-21.9-17.9-21.9-12.6 0-22.2 9.8-22.2 28.2v42.4h-13.6c-3 0-5.4-2.4-5.4-5.4V58.1zM261.9 56.4c12.4 0 22.7 6.4 27.6 13.3V15.1h18.9v129.2h-13.6c-3 0-5.4-2.4-5.4-5.4v-6.2c-4.8 6.9-15.2 13.3-27.6 13.3-23.6 0-41.5-20.2-41.5-44.8.1-24.6 18-44.8 41.6-44.8m3.4 17.2c-15.3 0-25.7 12.1-25.7 27.6s10.3 27.6 25.7 27.6c15.3 0 25.7-12.1 25.7-27.6s-10.4-27.6-25.7-27.6M329.9 58.1h18.9v15.3c3.3-9.8 12.9-16.2 22.7-16.2 2.4 0 4.8.2 7.4.7v19.5c-3.3-1-6-1.6-9.5-1.6-10.9 0-20.7 9.1-20.7 26.4v42h-13.6c-3 0-5.4-2.4-5.4-5.4V58.1zM430.1 146c-25.5 0-45.1-19.8-45.1-44.8s19.6-44.8 45.1-44.8 45.1 19.8 45.1 44.8-19.6 44.8-45.1 44.8m0-17.6c15.2 0 25.8-11.9 25.8-27.2S445.2 74 430.1 74c-15.3 0-26 11.9-26 27.2s10.7 27.2 26 27.2M500 39.3c-6.9 0-12.7-5.7-12.7-12.7 0-6.9 5.9-12.6 12.7-12.6 7.1 0 12.6 5.7 12.6 12.6 0 7.1-5.5 12.7-12.6 12.7m-9.4 18.8h18.9v86.1H496c-3 0-5.4-2.4-5.4-5.4V58.1zM566.6 56.4c12.4 0 22.7 6.4 27.6 13.3V15.1h18.9v129.2h-13.6c-3 0-5.4-2.4-5.4-5.4v-6.2c-4.8 6.9-15.2 13.3-27.6 13.3-23.6 0-41.5-20.2-41.5-44.8.1-24.6 18-44.8 41.6-44.8m3.5 17.2c-15.3 0-25.7 12.1-25.7 27.6s10.3 27.6 25.7 27.6c15.3 0 25.7-12.1 25.7-27.6s-10.4-27.6-25.7-27.6"></path>
  <path class="logo-android__andy-icon" d="m822.2 111.7c-5.3 0-9.6-4.3-9.6-9.6s4.3-9.6 9.6-9.6 9.6 4.3 9.6 9.6-4.3 9.6-9.6 9.6m-105.7 0c-5.3 0-9.6-4.3-9.6-9.6s4.3-9.6 9.6-9.6 9.6 4.3 9.6 9.6-4.3 9.6-9.6 9.6m109.1-57.6l19.2-33.1c1.1-1.9 0.4-4.3-1.5-5.4s-4.3-0.4-5.4 1.5l-19.4 33.5c-14.8-6.8-31.4-10.6-49.1-10.6s-34.4 3.8-49.2 10.5l-19.4-33.5c-1.1-1.9-3.5-2.6-5.4-1.5s-2.6 3.5-1.5 5.4l19.1 33.1c-32.8 17.9-55.3 51.1-58.6 90.4h229.7c-3.2-39.2-25.6-72.4-58.5-90.3"></path>
</symbol><symbol id="ico-arrow-external" viewbox="0 0 13 13">
  <path d="M.8 7.4h9.3L6 11.6c-.3.3-.3.9 0 1.2.3.3.9.3 1.2 0l5.5-5.6c.3-.3.3-.9 0-1.2L7.3.3C7 0 6.4 0 6.1.3s-.3.9 0 1.2l4.1 4.2H.8c-.4-.1-.8.3-.8.8s.4.9.8.9z" fill="currentColor"></path>
</symbol><symbol id="ico-arrow-round" viewbox="0 0 11 7">
 <path d="M9.576 1.333L5.333 5.576 1.091 1.333" stroke="currentColor" stroke-width="2" fill="none" stroke-linecap="round" stroke-linejoin="round"></path>
</symbol><symbol id="ico-arrow-large" viewbox="0 0 24 24">
  <g fill="none" fill-rule="evenodd">
    <path d="M5 13h11.17l-4.88 4.88c-.39.39-.39 1.03 0 1.42.39.39 1.02.39 1.41 0l6.59-6.59a.996.996 0 0 0 0-1.41l-6.58-6.6a.996.996 0 1 0-1.41 1.41L16.17 11H5c-.55 0-1 .45-1 1s.45 1 1 1z" fill="currentColor"></path>
  </g>
</symbol><symbol id="ico-close" viewbox="0 0 24 24">
  <g fill="none" fill-rule="evenodd">
    <path d="M0 0h24v24H0z"></path>
    <path d="M18.3 5.71a.996.996 0 0 0-1.41 0L12 10.59 7.11 5.7A.996.996 0 1 0 5.7 7.11L10.59 12 5.7 16.89a.996.996 0 1 0 1.41 1.41L12 13.41l4.89 4.89a.996.996 0 1 0 1.41-1.41L13.41 12l4.89-4.89c.38-.38.38-1.02 0-1.4z" fill="currentColor"></path>
  </g>
</symbol><symbol id="ico-cross" viewbox="0 0 63 63">
  <path d="M63 26.2H36.8V0H26.2v26.2H0v10.6h26.2V63h10.6V36.8H63z"></path>
</symbol><symbol viewbox="0 0 29 29" id="ico-exclamation">
  <g transform="translate(1 1)" stroke="currentColor" fill="none" fill-rule="evenodd">
    <path fill="currentColor" d="M12 15h3V6h-3zm0 6h3v-3h-3z"></path>
    <circle stroke="currentColor" stroke-width="2" cx="13.5" cy="13.5" r="13.5"></circle>
  </g>
</symbol><symbol id="ico-globe" viewbox="0 0 24 24">
  <g fill="none" fill-rule="evenodd">
    <path d="M0 0h24v24H0z"></path>
    <path d="M11.99 2C6.47 2 2 6.48 2 12s4.47 10 9.99 10C17.52 22 22 17.52 22 12S17.52 2 11.99 2zm6.93 6h-2.95a15.65 15.65 0 0 0-1.38-3.56A8.03 8.03 0 0 1 18.92 8zM12 4.04c.83 1.2 1.48 2.53 1.91 3.96h-3.82c.43-1.43 1.08-2.76 1.91-3.96zM4.26 14C4.1 13.36 4 12.69 4 12s.1-1.36.26-2h3.38c-.08.66-.14 1.32-.14 2s.06 1.34.14 2zm.82 2h2.95c.32 1.25.78 2.45 1.38 3.56A7.987 7.987 0 0 1 5.08 16zm2.95-8H5.08a7.987 7.987 0 0 1 4.33-3.56A15.65 15.65 0 0 0 8.03 8zM12 19.96c-.83-1.2-1.48-2.53-1.91-3.96h3.82c-.43 1.43-1.08 2.76-1.91 3.96zM14.34 14H9.66c-.09-.66-.16-1.32-.16-2s.07-1.35.16-2h4.68c.09.65.16 1.32.16 2s-.07 1.34-.16 2zm.25 5.56c.6-1.11 1.06-2.31 1.38-3.56h2.95a8.03 8.03 0 0 1-4.33 3.56zM16.36 14c.08-.66.14-1.32.14-2s-.06-1.34-.14-2h3.38c.16.64.26 1.31.26 2s-.1 1.36-.26 2z" fill="currentColor"></path>
  </g>
</symbol><symbol id="ico-hamburger" viewbox="0 0 24 24">
  <g fill="none" fill-rule="evenodd">
    <path d="M0 0h24v24H0z"></path>
    <path d="M4 18h16c.55 0 1-.45 1-1s-.45-1-1-1H4c-.55 0-1 .45-1 1s.45 1 1 1zm0-5h16c.55 0 1-.45 1-1s-.45-1-1-1H4c-.55 0-1 .45-1 1s.45 1 1 1zM3 7c0 .55.45 1 1 1h16c.55 0 1-.45 1-1s-.45-1-1-1H4c-.55 0-1 .45-1 1z" fill="currentColor"></path>
  </g>
</symbol><symbol id="ico-search" viewbox="0 0 24 24">
  <g fill="none" fill-rule="evenodd">
    <path d="M0 0h24v24H0z"></path>
    <path d="M15.5 14h-.79l-.28-.27a6.5 6.5 0 0 0 1.48-5.34c-.47-2.78-2.79-5-5.59-5.34a6.505 6.505 0 0 0-7.27 7.27c.34 2.8 2.56 5.12 5.34 5.59a6.5 6.5 0 0 0 5.34-1.48l.27.28v.79l4.25 4.25c.41.41 1.08.41 1.49 0 .41-.41.41-1.08 0-1.49L15.5 14zm-6 0C7.01 14 5 11.99 5 9.5S7.01 5 9.5 5 14 7.01 14 9.5 11.99 14 9.5 14z" fill="currentColor"></path>
  </g>
</symbol><symbol id="ico-skip" viewbox="0 0 24 24">
  <path d="M6 18l8.5-6L6 6v12zM16 6v12h2V6h-2z"></path>
  <path d="M0 0h24v24H0z" fill="none"></path>
</symbol><symbol id="ico-stop" viewbox="0 0 24 24">
  <path d="M0 0h24v24H0z" fill="none"></path>
  <path d="M6 6h12v12H6z"></path>
</symbol><symbol id="social-blogger" viewbox="0 0 512 512">
  <rect width="512" height="512" rx="15%" fill="currentColor"></rect>
  <path fill="#f3f3f3" d="M95 184c0-51 41-93 93-93h86c64 0 103 61 85 126 0 0 61-3 66 58v53c0 46-34 93-93 93H183c-49 0-88-39-88-88z"></path>
  <path stroke="currentColor" stroke-width="55" d="M199 188h68m-74 129h133"></path>
</symbol><symbol id="social-facebook" viewbox="0 0 20 20">
  <g fill="none" fill-rule="evenodd">
    <path d="M-2-2h24v24H-2z"></path>
    <path d="M20 10.1c0-5.5-4.5-10-10-10S0 4.5 0 10.1c0 5 3.7 9.1 8.4 9.9v-7H5.9v-2.9h2.5V7.9C8.4 5.4 9.9 4 12.2 4c1.1 0 2.2.2 2.2.2v2.5h-1.3c-1.2 0-1.6.8-1.6 1.6v1.9h2.8l-.4 2.8h-2.3v7c4.7-.8 8.4-4.9 8.4-9.9z" fill="currentColor"></path>
  </g>
</symbol><symbol id="social-instagram" viewbox="0 0 48 48">
  <path d="M23.9,7.1c5.5,0,6.1,0,8.3,0.1c2,0.1,3.1,0.4,3.8,0.7c0.9,0.3,1.7,0.9,2.4,1.5c0.7,0.7,1.2,1.5,1.5,2.4 c0.3,0.7,0.6,1.8,0.7,3.8c0.1,2.2,0.1,2.8,0.1,8.3s0,6.1-0.1,8.3c-0.1,2-0.4,3.1-0.7,3.8c-0.7,1.8-2.1,3.2-3.9,3.9 c-0.7,0.3-1.8,0.6-3.8,0.7c-2.2,0.1-2.8,0.1-8.3,0.1s-6.1,0-8.3-0.1c-2-0.1-3.1-0.4-3.8-0.7c-0.9-0.3-1.7-0.9-2.4-1.5 c-0.7-0.7-1.2-1.5-1.5-2.4c-0.3-0.7-0.6-1.8-0.7-3.8c-0.1-2.2-0.1-2.8-0.1-8.3s0-6.1,0.1-8.3c0.1-2,0.4-3.1,0.7-3.8 c0.3-0.9,0.9-1.7,1.5-2.4c0.7-0.7,1.5-1.2,2.4-1.5c0.7-0.3,1.8-0.6,3.8-0.7C17.8,7.1,18.5,7.1,23.9,7.1 M23.9,3.4 c-5.6,0-6.3,0-8.5,0.1c-2.2,0.1-3.7,0.4-5,1C9.1,5,7.9,5.8,6.9,6.8c-1,1-1.9,2.3-2.4,3.6c-0.5,1.3-0.9,2.8-1,5 c-0.1,2.2-0.1,2.9-0.1,8.5s0,6.3,0.1,8.5c0.1,2.2,0.4,3.7,1,5C5,38.7,5.8,40,6.9,41c1,1,2.3,1.9,3.6,2.4c1.3,0.5,2.8,0.9,5,1 c2.2,0.1,2.9,0.1,8.5,0.1s6.3,0,8.5-0.1c2.2-0.1,3.7-0.4,5-1c2.8-1.1,4.9-3.2,6-6c0.5-1.3,0.9-2.8,1-5c0.1-2.2,0.1-2.9,0.1-8.5 s0-6.3-0.1-8.5c-0.1-2.2-0.4-3.7-1-5c-0.5-1.4-1.3-2.6-2.4-3.6c-1-1-2.3-1.9-3.6-2.4c-1.3-0.5-2.8-0.9-5-1 C30.2,3.4,29.5,3.4,23.9,3.4L23.9,3.4L23.9,3.4z"></path>
  <path d="M23.9,13.4c-5.8,0-10.5,4.7-10.5,10.5s4.7,10.5,10.5,10.5s10.5-4.7,10.5-10.5l0,0C34.5,18.1,29.8,13.4,23.9,13.4z M23.9,30.8c-3.8,0-6.8-3.1-6.8-6.8c0-3.8,3.1-6.8,6.8-6.8c3.8,0,6.8,3.1,6.8,6.8C30.8,27.7,27.7,30.8,23.9,30.8z"></path>
  <circle cx="34.9" cy="13" r="2.5"></circle>
</symbol><symbol id="social-twitter" viewbox="0 0 48 48">
  <path d="M40.9331436,11.1940288 C42.810084,10.0689342 44.2513785,8.28745345 44.9301304,6.16481389 C43.1737706,7.20644208 41.2282743,7.96298797 39.1576594,8.37075777 C37.4993523,6.6040254 35.1368481,5.5 32.5223241,5.5 C27.501861,5.5 23.4316182,9.57008073 23.4316182,14.5902197 C23.4316182,15.3026824 23.5121673,15.9965069 23.6671068,16.661807 C16.1120205,16.2827237 9.4138018,12.6636857 4.93027879,7.16397957 C4.1478016,8.50657299 3.69951412,10.0681239 3.69951412,11.7340483 C3.69951412,14.8877815 5.30449997,17.6702107 7.74366355,19.3003175 C6.25342374,19.253155 4.85183659,18.8442507 3.62609611,18.1633918 C3.62544783,18.2013163 3.62544783,18.2394029 3.62544783,18.2776516 C3.62544783,22.6820841 6.75892216,26.3562262 10.9174935,27.1912143 C10.1546268,27.3989889 9.35156666,27.5100073 8.52241311,27.5100073 C7.93668971,27.5100073 7.36717338,27.4531205 6.81224341,27.3469642 C7.96894178,30.958547 11.3260736,33.586685 15.3039361,33.660103 C12.1928276,36.0981321 8.27314842,37.5514198 4.01425536,37.5514198 C3.28056144,37.5514198 2.5569159,37.5084711 1.8457498,37.4245184 C5.86866797,40.0037111 10.6469975,41.5085373 15.780586,41.5085373 C32.5010928,41.5085373 41.6444717,27.6568433 41.6444717,15.6443274 C41.6444717,15.2501715 41.6357199,14.8581225 41.6182163,14.4683426 C43.3941867,13.1866877 44.9354788,11.5855916 46.1542502,9.76262068 C44.5239813,10.4856179 42.7719974,10.974261 40.9331436,11.1940288 Z"></path>
</symbol><symbol id="social-youtube" viewbox="0 0 48 48">
  <path d="M47.48 13.21s-.46-3.3-1.9-4.74c-1.82-1.92-3.86-1.92-4.8-2.04C34.08 5.94 24 6 24 6s-10.04-.06-16.74.42c-.92.12-2.96.12-4.78 2.04C1.04 9.9.56 13.2.56 13.2S.08 17.09 0 20.96v4.05c.08 3.88.56 7.75.56 7.75s.48 3.3 1.92 4.76c1.82 1.9 4.2 1.84 5.28 2.04 3.76.36 15.82.44 16.24.44 0 0 10.1.02 16.8-.46.92-.12 2.96-.12 4.78-2.04 1.44-1.44 1.92-4.74 1.92-4.74s.48-3.88.5-7.75v-4.05c-.04-3.87-.52-7.75-.52-7.75zM19.14 30V15.98L32 23.26 19.14 30z"></path>
  <path fill="none" d="M0 0h47.99v48H0z"></path>
</symbol></svg>