<svg id="line-logo-airnowmonetisation" xmlns="http://www.w3.org/2000/svg" width="1771.33" height="200" viewbox="0 0 1771.33 200">
	<g id="icon-airnowmonetisation">
		<path class="ignore-hover" id="Path" d="M162.1,1.344C184.04-5.675,205.73,16.015,198.71,37.952L151.123,186.678c-7.464,23.326-42.846,13.662-39.488-10.785,6.855-49.912-37.562-94.328-87.473-87.473C-.286,91.778-9.949,56.4,13.377,48.932Z" transform="translate(-0.055 0)" fill="#FBF4DD"></path>
		<path class="ignore-hover" id="Triangle-Copy-3" d="M50.244,37.126,140.285,149.88H50.244Z" transform="translate(-0.027 0.021)" fill="#efcb5e" fill-rule="evenodd"></path>
		<path id="Path_91" data-name="Path 91" d="M154.994,149.827a7.5,7.5,0,0,1-7.5-7.5V63.716l-46.928,47.15a7.5,7.5,0,0,1-10.637-10.588l59.751-60.033A7.5,7.5,0,0,1,162.5,45.539v96.784A7.5,7.5,0,0,1,154.994,149.827Z" transform="translate(-0.006 0.021)"></path>
	</g>
	<g id="Group_34" data-name="Group 34" transform="translate(-1.055 0)" class="scroll-hide">
		<path id="Shape" d="M296.819,52.336c9.157-29.917,51.509-29.917,60.665,0L390.006,162.35a5.766,5.766,0,0,1-5.53,7.4H367.62a5.767,5.767,0,0,1-5.513-4.075l-9.371-30.528h-52.92l-10.127,30.646a5.768,5.768,0,0,1-5.476,3.957H267.426a5.767,5.767,0,0,1-5.5-7.512Zm12.527,53.975h34.54L329.909,60.775a2.632,2.632,0,0,0-.995-1.544,3.378,3.378,0,0,0-3.524,0,2.632,2.632,0,0,0-1,1.544ZM441.218,48.638a17.3,17.3,0,1,1-17.3-17.3A17.3,17.3,0,0,1,441.218,48.638Zm-2.884,37.488a5.767,5.767,0,0,0-5.767-5.767h-17.3a5.767,5.767,0,0,0-5.768,5.767v77.86a5.767,5.767,0,0,0,5.768,5.768h17.3a5.767,5.767,0,0,0,5.767-5.768Zm23.07,37.488A54.79,54.79,0,0,1,516.2,68.824a5.767,5.767,0,0,1,5.767,5.767v17.3a5.767,5.767,0,0,1-5.767,5.768,25.954,25.954,0,0,0-25.954,25.953v40.372a5.767,5.767,0,0,1-5.767,5.768h-17.3a5.767,5.767,0,0,1-5.768-5.768Zm124-54.79a49.021,49.021,0,0,0-49.023,49.023v46.139a5.768,5.768,0,0,0,5.767,5.768h17.3a5.769,5.769,0,0,0,5.768-5.768V117.847a20.186,20.186,0,0,1,40.372,0v46.139a5.769,5.769,0,0,0,5.767,5.768h17.3a5.769,5.769,0,0,0,5.767-5.768V117.847A49.024,49.024,0,0,0,585.405,68.824ZM703.637,94.777a23.07,23.07,0,1,0,23.07,23.07A23.069,23.069,0,0,0,703.637,94.777Zm-51.907,23.07a51.907,51.907,0,1,1,51.907,51.907A51.905,51.905,0,0,1,651.73,117.847Zm203.845,51.907a5.774,5.774,0,0,1-5.081-3.035l-17.089-31.768-17.1,31.768a5.759,5.759,0,0,1-5.075,3.035H794.25a5.77,5.77,0,0,1-5.595-4.357L766.006,75.583a5.765,5.765,0,0,1,5.589-7.178h16.951a5.766,5.766,0,0,1,5.588,4.35l14.88,58.721L828.26,93.568a5.771,5.771,0,0,1,10.289,0l19.246,37.907,14.88-58.72a5.762,5.762,0,0,1,5.589-4.35h16.945a5.768,5.768,0,0,1,5.594,7.178L878.154,165.4a5.77,5.77,0,0,1-5.594,4.357Z" fill-rule="evenodd"></path>
		<path id="Path_106" data-name="Path 106" d="M1032.037,89.287l-32.762,80.39H992.9l-32.763-80.39v80.39H944.973V68.508h21.691l29.425,72.655,29.426-72.655h21.69V169.677h-15.168Z" fill="#efcb5e"></path>
		<path id="Path_107" data-name="Path 107" d="M1064.8,132.971c0-21.083,14.257-38.374,37.009-38.374,22.9,0,37.01,17.291,37.01,38.374,0,21.236-14.107,38.527-37.01,38.527C1079.055,171.5,1064.8,154.207,1064.8,132.971Zm59.76,0c0-13.8-8.039-26.24-22.751-26.24-14.561,0-22.752,12.438-22.752,26.24,0,13.955,8.191,26.392,22.752,26.392C1116.519,159.363,1124.558,146.926,1124.558,132.971Z" fill="#efcb5e"></path>
		<path id="Path_108" data-name="Path 108" d="M1200.027,122.809c0-12.134-6.218-16.078-15.623-16.078-8.494,0-16.23,5.157-20.173,10.617v52.329H1150.58V96.417h13.651v10.314A34.928,34.928,0,0,1,1190.168,94.6c15.472,0,23.511,8.19,23.511,23.662v51.418h-13.652Z" fill="#efcb5e"></path>
		<path id="Path_109" data-name="Path 109" d="M1263.334,94.6c21.993,0,35.644,17.139,35.644,39.588v3.336h-57.941c1.061,12.439,10.163,22.752,24.876,22.752,7.736,0,16.228-3.034,21.689-8.645l6.37,8.949c-7.279,7.129-17.594,10.921-29.425,10.921-21.841,0-37.919-15.472-37.919-38.527C1226.628,111.736,1241.948,94.6,1263.334,94.6Zm-22.449,33.066h44.745c-.3-9.707-6.825-21.843-22.3-21.843C1248.621,105.82,1241.643,117.651,1240.885,127.663Z" fill="#efcb5e"></path>
		<path id="Path_110" data-name="Path 110" d="M1318.865,153.447V108.4h-12.136V96.417h12.136V76.395h13.65V96.417h14.864V108.4h-14.864v42.016c0,5.156,2.428,8.948,7.128,8.948a10.5,10.5,0,0,0,7.433-2.882l3.489,10.315c-2.883,2.729-7.13,4.7-14.258,4.7C1324.78,171.5,1318.865,164.975,1318.865,153.447Z" fill="#efcb5e"></path>
		<path id="Path_111" data-name="Path 111" d="M1360,75.485a8.9,8.9,0,0,1,8.8-8.8,8.8,8.8,0,0,1,8.8,8.8,8.675,8.675,0,0,1-8.8,8.646A8.771,8.771,0,0,1,1360,75.485Zm2.123,20.932h13.652v73.26h-13.652Z" fill="#efcb5e"></path>
		<path id="Path_112" data-name="Path 112" d="M1394,159.212l38.223-50.813H1394V96.417h56.273V106.58l-38.527,51.266h39.134v11.831H1394Z" fill="#efcb5e"></path>
		<path id="Path_113" data-name="Path 113" d="M1512.528,161.638c-5.763,6.371-14.107,9.86-23.965,9.86-12.134,0-25.483-8.191-25.483-24.269,0-16.684,13.2-23.965,25.483-23.965,9.858,0,18.352,3.185,23.965,9.707V120.837c0-9.1-7.432-14.561-17.9-14.561-8.342,0-15.47,3.186-21.992,9.707l-5.915-9.4c8.189-8.039,18.2-11.983,30.031-11.983,15.927,0,29.426,6.976,29.426,25.633v49.447h-13.651Zm0-20.475c-4.095-5.462-11.224-8.344-18.808-8.344-9.859,0-16.837,5.916-16.837,14.562s6.978,14.56,16.837,14.56c7.584,0,14.713-2.881,18.808-8.342Z" fill="#efcb5e"></path>
		<path id="Path_114" data-name="Path 114" d="M1548.478,153.447V108.4h-12.136V96.417h12.136V76.395h13.65V96.417h14.865V108.4h-14.865v42.016c0,5.156,2.428,8.948,7.129,8.948a10.5,10.5,0,0,0,7.433-2.882l3.489,10.315c-2.883,2.729-7.13,4.7-14.259,4.7C1554.393,171.5,1548.478,164.975,1548.478,153.447Z" fill="#efcb5e"></path>
		<path id="Path_115" data-name="Path 115" d="M1593,75.485a8.9,8.9,0,0,1,8.8-8.8,8.8,8.8,0,0,1,8.8,8.8,8.675,8.675,0,0,1-8.8,8.646A8.772,8.772,0,0,1,1593,75.485Zm2.124,20.932h13.651v73.26h-13.651Z" fill="#efcb5e"></path>
		<path id="Path_116" data-name="Path 116" d="M1623.531,132.971c0-21.083,14.257-38.374,37.009-38.374,22.9,0,37.01,17.291,37.01,38.374,0,21.236-14.106,38.527-37.01,38.527C1637.788,171.5,1623.531,154.207,1623.531,132.971Zm59.76,0c0-13.8-8.039-26.24-22.751-26.24-14.561,0-22.752,12.438-22.752,26.24,0,13.955,8.191,26.392,22.752,26.392C1675.252,159.363,1683.291,146.926,1683.291,132.971Z" fill="#efcb5e"></path>
		<path id="Path_117" data-name="Path 117" d="M1758.734,122.809c0-12.134-6.219-16.078-15.623-16.078-8.494,0-16.23,5.157-20.173,10.617v52.329h-13.652V96.417h13.652v10.314A34.926,34.926,0,0,1,1748.874,94.6c15.472,0,23.511,8.19,23.511,23.662v51.418h-13.651Z" fill="#efcb5e"></path>
	</g>
</svg>