<?xml version="1.0" encoding="utf-8"?>
<!-- Generator: Adobe Illustrator 17.0.0, SVG Export Plug-In . SVG Version: 6.00 Build 0)  -->
<!DOCTYPE svg PUBLIC "-//W3C//DTD SVG 1.1//EN" "http://www.w3.org/Graphics/SVG/1.1/DTD/svg11.dtd">
<svg version="1.1" xmlns="http://www.w3.org/2000/svg" xmlns:xlink="http://www.w3.org/1999/xlink" x="0px" y="0px"
	 width="270.335px" height="64.012px" viewBox="0 0 270.335 64.012" enable-background="new 0 0 270.335 64.012"
	 xml:space="preserve">
<g id="Shape_1_1_" enable-background="new    ">
	<g>
		<path fill="#737373" d="M116.46,45h-6.337v-1.872c-2.016,1.632-4.656,2.593-7.92,2.593c-6.097,0-11.761-5.137-11.761-12.674
			c0-7.537,5.665-12.721,11.761-12.721c3.264,0,5.904,0.96,7.92,2.641v-1.92h6.337V45z M110.123,33.047
			c0-4.417-3.408-7.201-6.816-7.201c-3.84,0-6.721,2.784-6.721,7.201c0,4.417,2.88,7.153,6.721,7.153
			C106.715,40.2,110.123,37.464,110.123,33.047z"/>
		<path fill="#737373" d="M149.197,33.047c0,7.537-5.666,12.674-11.762,12.674c-3.265,0-5.905-0.961-7.921-2.593v10.033h-6.336
			V21.046h6.336v1.92c2.016-1.68,4.656-2.641,7.921-2.641C143.532,20.326,149.197,25.51,149.197,33.047z M143.052,33.047
			c0-4.417-2.88-7.201-6.72-7.201c-3.409,0-6.817,2.784-6.817,7.201c0,4.417,3.408,7.153,6.817,7.153
			C140.171,40.2,143.052,37.464,143.052,33.047z"/>
		<path fill="#737373" d="M180.014,33.047c0,7.537-5.665,12.674-11.762,12.674c-3.264,0-5.904-0.961-7.92-2.593v10.033h-6.337
			V21.046h6.337v1.92c2.016-1.68,4.656-2.641,7.92-2.641C174.349,20.326,180.014,25.51,180.014,33.047z M173.869,33.047
			c0-4.417-2.881-7.201-6.721-7.201c-3.408,0-6.816,2.784-6.816,7.201c0,4.417,3.408,7.153,6.816,7.153
			C170.988,40.2,173.869,37.464,173.869,33.047z"/>
		<path fill="#737373" d="M190.476,41.544c0,2.064-1.584,3.648-3.792,3.648c-2.209,0-3.793-1.584-3.793-3.648
			c0-1.968,1.584-3.696,3.793-3.696C188.892,37.848,190.476,39.576,190.476,41.544z"/>
		<path fill="#737373" d="M219.228,30.407V45h-6.336V31.751c0-3.36-1.921-5.617-4.849-5.617c-3.601,0-5.952,2.4-5.952,8.257V45
			h-6.337V21.046h6.337v2.16c1.872-1.872,4.368-2.88,7.536-2.88C215.389,20.326,219.228,24.454,219.228,30.407z"/>
		<path fill="#737373" d="M247.933,34.728H229.69c0.624,3.456,3.072,5.568,6.001,5.568c1.872,0,4.224-0.24,5.952-3.168l5.665,1.2
			c-2.112,4.992-6.385,7.393-11.617,7.393c-6.769,0-12.289-5.137-12.289-12.674c0-7.537,5.521-12.721,12.385-12.721
			c6.385,0,11.905,4.945,12.146,12.242V34.728z M229.883,30.263h11.568c-0.815-3.072-3.12-4.417-5.664-4.417
			C233.387,25.846,230.65,27.287,229.883,30.263z"/>
		<path fill="#737373" d="M270.156,43.944c-2.496,1.344-4.225,1.776-6.241,1.776c-5.664,0-9.408-2.977-9.408-9.553v-9.938h-5.137
			v-5.185h5.137v-7.249h6.336v7.249h7.825v5.185h-7.825v9.457c0,2.88,1.393,4.128,3.505,4.128c1.104,0,2.736-0.479,3.984-1.151
			L270.156,43.944z"/>
	</g>
</g>
<g id="v16_1_">
	<g id="Golano_Grotesq_xA0_Image_1_">
	</g>
	<g id="SQUARES_1_">
		<g id="Shape_5_2_">
			<g>
				<rect x="0" y="-0.002" fill-rule="evenodd" clip-rule="evenodd" fill="#737373" width="18.005" height="18.005"/>
			</g>
		</g>
		<g id="Shape_5_copy_2_">
			<g>
				<rect x="0" y="23.037" fill-rule="evenodd" clip-rule="evenodd" fill="#737373" width="18.022" height="18.022"/>
			</g>
		</g>
		<g id="Shape_5_copy_2_2_">
			<g>
				<rect x="0" y="46.001" fill-rule="evenodd" clip-rule="evenodd" fill="#737373" width="18.013" height="18.013"/>
			</g>
		</g>
		<g id="Shape_5_copy_3_2_">
			<g>
				<rect x="22.997" y="-0.002" fill-rule="evenodd" clip-rule="evenodd" fill="#737373" width="18.018" height="18.018"/>
			</g>
		</g>
		<g id="Shape_5_copy_4_2_">
			<g>
				<rect x="23.007" y="23.007" fill-rule="evenodd" clip-rule="evenodd" fill="#F40000" width="17.99" height="17.99"/>
			</g>
		</g>
		<g id="Shape_5_copy_5_2_">
			<g>
				<rect x="23" y="46.014" fill-rule="evenodd" clip-rule="evenodd" fill="#737373" width="18" height="18"/>
			</g>
		</g>
		<g id="Shape_5_copy_6_2_">
			<g>
				<rect x="45.995" y="-0.002" fill-rule="evenodd" clip-rule="evenodd" fill="#737373" width="18.019" height="18.019"/>
			</g>
		</g>
		<g id="Shape_5_copy_7_2_">
			<g>
				<rect x="45.997" y="23.017" fill-rule="evenodd" clip-rule="evenodd" fill="#737373" width="18.017" height="18.017"/>
			</g>
		</g>
		<g id="Shape_5_copy_8_2_">
			<g>
				<rect x="45.987" y="45.987" fill-rule="evenodd" clip-rule="evenodd" fill="#737373" width="18.027" height="18.027"/>
			</g>
		</g>
	</g>
</g>
</svg>
