<?xml version="1.0" encoding="utf-8"?>
<!-- Generator: Adobe Illustrator 19.2.1, SVG Export Plug-In . SVG Version: 6.00 Build 0)  -->
<svg version="1.0" id="Layer_1" xmlns="http://www.w3.org/2000/svg" xmlns:xlink="http://www.w3.org/1999/xlink" x="0px" y="0px"
	 width="152.5px" height="29.1px" viewBox="0 0 152.5 29.1" style="enable-background:new 0 0 152.5 29.1;" xml:space="preserve">
<g>
	<path style="fill:#FFFFFF;" d="M38.5,10.7h-0.9c-1.1,0-1.9-0.7-1.9-1.9c0-1.1,0.8-1.9,1.9-1.9h0.9V4.9c0-3.1,1.9-4.8,4.4-4.8
		c1.1,0,2.6,0.4,2.6,1.9c0,1.2-0.6,1.8-1.6,1.8c-0.7,0-1.2,0-1.2,1.6V7h1c1.3,0,2.1,0.5,2.1,1.9c0,1.9-0.8,1.9-2.1,1.9h-1v9.8
		c0,1.4-0.9,2.4-2.1,2.4c-1.2,0-2.1-0.9-2.1-2.4V10.7z M47.3,2.4c0-1.4,0.9-2.4,2.1-2.4c1.2,0,2.1,0.9,2.1,2.4v18.1
		c0,1.4-0.9,2.4-2.1,2.4c-1.2,0-2.1-0.9-2.1-2.4V2.4z"/>
	<path style="fill:#FFFFFF;" d="M58.7,3c0,1.3-1.1,2.4-2.4,2.4c-1.3,0-2.4-1.1-2.4-2.4c0-1.2,1.1-2.3,2.4-2.3
		C57.6,0.7,58.7,1.7,58.7,3z M54.2,9.3c0-1.4,0.9-2.4,2.1-2.4c1.2,0,2.1,0.9,2.1,2.4v11.3c0,1.4-0.9,2.4-2.1,2.4
		c-1.2,0-2.1-0.9-2.1-2.4V9.3z"/>
	<path style="fill:#FFFFFF;" d="M60.8,9.2c0-1.4,0.9-2.4,2.1-2.4c1.2,0,1.9,0.6,2.1,1.8c0.8-1.3,2.4-1.9,4-1.9
		c4.6,0,6.8,4.3,6.8,8.4c0,4-2.7,8-7,8c-1.3,0-2.8-0.5-3.9-1.5v5.2c0,1.4-0.9,2.4-2.1,2.4c-1.2,0-2.1-0.9-2.1-2.4V9.2z M68.3,19.1
		c2.2,0,3.3-2.3,3.3-4.3c0-2-1.1-4.3-3.3-4.3c-2.3,0-3.3,2.1-3.3,4.2C65,16.7,66,19.1,68.3,19.1z"/>
	<path style="fill:#FFFFFF;" d="M86.9,11.6c-0.8,0-2.4-1.2-3.8-1.2c-0.8,0-1.4,0.4-1.4,1.2c0,2,7.3,1.7,7.3,6.5c0,2.8-2.4,5-6,5
		c-2.4,0-5.9-1.4-5.9-3.3c0-0.6,0.6-1.9,1.8-1.9c1.6,0,2.4,1.4,4.4,1.4c1.3,0,1.7-0.4,1.7-1.2c0-1.9-7.3-1.6-7.3-6.5
		c0-2.9,2.4-4.9,5.7-4.9c2.1,0,5.3,1,5.3,3.1C88.6,10.7,87.9,11.6,86.9,11.6z"/>
	<path style="fill:#FFFFFF;" d="M91.3,9.2c0-1.4,0.9-2.4,2.1-2.4c1.1,0,1.8,0.6,1.9,1.6c0.8-1.1,2.1-1.7,4.1-1.7
		c3.3,0,5.8,2.1,5.8,5.7v8.1c0,1.4-0.9,2.4-2.1,2.4s-2.1-0.9-2.1-2.4v-7.4c0-2-1.2-2.9-2.8-2.9c-1.7,0-2.7,1.3-2.7,2.9v7.4
		c0,1.4-0.9,2.4-2.1,2.4c-1.2,0-2.1-0.9-2.1-2.4V9.2z"/>
	<path style="fill:#FFFFFF;" d="M122.4,20c0,1.1,0,2.8-2,2.8c-1.2,0-1.7-0.7-2-1.8c-1.1,1.3-2.4,2-4,2c-4,0-7-3.4-7-8.1
		c0-4.6,3.1-8.2,7-8.2c1.6,0,3.1,0.6,4,1.9c0.1-1,1-1.8,2-1.8c2,0,2,1.7,2,2.8V20z M114.9,19.1c2.2,0,3.3-2.2,3.3-4.3
		c0-2-1-4.3-3.3-4.3c-2.3,0-3.3,2.3-3.3,4.3C111.6,16.9,112.6,19.1,114.9,19.1z"/>
	<path style="fill:#FFFFFF;" d="M135.5,11.3c-1.1,0-2-0.8-3.3-0.8c-2.4,0-3.6,2.1-3.6,4.3c0,2.1,1.3,4.3,3.6,4.3
		c1.1,0,2.6-0.9,3.1-0.9c1,0,1.8,0.9,1.8,1.9c0,2.2-3.6,2.9-5.2,2.9c-4.6,0-7.6-3.7-7.6-8.1c0-4.3,3.1-8.2,7.6-8.2
		c1.7,0,5.2,0.6,5.2,2.7C137.1,10.2,136.5,11.3,135.5,11.3z"/>
	<path style="fill:#FFFFFF;" d="M139,2.5c0-1.4,0.9-2.4,2.1-2.4c1.2,0,2.1,0.9,2.1,2.4v9.9l4.6-4.5c0.7-0.6,1.4-0.9,1.9-0.9
		c1.1,0,1.8,1,1.8,1.9c0,0.6-0.2,1.1-0.8,1.7l-3.8,3.3l5,5.8c0.4,0.4,0.5,0.9,0.5,1.4c0,1.1-0.9,2-2,2c-0.8,0-1.4-0.5-2-1.3
		l-5.2-6.4h-0.1v5.1c0,1.4-0.9,2.4-2.1,2.4c-1.2,0-2.1-0.9-2.1-2.4V2.5z"/>
</g>
<path style="fill-rule:evenodd;clip-rule:evenodd;fill:#FFFFFF;" d="M15.5,5.1C11.9,3.4,6.1,2.6,2.4,3.5c-1,5.1-0.4,11.7,0.3,16.8
	c0.4,2.6,0.6,2.9,2.5,2.3c7.2-2.1,13.7,2,21,0.2c2.4-0.6,3.4-1.8,3.4-4l0.4-14.7C26.2,4.2,17.9,2.8,15.5,5.1z M15.8,21.6
	c0.1-2.6-0.1-9-0.2-12.4c-0.3-6.7,8.5-3.4,13-3.9l0,0.1C26.1,9.9,21.3,15.6,18.2,18c3.6,2.5,3.7,4.1,2.2,4.1c0.2,0-0.1,0-0.1,0
	c0,0,0,0,0,0C18.9,22.1,17.3,21.9,15.8,21.6z M26.7,21.5c-1.2,0.4-2.7,0.6-4.4,0.6c1.3-2,4.7-9.8,6.3-14.8l0,11
	C28.6,19.7,28.2,21,26.7,21.5z"/>
</svg>
