<svg width="248" height="55" viewBox="0 0 248 55" fill="none" xmlns="http://www.w3.org/2000/svg">
    <path d="M29.2647 0.782288C29.1966 0.782288 0.0548738 11.6172 0.0151376 11.6584C0 11.6715 -0.0037844 18.9773 0.0037844 27.892L0.018922 44.0993L3.65194 42.691C5.65011 41.9166 7.87912 41.0521 8.60194 40.769L9.91891 40.257V27.0631C9.91891 17.9628 9.93783 13.858 9.98324 13.8318C10.093 13.7643 29.2004 9.25255 29.2496 9.28067C29.3102 9.31818 29.3102 48.0503 29.2496 48.086C29.225 48.101 22.7064 47.2253 14.7629 46.1414C6.82138 45.0556 0.302752 44.1743 0.280045 44.1818C0.255447 44.1912 6.72677 46.5764 14.6608 49.4867C22.5929 52.3952 29.1512 54.7785 29.2345 54.7823C29.3177 54.7842 33.0037 53.7959 37.4239 52.5846L45.462 50.3812L45.4468 27.8845L45.4317 5.38777L37.3785 3.08503C32.9507 1.81927 29.2988 0.782288 29.2647 0.782288ZM106.709 9.2788C105.254 9.2788 104.343 9.47007 103.252 10.0026C101.569 10.824 100.249 12.3691 99.6527 14.2087C99.3026 15.2963 99.2799 15.5307 99.2496 18.3191L99.2212 20.8844H95.2344V24.0047H99.2307V44.0468H102.924V24.0047H112.067V44.0468H115.761V24.0047H121.271V20.8844H115.761V18.8892C115.765 16.1008 115.873 15.2775 116.376 14.2331C116.824 13.3067 117.663 12.6692 118.728 12.446C119.661 12.2529 121.048 12.4122 121.878 12.8079L122.181 12.9523V9.61821L121.831 9.52445C121.178 9.34255 120.575 9.2788 119.545 9.28067C118.09 9.28067 117.18 9.46819 116.088 10.0026C114.406 10.824 113.085 12.3691 112.489 14.2087C112.139 15.2963 112.117 15.5307 112.086 18.3191L112.058 20.8844H102.924V18.8892C102.928 16.1008 103.036 15.2775 103.539 14.2331C103.988 13.3067 104.826 12.6692 105.891 12.446C106.824 12.2529 108.211 12.4122 109.042 12.8079L109.344 12.9523V9.61821L108.994 9.52445C108.342 9.34255 107.738 9.2788 106.709 9.28067V9.2788ZM126.599 10.2164C125.691 10.2445 124.925 10.7189 124.518 11.5253C124.045 12.4629 124.221 13.6217 124.942 14.3156C125.271 14.623 125.678 14.8379 126.119 14.9381C128.113 15.3263 129.665 13.5505 128.963 11.6884C128.683 10.9496 127.835 10.3195 126.997 10.2314C126.864 10.2164 126.73 10.2126 126.599 10.2164ZM190.893 11.0602C190.607 11.064 190.315 11.0752 190.018 11.094C187.791 11.2365 186.283 11.604 184.561 12.4254C184.088 12.6504 183.685 12.8717 183.668 12.9148C183.649 12.9598 183.644 13.768 183.653 14.7131L183.668 16.4308L184.334 15.9882C186.102 14.8144 187.818 14.2499 189.823 14.1824C193.517 14.0568 195.687 15.4426 196.196 18.2554C196.56 20.2581 196.178 22.1201 195.144 23.3859C194.336 24.3741 193.021 25.0717 191.324 25.4111C190.196 25.6361 189.496 25.6849 187.507 25.6849H185.697V28.7921L188.043 28.8202C190.03 28.8446 190.514 28.869 191.197 28.9759C193.018 29.2571 194.408 29.7709 195.388 30.5173C195.901 30.9262 196.347 31.4099 196.713 31.9518C197.606 33.4294 197.765 35.8522 197.076 37.5549C196.461 39.0813 194.976 40.3789 193.19 40.9508C191.489 41.4947 189.258 41.5622 187.28 41.129C185.61 40.7615 184.128 40.0826 182.563 38.9669L182.425 38.8713L182.442 40.874L182.457 42.8767L183.244 43.2686C184.686 43.9849 186.264 44.3768 188.327 44.5287C189.254 44.5962 191.152 44.5493 192.024 44.435C193.564 44.2362 194.842 43.8705 196.019 43.2892C198.041 42.2897 199.578 40.7971 200.435 39.0006C201.093 37.6205 201.362 36.2422 201.302 34.5414C201.258 33.2569 201.059 32.4356 200.558 31.4455C199.4 29.1577 197.078 27.6201 194.128 27.1794C193.852 27.1382 193.629 27.0857 193.629 27.0613C193.629 27.0388 193.922 26.9206 194.28 26.7987C195.051 26.5298 195.795 26.1922 196.505 25.7899C197.097 25.412 197.645 24.9698 198.138 24.4716C199.141 23.384 199.776 22.0151 200.015 20.4343C200.136 19.6468 200.136 18.0022 200.017 17.3271C199.619 15.0638 198.227 13.2336 196.062 12.1328C194.609 11.3921 192.891 11.0359 190.891 11.0602H190.893ZM77.9548 11.0602C76.4651 11.0436 74.9787 11.2028 73.5271 11.5347C71.276 12.0483 69.1788 13.0807 67.4058 14.5481C64.6375 16.8527 62.7737 20.4756 62.1493 24.7848C61.8068 27.1625 61.8749 30.1666 62.3252 32.3793C63.0518 35.9422 64.8665 39.1413 67.3169 41.1777C68.9521 42.5186 70.859 43.4958 72.9083 44.043C73.8574 44.2771 74.8235 44.4376 75.7977 44.5231C76.7059 44.5962 78.5982 44.5512 79.5443 44.435C84.0098 43.8855 87.6467 41.7028 89.9816 38.1662C90.6014 37.1664 91.1332 36.1155 91.5711 35.0252C92.1012 33.5348 92.4703 31.9929 92.6723 30.4254C92.7613 29.7728 92.7821 29.199 92.7821 27.4851C92.7821 25.1936 92.7348 24.6198 92.4093 23.0784C91.1207 16.9521 87.009 12.6429 81.2775 11.4071C80.1845 11.1813 79.0713 11.0657 77.9548 11.0621V11.0602ZM218.757 11.079C217.281 11.0734 216.678 11.1409 215.518 11.4353C213.291 11.9997 211.283 13.2561 209.712 15.0675C207.928 17.1246 206.634 19.8436 205.898 23.0746C205.056 26.7762 204.98 31.7286 205.712 35.1696C206.04 36.711 206.441 37.8755 207.075 39.1263C208.702 42.3516 211.243 44.1781 214.583 44.5268C215.332 44.6037 216.804 44.5475 217.614 44.4106C219.384 44.1027 221.038 43.328 222.401 42.1678C223.961 40.8365 225.215 38.6481 225.694 36.426C226.042 34.804 226.05 32.7619 225.715 31.0367C225.158 28.1751 223.355 25.7636 220.901 24.6029C218.32 23.3803 214.619 23.4328 212.396 24.7267C211.166 25.4411 210.276 26.3543 209.5 27.6951C209.385 27.8821 209.281 28.0763 209.19 28.2764C209.19 28.3027 209.164 28.3252 209.13 28.3252C208.997 28.3252 209.086 26.2587 209.285 24.7848C210.004 19.4386 212.653 15.5269 216.25 14.4937C217.219 14.2162 217.824 14.1487 219.031 14.1843C220.632 14.2312 222.055 14.5575 223.408 15.1857C223.584 15.2703 223.763 15.3497 223.944 15.4238C223.955 15.4238 223.964 14.6419 223.964 13.6893V11.9528L223.548 11.7972C222.303 11.3246 220.71 11.0846 218.757 11.079ZM238.951 11.5834C234.807 11.5834 231.41 11.5909 231.408 11.5984C231.389 11.679 230.286 27.8207 230.3 27.8376C230.309 27.8507 230.612 27.8301 230.971 27.7926C233.091 27.5751 236.928 27.5507 238.073 27.7495C240.294 28.1358 241.831 28.9346 242.881 30.251C243.774 31.3705 244.188 32.6887 244.188 34.4102C244.188 37.0017 243.074 39.0288 240.945 40.3095C238.682 41.669 235.259 41.7797 232.216 40.5908C231.391 40.278 230.599 39.8841 229.853 39.4151L229.656 39.2969V43.2461L230.247 43.5217C230.927 43.8381 231.644 44.071 232.381 44.2156C232.986 44.3468 234.362 44.5137 235.075 44.5456C238.432 44.6919 240.881 44.2287 242.99 43.0511C245.312 41.7534 247.01 39.6045 247.632 37.1761C248.207 34.9352 248.099 32.1262 247.369 30.2435C246.19 27.2038 243.541 25.2255 239.829 24.6104C238.523 24.3947 237.556 24.3516 235.692 24.4285C234.765 24.466 233.997 24.4848 233.982 24.4698C233.957 24.4454 234.512 16.1626 234.595 15.3188L234.633 14.9438H246.489V11.5834H238.951ZM77.442 14.4618C78.3673 14.4543 79.3134 14.5368 80.1876 14.7112C84.3694 15.5382 87.3477 18.6979 88.3922 23.4121C89.028 26.2924 88.9939 29.9472 88.3051 32.6062C87.009 37.5999 83.673 40.5627 78.7344 41.1046C77.9927 41.1871 76.3786 41.1702 75.6766 41.0765C70.2309 40.332 66.5732 35.9985 65.9866 29.5928C65.892 28.5596 65.9431 26.1874 66.0775 25.3248C66.4786 22.7802 67.2696 20.7569 68.5922 18.8892C69.0974 18.1766 70.3387 16.9465 71.0748 16.4308C72.2106 15.6517 73.4802 15.0843 74.8213 14.7562C75.6123 14.5687 76.5167 14.4693 77.442 14.4618ZM144.655 20.3593C144.267 20.3537 143.875 20.3668 143.482 20.395C140.984 20.5712 139.201 21.1375 137.432 22.3152C134.632 24.181 132.876 27.2319 132.437 31.0029C132.301 32.1768 132.344 34.4908 132.522 35.4659C132.982 37.9749 134.093 40.1033 135.765 41.6878C137.574 43.3999 139.62 44.2624 142.554 44.5512C143.016 44.5962 144.857 44.525 145.48 44.4368C146.755 44.2724 147.993 43.8931 149.139 43.3155L149.851 42.9573V39.4301L149.251 39.8182C148.225 40.4902 147.085 40.9712 145.885 41.2378C145.077 41.4103 143.593 41.4496 142.712 41.3203C141.071 41.0802 139.773 40.467 138.657 39.4001C137.139 37.9524 136.354 36.1222 136.165 33.587C136.015 31.6086 136.401 29.4109 137.156 27.9239C137.739 26.78 138.901 25.4355 139.862 24.8017C141.27 23.8697 142.77 23.4759 144.643 23.5453C146.295 23.5878 147.903 24.0746 149.296 24.9536C149.573 25.1242 149.811 25.2648 149.826 25.2648C149.839 25.2648 149.851 24.4172 149.851 23.3821V21.4976L149.351 21.2875C147.955 20.695 146.337 20.3781 144.655 20.3593ZM163.119 20.3593C160.692 20.38 158.354 21.2668 156.534 22.8571C154.466 24.6329 152.984 27.6538 152.64 30.7985C152.545 31.6743 152.56 33.8626 152.67 34.8058C153.022 37.8024 154.04 40.1033 155.783 41.8284C156.72 42.7888 157.875 43.514 159.151 43.9437C160.114 44.2756 160.791 44.4087 162.235 44.5512C162.723 44.6 164.809 44.525 165.539 44.4331C167.617 44.1706 169.475 43.5367 170.877 42.6066L171.286 42.3366V38.8938L170.514 39.4094C168.508 40.7521 166.383 41.4065 164.029 41.4065C161.802 41.4065 160.036 40.7877 158.731 39.5501C157.331 38.2224 156.623 36.4898 156.419 33.8907L156.377 33.3657H172.939L172.902 31.6405C172.883 30.6579 172.826 29.5928 172.769 29.1652C172.421 26.4218 171.511 24.3966 169.927 22.8327C168.394 21.3194 166.678 20.59 164.188 20.395C163.828 20.3668 163.471 20.3556 163.119 20.3593ZM124.783 20.8844V44.0468H128.477V20.8844H126.63H124.783ZM163.21 23.534C163.333 23.534 163.456 23.5378 163.582 23.5434C165.115 23.6072 166.177 24.0122 167.121 24.8935C168.292 25.9887 168.905 27.5001 169.079 29.7203L169.121 30.2454H156.445L156.485 30.0203C156.793 28.2483 157.55 26.6787 158.653 25.5236C159.949 24.1641 161.378 23.5378 163.21 23.5359V23.534ZM215.82 26.8625C216.88 26.8625 217.02 26.8756 217.576 27.0238C218.636 27.3051 219.317 27.6838 220.082 28.4114C220.848 29.1409 221.351 29.9678 221.716 31.1004C221.998 31.9705 222.095 32.6175 222.133 33.8157C222.167 35.029 222.076 35.8559 221.809 36.771C221.139 39.0663 219.561 40.6771 217.438 41.234C216.901 41.3765 215.38 41.4403 214.827 41.3428C214.2 41.2088 213.593 40.9958 213.02 40.7089C211.635 39.9439 210.382 38.3556 209.803 36.6285C209.472 35.6497 209.366 34.9971 209.33 33.7557C209.296 32.4693 209.374 31.933 209.733 30.9579C210.314 29.3828 211.762 27.9014 213.328 27.2825C214.244 26.9188 214.575 26.8625 215.82 26.8625Z" fill="#EB4025"/>
</svg>
