<?xml version="1.0" encoding="UTF-8" standalone="no"?>
<!DOCTYPE svg PUBLIC "-//W3C//DTD SVG 1.1//EN" "http://www.w3.org/Graphics/SVG/1.1/DTD/svg11.dtd">
<svg width="100%" height="100%" viewBox="0 0 162 62" version="1.1" xmlns="http://www.w3.org/2000/svg" xmlns:xlink="http://www.w3.org/1999/xlink" xml:space="preserve" xmlns:serif="http://www.serif.com/" style="fill-rule:evenodd;clip-rule:evenodd;stroke-linejoin:round;stroke-miterlimit:1.41421;">
    <g id="Artboard1" transform="matrix(1,0,0,1,-314.374,-276.986)">
        <rect x="314.374" y="276.986" width="161.704" height="61.123" style="fill:none;"/>
        <g transform="matrix(1,0,0,1,0.37421,0.986094)">
            <rect x="319.5" y="279.7" width="15.6" height="24.7" style="fill:rgb(40,53,64);fill-rule:nonzero;"/>
        </g>
        <g transform="matrix(1,0,0,1,0.37421,0.986094)">
            <rect x="319.5" y="309" width="15.6" height="23.5" style="fill:rgb(40,53,64);fill-rule:nonzero;"/>
        </g>
        <g transform="matrix(1,0,0,1,0.37421,0.986094)">
            <path d="M354.8,309L339.4,309C340.9,322.1 352.1,332.3 365.6,332.3L365.6,317.1C360.5,317.2 356.2,313.7 354.8,309" style="fill:rgb(40,53,64);fill-rule:nonzero;"/>
        </g>
        <g transform="matrix(1,0,0,1,0.37421,0.986094)">
            <path d="M339.3,304.4L354.5,304.4C355.3,298.9 359.9,294.7 365.6,294.7L365.6,279.5C351.6,279.5 340.1,290.5 339.3,304.4" style="fill:rgb(40,53,64);fill-rule:nonzero;"/>
        </g>
        <g transform="matrix(1,0,0,1,0.37421,0.986094)">
            <path d="M373.6,279.5L380.1,279.5L380.1,298.5L386.9,289.1L394.3,289.1L386.6,298.9L394.8,311.7L387,311.7L380.1,299.5L380.1,311.7L373.6,311.7L373.6,279.5Z" style="fill:rgb(40,53,64);fill-rule:nonzero;"/>
        </g>
        <g transform="matrix(1,0,0,1,0.37421,0.986094)">
            <path d="M403,289.2L403,302.6C403,304.6 403,307.5 406.5,307.5C410.7,307.5 410.7,304.3 410.7,300.5L410.7,289.1L417.5,289.1L417.5,304C417.6,308.9 417.6,309.4 417.6,310C417.6,310.6 417.7,311 417.8,311.6L411.4,311.6L411.2,308.6C410.5,309.6 408.8,312.2 404.6,312.2C401.6,312.2 399.1,310.8 397.8,309.2C396.3,307.4 396.3,304.3 396.3,303.1L396.3,289.1L403,289.1L403,289.2Z" style="fill:rgb(40,53,64);fill-rule:nonzero;"/>
        </g>
        <g transform="matrix(1,0,0,1,0.37421,0.986094)">
            <path d="M421.1,293.2C421.1,293.1 421.1,290.7 421,289.1L427.3,289.1L427.5,292.5C428.1,291.5 429.9,288.6 434.8,288.6C439.2,288.6 441.1,291.3 441.7,292.8C442.2,294.2 442.3,295.3 442.3,299.5L442.3,311.7L435.6,311.7L435.6,297.7C435.6,296.8 435.6,296 435.2,295.3C434.7,294.3 433.7,293.4 432,293.4C430.6,293.4 429.3,294.1 428.6,295.1C428.2,295.7 427.8,296.8 427.8,298.5L427.8,311.7L421.2,311.7L421.2,293.2L421.1,293.2Z" style="fill:rgb(40,53,64);fill-rule:nonzero;"/>
        </g>
        <g transform="matrix(1,0,0,1,0.37421,0.986094)">
            <path d="M456.2,307.9C459.1,307.9 461.1,306.2 461.1,300.2C461.1,297.2 460.5,293.1 456.2,293.1C451.4,293.1 451.3,298.7 451.3,300.7C451.3,305.7 453,307.9 456.2,307.9M456.1,288.7C464.2,288.7 467.8,294.2 467.8,300.5C467.8,306.8 464.1,312.5 456,312.5C449.6,312.5 444.5,308.5 444.5,300.7C444.5,295.2 447.3,288.7 456.1,288.7" style="fill:rgb(40,53,64);fill-rule:nonzero;"/>
        </g>
        <g transform="matrix(1,0,0,1,0.37421,0.986094)">
            <path d="M383,321.4C382.9,320.9 382.7,318.9 379.9,318.9C376.4,318.9 375.8,322.5 375.8,324.9C375.8,327.6 376.6,330.6 379.9,330.6C380.8,330.6 381.6,330.4 382.3,329.7C382.8,329.1 382.9,328.5 383,328.2L385.2,328.2C384.9,331.1 382.3,332.3 379.8,332.3C374.7,332.3 373.7,327.8 373.7,325C373.7,321.9 374.9,317.4 380.1,317.4C382.2,317.4 385.1,318.2 385.3,321.5L383,321.5L383,321.4Z" style="fill:rgb(40,53,64);fill-rule:nonzero;"/>
        </g>
        <g transform="matrix(1,0,0,1,0.37421,0.986094)">
            <path d="M387.7,317.4L392.9,317.4C393.6,317.4 395.2,317.4 396.2,318.1C397.3,318.8 397.8,319.9 397.8,321.1C397.8,322.1 397.4,323 396.8,323.7C396.2,324.3 395.5,324.5 395.1,324.6C396.5,325 397.1,325.6 397.3,327.4C397.5,329.1 397.6,330.4 398.2,332L396,332C395.7,331 395.5,329.3 395.3,328.1C395.1,326 394.6,325.4 392.1,325.4L389.6,325.4L389.6,332L387.6,332L387.6,317.4L387.7,317.4ZM389.6,323.7L392.8,323.7C393,323.7 394.2,323.7 394.7,323.4C395,323.2 395.7,322.7 395.7,321.5C395.7,319.1 393.6,319.1 392.8,319.1L389.6,319.1L389.6,323.7Z" style="fill:rgb(40,53,64);fill-rule:nonzero;"/>
        </g>
        <g transform="matrix(1,0,0,1,0.37421,0.986094)">
            <path d="M400.9,317.4L410,317.4L410,319.1L402.9,319.1L402.9,323.6L409.7,323.6L409.7,325.3L402.9,325.3L402.9,330.1L410.2,330.1L410.2,331.9L400.9,331.9L400.9,317.4Z" style="fill:rgb(40,53,64);fill-rule:nonzero;"/>
        </g>
        <g transform="matrix(1,0,0,1,0.37421,0.986094)">
            <path d="M418,317.4L420.2,317.4L426,332L423.8,332L422.2,328.2L415.4,328.2L414,332L411.9,332L418,317.4ZM416.2,326.6L421.7,326.6L419,319.5L416.2,326.6Z" style="fill:rgb(40,53,64);fill-rule:nonzero;"/>
        </g>
        <g transform="matrix(1,0,0,1,0.37421,0.986094)">
            <path d="M430,332L430,319.2L425.1,319.2L425.1,317.5L436.8,317.5L436.8,319.2L432,319.2L432,332L430,332Z" style="fill:rgb(40,53,64);fill-rule:nonzero;"/>
        </g>
        <g transform="matrix(1,0,0,1,0.37421,0.986094)">
            <rect x="439.2" y="317.4" width="2" height="14.6" style="fill:rgb(40,53,64);fill-rule:nonzero;"/>
        </g>
        <g transform="matrix(1,0,0,1,0.37421,0.986094)">
            <path d="M450.7,332L448.5,332L443.3,317.4L445.5,317.4L449.6,329.8L454,317.4L456,317.4L450.7,332Z" style="fill:rgb(40,53,64);fill-rule:nonzero;"/>
        </g>
        <g transform="matrix(1,0,0,1,0.37421,0.986094)">
            <path d="M458,317.4L467.1,317.4L467.1,319.1L460,319.1L460,323.6L466.8,323.6L466.8,325.3L460,325.3L460,330.1L467.3,330.1L467.3,331.9L458,331.9L458,317.4Z" style="fill:rgb(40,53,64);fill-rule:nonzero;"/>
        </g>
        <g transform="matrix(1,0,0,1,0.37421,0.986094)">
            <path d="M468.8,290.4C468.8,290.1 468.9,289.8 469,289.5C469.2,289.2 469.4,289 469.7,288.8C470,288.6 470.3,288.6 470.6,288.6C470.9,288.6 471.2,288.7 471.5,288.8C471.8,289 472,289.2 472.2,289.5C472.4,289.8 472.4,290.1 472.4,290.4C472.4,290.7 472.3,291 472.2,291.3C472,291.6 471.8,291.8 471.5,292C471.2,292.2 470.9,292.3 470.6,292.3C470.3,292.3 470,292.2 469.7,292C469.4,291.8 469.2,291.6 469,291.3C468.9,291 468.8,290.7 468.8,290.4ZM469.1,290.4C469.1,290.7 469.2,290.9 469.3,291.2C469.4,291.4 469.6,291.6 469.9,291.8C470.1,291.9 470.4,292 470.7,292C471,292 471.2,291.9 471.5,291.8C471.7,291.7 471.9,291.5 472.1,291.2C472.2,291 472.3,290.7 472.3,290.4C472.3,290.1 472.2,289.9 472.1,289.6C472,289.4 471.8,289.2 471.5,289C471.3,288.9 471,288.8 470.7,288.8C470.4,288.8 470.2,288.9 469.9,289C469.7,289.1 469.5,289.3 469.3,289.6C469.2,289.9 469.1,290.1 469.1,290.4ZM471.4,290C471.4,290.1 471.4,290.2 471.3,290.3C471.2,290.4 471.1,290.5 471,290.5L471.6,291.5L471.2,291.5L470.7,290.6L470.4,290.6L470.4,291.5L470,291.5L470,289.3L470.6,289.3C470.9,289.3 471.1,289.4 471.2,289.5C471.3,289.6 471.4,289.8 471.4,290ZM470.4,290.3L470.7,290.3C470.8,290.3 470.9,290.3 471,290.2C471.1,290.1 471.1,290 471.1,289.9C471.1,289.8 471.1,289.7 471,289.6C470.9,289.5 470.8,289.5 470.7,289.5L470.4,289.5L470.4,290.3Z" style="fill:rgb(40,53,64);fill-rule:nonzero;"/>
        </g>
    </g>
</svg>
