<?xml version="1.0" encoding="utf-8"?>
<!-- Generator: Adobe Illustrator 21.1.0, SVG Export Plug-In . SVG Version: 6.00 Build 0)  -->
<svg version="1.1" id="Layer_1" xmlns="http://www.w3.org/2000/svg" xmlns:xlink="http://www.w3.org/1999/xlink" x="0px" y="0px"
	 width="244.8px" height="70px" viewBox="0 0 244.8 70" style="enable-background:new 0 0 244.8 70;" xml:space="preserve">
<style type="text/css">
	.st0{fill:#54A447;}
	.st1{fill:#29306C;}
	.st2{fill:#D7D4D5;}
</style>
<path id="S1" class="st0" d="M1.3,49.7v-5.4c3.2,1.1,6.9,1.7,11,1.7c3.1,0,4.7-0.9,4.7-2.7c0-1.6-1.1-2.4-3.2-2.4H8.7
	c-5.9,0-8.7-2.6-8.7-7.8C0,27.7,4.3,25,12.7,25c3.5,0,7,0.5,10.2,1.5v5.4c-3.2-1.1-6.6-1.7-10.4-1.7c-3.9,0-5.9,0.9-5.9,2.7
	c0,1.6,1.1,2.4,3.4,2.4h4.7c6.4,0,9.5,2.6,9.5,7.8c0,5.4-4,8.1-12.2,8.1C8.2,51.2,4.5,50.7,1.3,49.7z"/>
<path id="S2" class="st0" d="M29.4,49.7v-5.4c3.2,1.1,6.9,1.7,11,1.7c3.1,0,4.7-0.9,4.7-2.7c0-1.6-1.1-2.4-3.2-2.4h-5.1
	c-5.9,0-8.7-2.6-8.7-7.8c0-5.4,4.3-8.1,12.7-8.1c3.5,0,7,0.5,10.2,1.5v5.4c-3.2-1.1-6.6-1.7-10.4-1.7c-3.9,0-5.9,0.9-5.9,2.7
	c0,1.6,1.1,2.4,3.4,2.4h4.7c6.4,0,9.5,2.6,9.5,7.8c0,5.4-4,8.1-12.2,8.1C36.1,51.2,32.6,50.7,29.4,49.7z"/>
<path id="L" class="st0" d="M64.6,15.7V51h-7.2V15.7H64.6z"/>
<path id="S" class="st1" d="M71.5,49.7v-5.4c3.2,1.1,6.9,1.7,11,1.7c3.1,0,4.7-0.9,4.7-2.7c0-1.6-1.1-2.4-3.2-2.4h-5.1
	c-5.9,0-8.7-2.6-8.7-7.8c0-5.4,4.3-8.1,12.7-8.1c3.5,0,7,0.5,10.2,1.5v5.4c-3.2-1.1-6.6-1.7-10.4-1.7c-3.9,0-5.9,0.9-5.9,2.7
	c0,1.6,1.1,2.4,3.4,2.4h4.7c6.4,0,9.5,2.6,9.5,7.8c0,5.4-4,8.1-12.2,8.1C78.2,51.2,74.7,50.7,71.5,49.7L71.5,49.7z"/>
<path id="T" class="st1" d="M98,21h5.4l1.1,4.2h6.6v5.1h-5.9v11.9c0,2.4,1.1,3.7,3.4,3.7h2.4V51h-5.9c-4.8,0-7.2-2.3-7.2-7V21z"/>
<path id="O" class="st1" d="M113.4,38.1c0-8.8,4.8-13.2,14.4-13.2s14.4,4.4,14.4,13.2s-4.8,13.1-14.4,13.1
	C118.3,51.2,113.4,46.8,113.4,38.1z M127.9,46.1c4.8,0,7.2-2.7,7.2-8.1c0-5.3-2.4-8-7.2-8c-4.8,0-7.2,2.7-7.2,8
	C120.7,43.4,123.1,46.1,127.9,46.1z"/>
<path id="R" class="st1" d="M146,51V25.1h5.6l0.9,3.3c2.6-2.2,5.1-3.3,8-3.3v5.3c-2.7,0-5.1,1.1-7.2,3.3V51H146z"/>
<path id="E" class="st1" d="M187.5,40.6h-18.7c0,3.4,3.2,5.3,9.4,5.3c2.9,0,5.8-0.2,8.7-0.7v5.1c-2.6,0.5-5.8,0.7-9.8,0.7
	c-10.4,0-15.5-4.4-15.5-13.2c0-8.4,4.8-12.6,14.3-12.6C185.3,25.1,189.1,30.3,187.5,40.6z M168.6,35.8h12c0.2-3.7-1.7-5.5-5.8-5.5
	C171.1,30.3,169,32.1,168.6,35.8z"/>
<path id="TM" class="st1" d="M188,28v-2.3h-0.9v-0.4h2.1v0.4h-0.9V28H188z M189.6,28v-2.7h0.5l0.6,1.8c0,0.1,0.1,0.2,0.1,0.4
	c0-0.1,0.1-0.2,0.1-0.4l0.6-1.8h0.5V28h-0.4v-2.2l-0.7,2.2h-0.4l-0.7-2.2V28H189.6L189.6,28z"/>
<path id="Top-Blue" class="st0" d="M218.6,13.6c6.6,0,12.7,2.4,17.4,6.5c0.4-1.2,0.6-2.6,0.6-4c0-8.8-8.1-16-17.9-16
	c-9.9,0-17.9,7.2-17.9,16c0,1.3,0.2,2.7,0.6,4C205.8,16.1,211.8,13.6,218.6,13.6L218.6,13.6z"/>
<path id="Body-Blue" class="st1" d="M218.6,15.6c-13.5,0-24.5,10.9-24.5,24.4s11,24.4,24.5,24.4c13.5,0,24.5-10.9,24.5-24.4
	C242.9,26.5,232,15.6,218.6,15.6z M223.5,52.2h-9.7l1.7-14.1c-1.8-1-3.1-3.1-3.1-5.3c0-3.3,2.7-6,5.9-6c3.3,0,5.9,2.7,5.9,6
	c0,2.3-1.3,4.4-3.2,5.4L223.5,52.2z"/>
<path id="Shadow" class="st2" d="M235.5,60.3c-4.5,3.8-10.5,6.1-16.9,6.1c-6.5,0-12.4-2.3-16.9-6.1c-5.8,1-9.5,2.6-9.5,4.3
	c0,3.1,11.7,5.5,26.3,5.5c14.6,0,26.3-2.4,26.3-5.5C244.8,62.8,241.1,61.2,235.5,60.3L235.5,60.3z"/>
</svg>
