<?xml version="1.0" encoding="utf-8"?>
<!-- Generator: Adobe Illustrator 18.0.0, SVG Export Plug-In . SVG Version: 6.00 Build 0)  -->
<!DOCTYPE svg PUBLIC "-//W3C//DTD SVG 1.1//EN" "http://www.w3.org/Graphics/SVG/1.1/DTD/svg11.dtd">
<svg version="1.1" id="Layer_1" xmlns="http://www.w3.org/2000/svg" xmlns:xlink="http://www.w3.org/1999/xlink" x="0px" y="0px"
	 viewBox="0 0 92 70" enable-background="new 0 0 92 70" xml:space="preserve">
<g>
	<g>
		<path fill="#EDEDED" d="M54.6,56.6L48.7,48c11.2-7.3,22.9-17.8,25.6-29.5c1.2-5.6-3.2-8.7-10.1-8.7c-6.6,0-13.5,2-20,4.7
			c-12.9,5.6-25.1,14.1-34,25.3C6.2,45.2,2,52.2,4,58.9c2.8,6.8,12,7.2,18.8,6.1c-3.6,0.7-7.3,1.1-10.9,0.5c-3.6-0.4-7.4-2.6-9-6.2
			c-2.7-7.7,1.5-15.2,5.3-21.3c8.6-12.3,20.5-21.7,33.9-28.5c6.8-3.3,14-6,22-6.5c4-0.2,8.5,0.2,12.6,3.1c4.3,2.8,5.9,8.7,5.4,13
			c-1.1,8.9-5.8,15.5-10.6,21.6C66.5,46.9,60.8,52,54.6,56.6L54.6,56.6z"/>
	</g>
	<g>
		<path fill="#EDEDEE" d="M4,58.9c-2-6.8,2.2-13.7,6.2-19.2c3.2-4,6.8-7.7,10.8-11.1l-1.4-3.5c-4.3,3.9-8.1,8.3-11.4,13.1
			c-3.9,6-8.1,13.6-5.3,21.3c1.7,3.6,5.4,5.8,9,6.2c3.7,0.6,7.4,0.2,10.9-0.5C16,66.1,6.8,65.8,4,58.9z"/>
	</g>
	<g>
		<path fill="#005690" d="M14.4,47h16.4c-0.3,3.1,0.9,4.6,3.7,4.6c1.4,0,2.5-0.4,3.5-1.3c0.9-0.8,1.5-1.9,1.6-3.3
			c0.3-3.5-1.7-5.2-6.1-5.2c-0.3,0-2.2,0-2.9,0l1.8-10.6c0.5,0,1-0.1,1.3-0.1c4.6,0,7-1.5,7.3-4.4c0.3-2.8-0.8-4.2-3.2-4.2
			c-1.9,0-3.1,1.1-3.6,3.4l-0.2,0.7H17.9c0.9-4.7,3.3-8.4,7.2-11.1c3.8-2.8,8.7-4.1,14.5-4.1c5.5,0,9.9,1.4,13.2,4.1
			c3.4,2.7,4.9,6.1,4.5,10.2c-0.5,4.5-3.3,8-8.6,10.3c5.2,2.5,7.5,6.3,7,11.4c-0.4,4.4-2.7,8-6.9,10.7c-4.1,2.8-9.3,4.1-15.5,4.1
			c-6.1,0-10.9-1.3-14.4-4c-3.5-2.6-5.1-6.2-4.6-10.5L14.4,47L14.4,47z"/>
		<path fill="#1A1E66" d="M33.3,62.6c-6.1,0-11-1.4-14.5-4c-3.6-2.7-5.2-6.3-4.7-10.8l0.1-1h16.9l0,0.3c-0.2,1.5,0.1,2.7,0.7,3.4
			c0.6,0.6,1.5,0.9,2.7,0.9c1.3,0,2.4-0.4,3.3-1.2c0.9-0.8,1.4-1.8,1.5-3.1c0.1-1.4-0.1-2.6-0.9-3.4c-0.9-1-2.6-1.5-5-1.5l-1,0
			c-0.7,0-1.5,0-1.9,0h-0.3L32.2,31l0.2,0c0.3,0,0.6,0,0.8-0.1c0.2,0,0.3,0,0.4,0c4.5,0,6.8-1.3,7.1-4.1c0.1-1.4-0.1-2.5-0.6-3.1
			c-0.5-0.5-1.2-0.8-2.3-0.8c-1.8,0-2.8,1-3.3,3.2L34.3,27H17.5l0.1-0.3c0.9-4.7,3.4-8.5,7.3-11.3c3.9-2.8,8.8-4.2,14.6-4.2
			c5.5,0,10,1.4,13.4,4.2c3.5,2.8,5,6.3,4.6,10.4c-0.4,4.5-3.2,7.9-8.2,10.3c4.9,2.6,7.1,6.4,6.6,11.4c-0.4,4.5-2.8,8.1-7,10.9
			C44.8,61.2,39.5,62.6,33.3,62.6z M14.6,47.3l-0.1,0.5c-0.4,4.3,1.1,7.7,4.5,10.3c3.4,2.6,8.2,3.9,14.2,3.9
			c6.1,0,11.3-1.4,15.3-4.1c4.1-2.7,6.4-6.2,6.8-10.5c0.5-4.9-1.8-8.7-6.8-11.1L48.1,36l0.5-0.2c5.1-2.3,8-5.7,8.4-10.1
			c0.4-3.9-1.1-7.2-4.4-9.9c-3.3-2.7-7.7-4.1-13.1-4.1c-5.7,0-10.5,1.4-14.3,4.1c-3.7,2.6-6.1,6.2-7,10.6h15.7L34,26
			c0.5-2.4,1.8-3.6,3.8-3.6c1.2,0,2.1,0.3,2.7,1c0.7,0.8,0.9,1.9,0.8,3.5c-0.3,3.1-2.9,4.6-7.6,4.6c-0.1,0-0.2,0-0.3,0
			c-0.2,0-0.5,0.1-0.7,0.1l-1.7,10c0.4,0,1,0,1.5,0l1,0c2.5,0,4.4,0.6,5.4,1.7c0.8,0.9,1.2,2.2,1,3.8c-0.1,1.4-0.7,2.6-1.7,3.5
			c-1,0.9-2.2,1.3-3.6,1.3c-1.4,0-2.4-0.4-3.1-1.1c-0.7-0.8-1-1.9-0.9-3.5H14.6z"/>
	</g>
	<g>
		<path fill="#EDEDEE" d="M74.2,19c-2.9,11.5-14.5,21.8-25.5,29l5.9,8.6c6.2-4.6,11.9-9.7,16.9-15.7c4.7-6,9.4-12.4,10.6-21.2
			L74.2,19z"/>
	</g>
	<g>
		<path fill="#1A1E66" d="M15.6,66.2c-1.3,0-2.5-0.1-3.7-0.3c-4.1-0.5-7.7-2.9-9.2-6.3C0,52.1,3.6,44.8,8,38
			c8-11.5,19.8-21.4,34-28.6c8.2-4,15.2-6.1,22.1-6.5c0.5,0,1,0,1.5,0c4.6,0,8.2,1,11.3,3.2c4.6,3,6,9,5.5,13.3
			c-1.1,9-5.9,15.7-10.7,21.7c-4.6,5.6-10.2,10.7-16.9,15.7L54.6,57l-6.2-9.1l0.2-0.2c0.3-0.2,0.7-0.5,1-0.7l0.6-0.4
			c0.1-0.1,0.3-0.2,0.4-0.3c0.1-0.1,0.3-0.2,0.4-0.3l0.3-0.2c0.1-0.1,0.2-0.1,0.3-0.2c0.2-0.1,0.4-0.3,0.6-0.4l0.5-0.3
			c0.2-0.2,0.5-0.3,0.7-0.5l0.3-0.2c0.3-0.2,0.5-0.4,0.8-0.6l0.2-0.2c0.3-0.2,0.6-0.4,0.8-0.6l0.2-0.1c0.3-0.2,0.6-0.5,0.9-0.7
			l0.1-0.1c0.3-0.2,0.6-0.5,0.9-0.7l0.1-0.1c0.3-0.3,0.6-0.5,0.9-0.8l0.1,0c0.3-0.3,0.6-0.5,0.9-0.8l0.2,0.2l-0.2-0.2
			c0.3-0.3,0.6-0.6,0.9-0.8l0.1,0c7.2-6.6,11.6-13.1,13.3-19.5l0-0.2c0-0.1,0.1-0.2,0.1-0.3c0.5-2.1,0.1-3.9-1-5.3
			c-1.6-2-4.7-3.1-8.8-3.1c-5.9,0-12.6,1.6-19.9,4.7c-13.9,6-25.6,14.7-33.9,25.2c-3.9,5.3-8.2,12.3-6.2,19c2.2,5.3,8.3,6.4,13,6.4
			c1.7,0,3.6-0.1,5.5-0.4l0.1,0.5C20.2,65.9,17.8,66.2,15.6,66.2z M65.6,3.4c-0.5,0-0.9,0-1.4,0c-6.9,0.4-13.8,2.5-21.9,6.4
			c-14.1,7.2-25.8,17-33.8,28.4c-4.3,6.7-7.9,13.8-5.3,21c1.8,3.9,5.7,5.6,8.8,6c0.6,0.1,1.2,0.2,1.8,0.2c-4-0.5-8.2-2.2-9.9-6.5
			C1.8,52.1,6.1,45,10.1,39.6C18.4,29,30.2,20.2,44.2,14.2c7.4-3.1,14.1-4.7,20.1-4.7c4.3,0,7.5,1.2,9.2,3.3
			c1.2,1.5,1.6,3.5,1.1,5.7c0,0.1-0.1,0.2-0.1,0.3l0,0.2c-1.7,6.5-6.2,13.2-13.4,19.8l-0.1,0c-0.3,0.3-0.6,0.6-0.9,0.8l0,0
			c-0.3,0.3-0.6,0.6-0.9,0.8l-0.1,0c-0.3,0.3-0.6,0.5-0.9,0.8L58,41.5c-0.3,0.3-0.6,0.5-0.9,0.7L57,42.3c-0.3,0.2-0.6,0.5-0.9,0.7
			l-0.2,0.1c-0.3,0.2-0.6,0.4-0.8,0.7L54.9,44c-0.3,0.2-0.5,0.4-0.8,0.6l-0.3,0.2c-0.2,0.2-0.5,0.3-0.7,0.5l-0.5,0.3
			c-0.2,0.1-0.4,0.3-0.6,0.4c-0.1,0.1-0.2,0.1-0.3,0.2l-0.3,0.2c-0.1,0.1-0.3,0.2-0.4,0.3c-0.1,0.1-0.3,0.2-0.4,0.3l-0.6,0.4
			c-0.3,0.2-0.5,0.4-0.8,0.5l5.6,8.2c6.6-4.9,12.1-10,16.6-15.5c4.7-6,9.5-12.6,10.6-21.5c0.6-4.3-1.1-10.1-5.3-12.8
			C73.6,4.4,70.1,3.4,65.6,3.4z"/>
	</g>
	<g>
		<path fill="#005690" d="M56.9,27.7c0.2-0.6,0.3-1.3,0.4-2c0.4-4-1.1-7.4-4.5-10.2c-3.3-2.8-7.7-4.1-13.2-4.1
			c-5.8,0-10.6,1.4-14.5,4.1c-3.9,2.7-6.3,6.4-7.2,11.1h16.2l0.2-0.7c0.5-2.3,1.7-3.4,3.6-3.4c2.4,0,3.4,1.4,3.2,4.2
			c0,0.3-0.1,0.6-0.2,0.9"/>
		<path fill="#1A1E66" d="M41.1,27.8l-0.5-0.1c0.1-0.3,0.1-0.6,0.2-0.8c0.1-1.4-0.1-2.5-0.6-3.1c-0.5-0.5-1.2-0.8-2.3-0.8
			c-1.8,0-2.8,1-3.3,3.2L34.3,27H17.5l0.1-0.3c0.9-4.7,3.4-8.5,7.3-11.3c3.9-2.8,8.8-4.2,14.6-4.2c5.5,0,10,1.4,13.4,4.2
			c3.5,2.8,5,6.3,4.6,10.4c-0.1,0.7-0.2,1.4-0.4,2l-0.5-0.1c0.2-0.6,0.3-1.3,0.4-1.9c0.4-3.9-1.1-7.2-4.4-9.9
			c-3.3-2.7-7.7-4.1-13.1-4.1c-5.7,0-10.5,1.4-14.3,4.1c-3.7,2.6-6.1,6.2-7,10.6h15.7L34,26c0.5-2.4,1.8-3.6,3.8-3.6
			c1.2,0,2.1,0.3,2.7,1c0.7,0.8,0.9,1.9,0.8,3.5C41.2,27.2,41.2,27.5,41.1,27.8z"/>
	</g>
	<g>
		<g>
			<path d="M8.5,43l-0.3,1.6c-0.5,0.1-0.9,0.2-1.4,0.2c-0.8,0-1.4-0.2-1.9-0.6c-0.3-0.3-0.5-0.7-0.5-1.2c0-0.3,0.1-0.8,0.3-1.8
				l1.4-6.7H4.6l0.3-1.5h1.6L7,30.2l2.3-1.4l-0.9,4.2h1.9L10,34.6H8.1L6.7,41c-0.2,0.8-0.2,1.3-0.2,1.5c0,0.2,0.1,0.4,0.2,0.5
				c0.1,0.1,0.4,0.2,0.7,0.2C7.8,43.2,8.2,43.1,8.5,43z"/>
			<path d="M6.8,45.1c-0.8,0-1.5-0.2-2-0.6c-0.4-0.3-0.6-0.8-0.6-1.4c0-0.3,0.1-0.9,0.3-1.8l1.3-6.4H4.2l0.4-2.1h1.6l0.6-2.7
				l2.9-1.7l-0.9,4.4h1.9l-0.4,2.1H8.3L7,41c-0.2,1-0.2,1.3-0.2,1.4c0,0.2,0,0.3,0.1,0.3c0.1,0.1,0.2,0.1,0.5,0.1
				c0.4,0,0.8,0,1.1-0.1l0.4-0.1l-0.4,2.2l-0.2,0C7.8,45,7.3,45.1,6.8,45.1z M4.9,34.3h1.6l-1.5,7c-0.2,1.1-0.3,1.5-0.3,1.7
				c0,0.4,0.1,0.7,0.4,1c0.4,0.3,1,0.5,1.7,0.5c0.4,0,0.8,0,1.1-0.1l0.2-1c-0.3,0-0.5,0.1-0.8,0.1c-0.4,0-0.7-0.1-0.8-0.3
				c-0.2-0.2-0.3-0.4-0.3-0.7c0-0.1,0-0.4,0.3-1.5l1.4-6.6h1.9l0.2-1H8.1l0.8-3.9l-1.6,1l-0.6,2.9H5.1L4.9,34.3z"/>
		</g>
		<g>
			<path d="M18.2,40.7l1.9,0.2c-0.3,0.9-0.9,1.8-1.9,2.7c-1,0.9-2.2,1.3-3.5,1.3c-0.9,0-1.6-0.2-2.4-0.6c-0.7-0.4-1.3-1-1.6-1.7
				c-0.4-0.8-0.6-1.6-0.6-2.6c0-1.3,0.3-2.5,0.9-3.7c0.6-1.2,1.3-2.1,2.3-2.6s1.9-0.9,3-0.9c1.4,0,2.5,0.4,3.3,1.3
				c0.8,0.9,1.2,2,1.2,3.5c0,0.6-0.1,1.1-0.2,1.7h-8.5c0,0.2,0,0.4,0,0.6c0,1.1,0.2,1.9,0.7,2.5c0.5,0.6,1.1,0.9,1.8,0.9
				c0.7,0,1.3-0.2,2-0.7C17.3,42.2,17.8,41.5,18.2,40.7z M12.4,37.8h6.5c0-0.2,0-0.3,0-0.4c0-1-0.2-1.7-0.7-2.2
				c-0.5-0.5-1.1-0.8-1.9-0.8c-0.8,0-1.6,0.3-2.3,0.9C13.3,35.8,12.8,36.6,12.4,37.8z"/>
			<path d="M14.7,45.1c-0.9,0-1.7-0.2-2.5-0.6c-0.8-0.4-1.3-1-1.7-1.8C10,41.9,9.8,41,9.8,40c0-1.3,0.3-2.6,0.9-3.8
				c0.6-1.2,1.4-2.2,2.4-2.8c1-0.6,2-0.9,3.2-0.9c1.4,0,2.6,0.5,3.5,1.4c0.9,0.9,1.3,2.1,1.3,3.7c0,0.6-0.1,1.2-0.2,1.8l0,0.2h-8.5
				c0,0.1,0,0.2,0,0.3c0,1,0.2,1.8,0.7,2.3c0.4,0.5,1,0.8,1.6,0.8c0.6,0,1.2-0.2,1.8-0.6c0.6-0.4,1.1-1,1.4-1.8l0.1-0.2l2.4,0.2
				L20.4,41c-0.3,1-1,1.9-2,2.8C17.3,44.7,16.1,45.1,14.7,45.1z M16.3,33.1c-1,0-2,0.3-2.9,0.8c-0.9,0.5-1.6,1.4-2.2,2.5
				c-0.6,1.1-0.8,2.3-0.8,3.6c0,0.9,0.2,1.7,0.5,2.5c0.3,0.7,0.9,1.2,1.5,1.6c0.7,0.4,1.4,0.6,2.2,0.6c1.3,0,2.4-0.4,3.4-1.2
				c0.8-0.7,1.4-1.5,1.7-2.3L18.3,41c-0.4,0.8-0.9,1.4-1.5,1.8c-0.7,0.5-1.4,0.7-2.1,0.7c-0.8,0-1.5-0.3-2-0.9
				c-0.5-0.6-0.8-1.5-0.8-2.6c0-0.2,0-0.4,0-0.6l0-0.2h8.5c0.1-0.5,0.1-1,0.1-1.5c0-1.4-0.4-2.5-1.2-3.3
				C18.6,33.5,17.6,33.1,16.3,33.1z M19.2,38.1h-7.1l0.1-0.3c0.4-1.2,0.9-2.1,1.6-2.7c0.7-0.6,1.6-0.9,2.5-0.9
				c0.9,0,1.6,0.3,2.1,0.9c0.5,0.6,0.8,1.4,0.8,2.4c0,0.1,0,0.2,0,0.4L19.2,38.1z M12.8,37.5h5.9c0-0.1,0-0.1,0-0.2
				c0-0.9-0.2-1.6-0.7-2.1c-0.4-0.5-1-0.7-1.7-0.7c-0.8,0-1.5,0.3-2.1,0.8C13.6,35.9,13.1,36.6,12.8,37.5z"/>
		</g>
		<g>
			<path d="M21.5,44.6l3.3-16h2l-3.3,16H21.5z"/>
			<path d="M23.7,44.9h-2.5l3.4-16.5h2.5L23.7,44.9z M21.8,44.4h1.4l3.2-15.4h-1.4L21.8,44.4z"/>
		</g>
	</g>
	<g>
		<g>
			<path d="M66.2,52.8l1.4,0.1c-0.4,1.1-0.9,1.9-1.5,2.5c-0.7,0.5-1.5,0.8-2.3,0.8c-0.9,0-1.7-0.3-2.3-0.9c-0.6-0.6-0.9-1.4-0.9-2.5
				c0-0.9,0.2-1.9,0.5-2.8c0.4-0.9,0.9-1.6,1.6-2.1c0.7-0.5,1.5-0.7,2.4-0.8c0.9,0,1.7,0.2,2.2,0.8c0.6,0.5,0.8,1.2,0.9,2.1
				l-1.4,0.1c0-0.6-0.2-1-0.5-1.3c-0.3-0.3-0.7-0.5-1.3-0.5c-0.6,0-1.1,0.2-1.5,0.6c-0.4,0.4-0.8,1-1,1.7c-0.2,0.8-0.4,1.5-0.3,2.2
				c0,0.7,0.2,1.3,0.5,1.7c0.3,0.4,0.7,0.5,1.2,0.5c0.5,0,0.9-0.2,1.4-0.6C65.6,54.1,66,53.6,66.2,52.8z"/>
			<path d="M63.7,56.5c-1,0-1.8-0.3-2.4-1c-0.6-0.6-1-1.6-1-2.7c0-1,0.2-2,0.5-2.9c0.4-1,0.9-1.7,1.7-2.2c0.7-0.5,1.6-0.8,2.5-0.8
				l0.1,0c1,0,1.8,0.3,2.3,0.8c0.6,0.6,0.9,1.3,0.9,2.3l0,0.2l-2,0.2l0-0.3c0-0.5-0.1-0.9-0.4-1.1c-0.3-0.3-0.6-0.4-1-0.4l0,0
				c-0.5,0-1,0.2-1.4,0.5c-0.4,0.3-0.7,0.9-0.9,1.6c-0.2,0.7-0.3,1.4-0.3,2.1c0,0.7,0.2,1.2,0.5,1.5c0.3,0.3,0.6,0.4,1,0.4
				c0.5,0,0.8-0.2,1.2-0.5c0.4-0.3,0.7-0.9,0.9-1.6l0.1-0.2l2,0.1L67.9,53c-0.4,1.1-0.9,2-1.6,2.6C65.6,56.2,64.7,56.5,63.7,56.5
				L63.7,56.5z M65.1,47.4L65.1,47.4c-0.9,0-1.7,0.2-2.3,0.7c-0.6,0.5-1.1,1.1-1.5,2c-0.3,0.9-0.5,1.8-0.5,2.7c0,1,0.3,1.8,0.8,2.3
				c0.5,0.5,1.2,0.8,2.1,0.8l0.1,0c0.8,0,1.5-0.3,2.2-0.8c0.6-0.4,1-1.1,1.3-2l-0.9-0.1c-0.3,0.7-0.6,1.2-1,1.6
				c-0.5,0.4-1,0.6-1.6,0.6l0,0c-0.5,0-1-0.2-1.4-0.6c-0.4-0.4-0.6-1-0.6-1.8c0-0.7,0.1-1.5,0.4-2.3c0.3-0.8,0.6-1.4,1.1-1.8
				c0.5-0.4,1.1-0.6,1.7-0.7l0,0c0.6,0,1,0.2,1.4,0.5c0.3,0.3,0.5,0.7,0.6,1.2l0.9-0.1c-0.1-0.7-0.3-1.2-0.8-1.6
				C66.6,47.6,66,47.4,65.1,47.4z"/>
		</g>
		<g>
			<path d="M68.8,52.6c0-1.7,0.5-3.1,1.4-4.2c0.8-0.9,1.9-1.4,3.2-1.4c1,0,1.9,0.3,2.5,0.9c0.6,0.6,1,1.5,1,2.6c0,1-0.2,1.9-0.6,2.8
				c-0.4,0.9-1,1.5-1.7,2c-0.7,0.5-1.5,0.7-2.3,0.7c-0.7,0-1.3-0.1-1.8-0.4c-0.6-0.3-1-0.7-1.3-1.2C69,53.9,68.8,53.3,68.8,52.6z
				 M70.2,52.5c0,0.8,0.2,1.4,0.6,1.8c0.4,0.4,0.9,0.6,1.5,0.6c0.3,0,0.6-0.1,0.9-0.2c0.3-0.1,0.6-0.3,0.9-0.6
				c0.3-0.3,0.5-0.6,0.7-0.9c0.2-0.3,0.3-0.7,0.4-1.1c0.2-0.5,0.2-1.1,0.2-1.6c0-0.8-0.2-1.4-0.6-1.8c-0.4-0.4-0.9-0.6-1.5-0.6
				c-0.5,0-0.9,0.1-1.3,0.4c-0.4,0.2-0.7,0.6-1,1c-0.3,0.4-0.5,0.9-0.7,1.5C70.3,51.5,70.2,52,70.2,52.5z"/>
			<path d="M72.3,56.3c-0.7,0-1.3-0.1-1.9-0.4c-0.6-0.3-1.1-0.7-1.4-1.3c-0.3-0.6-0.5-1.2-0.5-1.9c0-1.7,0.5-3.2,1.5-4.4
				c0.9-1,2-1.5,3.4-1.5l0.1,0c1.1,0,2,0.3,2.7,1c0.7,0.7,1.1,1.6,1.1,2.8c0,1-0.2,2-0.6,2.9c-0.4,0.9-1,1.6-1.8,2.1
				C74.1,56.1,73.3,56.3,72.3,56.3L72.3,56.3z M73.5,47.3L73.5,47.3c-1.3,0-2.3,0.5-3.1,1.3c-0.9,1.1-1.4,2.4-1.4,4
				c0,0.6,0.2,1.2,0.4,1.7c0.3,0.5,0.7,0.8,1.2,1.1c0.5,0.2,1.1,0.4,1.7,0.4l0.1,0c0.8,0,1.5-0.2,2.2-0.7c0.7-0.4,1.2-1.1,1.6-1.9
				c0.4-0.8,0.6-1.7,0.5-2.7c0-1-0.3-1.8-0.9-2.4C75.2,47.6,74.5,47.3,73.5,47.3z M72.3,55.2c-0.7,0-1.2-0.2-1.7-0.7
				c-0.5-0.5-0.7-1.1-0.7-2c0-0.5,0.1-1,0.2-1.6c0.1-0.6,0.4-1.1,0.7-1.6c0.3-0.5,0.7-0.8,1.1-1.1c0.4-0.2,0.9-0.4,1.4-0.4l0,0
				c0.7,0,1.2,0.2,1.7,0.7c0.5,0.5,0.7,1.1,0.7,2c0,0.5-0.1,1.1-0.2,1.6c-0.1,0.4-0.3,0.8-0.5,1.1c-0.2,0.4-0.4,0.7-0.7,1
				c-0.3,0.3-0.6,0.5-1,0.7C73.1,55.1,72.7,55.2,72.3,55.2L72.3,55.2z M73.4,48.4L73.4,48.4c-0.5,0-0.8,0.1-1.2,0.3
				c-0.3,0.2-0.7,0.5-0.9,0.9C71,50,70.8,50.5,70.7,51c-0.1,0.5-0.2,1-0.2,1.4c0,0.7,0.2,1.3,0.5,1.7c0.3,0.4,0.8,0.5,1.3,0.5l0,0
				c0.3,0,0.6-0.1,0.8-0.2c0.3-0.1,0.5-0.3,0.8-0.5c0.2-0.2,0.5-0.5,0.6-0.8c0.2-0.3,0.3-0.7,0.4-1c0.2-0.5,0.2-1,0.2-1.5
				c0-0.7-0.2-1.3-0.6-1.6C74.4,48.6,74,48.4,73.4,48.4z"/>
		</g>
		<g>
			<path d="M77.5,55.8l1.7-8.7l1.5,0l-0.3,1.4c0.5-0.6,1-1,1.5-1.3c0.4-0.2,0.9-0.4,1.4-0.4c0.5,0,1,0.1,1.4,0.4
				c0.4,0.3,0.6,0.7,0.7,1.2c0.4-0.6,0.9-1,1.4-1.2c0.5-0.3,1-0.4,1.5-0.4c0.7,0,1.3,0.2,1.6,0.5c0.4,0.3,0.6,0.8,0.6,1.4
				c0,0.3-0.1,0.7-0.2,1.3l-1.1,5.6l-1.5,0l1.1-5.7c0.1-0.5,0.1-0.8,0.1-1c0-0.3-0.1-0.5-0.3-0.7C88.5,48.1,88.3,48,88,48
				c-0.4,0-0.9,0.1-1.3,0.4c-0.5,0.3-0.8,0.6-1.1,1.1c-0.2,0.4-0.5,1.1-0.6,2l-0.8,4.2l-1.5,0l1.1-5.9c0.1-0.4,0.1-0.7,0.1-0.8
				c0-0.3-0.1-0.5-0.3-0.7c-0.2-0.2-0.4-0.3-0.7-0.2c-0.4,0-0.9,0.1-1.3,0.4c-0.5,0.3-0.8,0.6-1.1,1.1c-0.3,0.5-0.5,1.2-0.7,2
				L79,55.8L77.5,55.8z"/>
			<path d="M77.2,56.1l1.8-9.2l2,0l-0.2,0.9c0.3-0.3,0.6-0.5,0.9-0.7c0.5-0.3,1-0.4,1.5-0.4l0.1,0c0.6,0,1.1,0.2,1.5,0.5
				c0.3,0.2,0.5,0.5,0.7,0.9c0.4-0.4,0.7-0.7,1.1-0.9c0.5-0.3,1.1-0.5,1.7-0.5l0.1,0c0.8,0,1.3,0.2,1.8,0.6c0.4,0.4,0.6,0.9,0.7,1.6
				c0,0.3-0.1,0.7-0.2,1.4l-1.1,5.8l-2,0l1.2-6.1c0.1-0.5,0.1-0.8,0.1-0.9c0-0.2-0.1-0.4-0.2-0.5c-0.1-0.1-0.3-0.2-0.6-0.2
				c-0.4,0-0.8,0.1-1.2,0.4c-0.4,0.2-0.7,0.6-1,1c-0.2,0.4-0.4,1.1-0.6,1.9L84.3,56l-2,0l1.2-6.2c0.1-0.5,0.1-0.7,0.1-0.8
				c0-0.2-0.1-0.4-0.2-0.5c-0.1-0.1-0.3-0.2-0.5-0.2c-0.4,0-0.8,0.1-1.2,0.4c-0.4,0.2-0.8,0.6-1,1c-0.3,0.4-0.5,1.1-0.6,1.9L79.2,56
				L77.2,56.1z M79.5,47.4l-1.6,8.2l0.9,0l0.8-3.9c0.2-0.9,0.4-1.6,0.7-2.1c0.3-0.5,0.7-0.9,1.2-1.2c0.5-0.3,1-0.4,1.4-0.5
				c0,0,0,0,0,0c0.4,0,0.7,0.1,0.9,0.3c0.2,0.2,0.4,0.5,0.4,0.9c0,0.2,0,0.5-0.1,0.9L83,55.5l0.9,0l0.8-4c0.2-0.9,0.4-1.6,0.7-2.1
				c0.3-0.5,0.7-0.9,1.1-1.2c0.5-0.3,1-0.4,1.5-0.5l0,0c0.4,0,0.7,0.1,0.9,0.3c0.2,0.2,0.4,0.5,0.4,0.9c0,0.2,0,0.6-0.1,1.1
				l-1.1,5.4l0.9,0l1.1-5.4c0.1-0.6,0.2-1,0.2-1.3c0-0.5-0.2-1-0.5-1.2C89.4,47.2,89,47,88.4,47l-0.1,0c-0.5,0-1,0.1-1.4,0.4
				c-0.5,0.3-0.9,0.7-1.3,1.2l-0.3,0.4l-0.1-0.5c-0.1-0.5-0.3-0.8-0.6-1c-0.3-0.2-0.7-0.4-1.1-0.4l0,0c-0.5,0-0.9,0.1-1.3,0.3
				c-0.4,0.2-0.9,0.6-1.4,1.2L80,49.4l0.4-2.1L79.5,47.4z"/>
		</g>
	</g>
	<g>
		<defs>
			<circle id="SVGID_1_" cx="51.6" cy="52.3" r="7.1"/>
		</defs>
		<use xlink:href="#SVGID_1_"  overflow="visible" fill="#F1CC73"/>
		<clipPath id="SVGID_2_">
			<use xlink:href="#SVGID_1_"  overflow="visible"/>
		</clipPath>
		<g clip-path="url(#SVGID_2_)">
			<circle fill="#F15623" cx="49.9" cy="51.8" r="8.8"/>
		</g>
	</g>
</g>
</svg>
