<svg height="30" width="85" version="1.1" xmlns="http://www.w3.org/2000/svg" xmlns:xlink="http://www.w3.org/1999/xlink" x="0px" y="0px" viewbox="0 0 82 32.8" style="enable-background:new 0 0 82 32.8;" xml:space="preserve">
<g>
	<g>
		<path d="M11.5,7.8h-8c0,1,0.4,1.7,1,2.2c0.6,0.5,1.5,0.8,2.7,0.8c0.7,0,1.4-0.2,2.1-0.4c0.7-0.3,1.2-0.6,1.6-0.6h0.4v2.7
			C10.5,12.8,9.8,13,9,13.2c-0.7,0.2-1.5,0.2-2.3,0.2c-2.2,0-3.9-0.6-5-1.6C0.6,10.7,0,9.2,0,7.2s0.6-3.6,1.6-4.7
			c1.1-1.2,2.7-1.8,4.5-1.8c1.8,0,3.1,0.5,4,1.5c0.9,1,1.3,2.4,1.3,4.3L11.5,7.8L11.5,7.8z M8.1,5.5c0-0.8-0.2-1.4-0.6-1.8
			C7.2,3.3,6.6,3.1,5.9,3.1c-0.7,0-1.2,0.2-1.6,0.6c-0.4,0.4-0.7,1-0.7,1.8C3.5,5.5,8.1,5.5,8.1,5.5z"></path>
	</g>
	<g>
		<path d="M10.7,14l7.7-0.4c-0.1-0.9-0.4-1.6-1-2.1c-0.6-0.4-1.4-0.6-2.6-0.6c-0.7,0-1.3,0.4-2,0.8c-0.6,0.3-1.5,0.8-1.5,0.8
			l-0.9,0.3c0,0-0.2-2.9,0-3s1.9-1,2.3-1.1c0.4-0.1,1.4-0.3,2.2-0.4c2.1-0.1,3.7,0.3,4.9,1.3c1.2,1,1.8,2.5,1.9,4.4
			c0.1,1.9-0.4,3.5-1.4,4.7c-1,1.2-2.5,1.8-4.3,1.9c-1.7,0.1-3-0.3-3.9-1.2c-0.9-0.9-1.4-2.3-1.5-4.1L10.7,14z M14.1,16
			c0,0.8,0.2,1.4,0.6,1.7c0.4,0.4,0.9,0.6,1.6,0.5c0.6,0,1.2-0.2,1.6-0.6c0.4-0.4,0.6-1,0.6-1.8L14.1,16z"></path>
	</g>
	<g>
		<path d="M6.5,26.7c-1,0-1.8-0.1-2.6-0.4c-0.8-0.2-1.4-0.6-2.1-1.2c-0.6-0.5-1-1.2-1.3-2C0.2,22.4,0,21.5,0,20.4
			c0-1.1,0.2-2.1,0.5-2.9c0.3-0.8,0.8-1.5,1.4-2c0.6-0.5,1.3-0.9,2-1.1s1.6-0.4,2.4-0.4c0.8,0,1.4,0.1,2.1,0.3
			c0.6,0.2,1.2,0.4,1.8,0.7v3.3H9.7c-0.1-0.1-0.3-0.3-0.5-0.4c-0.2-0.2-0.4-0.3-0.7-0.5C8.3,17.1,8,17,7.7,16.8
			c-0.3-0.1-0.7-0.2-1.1-0.2c-0.9,0-1.6,0.3-2.1,1c-0.6,0.7-0.8,1.6-0.8,2.7c0,1.2,0.2,2,0.8,2.7S5.6,24,6.6,24c0.4,0,0.8,0,1.2-0.2
			c0.4-0.1,0.6-0.2,0.9-0.4C8.8,23.3,9,23.2,9.2,23c0.2-0.2,0.3-0.3,0.5-0.5h0.5v3.3c-0.6,0.3-1.1,0.5-1.7,0.7
			C7.9,26.7,7.2,26.7,6.5,26.7z"></path>
	</g>
</g>
<rect x="24.7" width="57.3" height="27.5"></rect>
<g>
	<path fill="#FFFFFF" d="M31.8,6.8h-3.2c0,0.4,0.2,0.6,0.4,0.8c0.2,0.2,0.6,0.3,1.1,0.3c0.3,0,0.6,0,0.9-0.2s0.5-0.2,0.7-0.4h0.2v1.1
		c-0.3,0.1-0.6,0.2-0.9,0.3c-0.3,0-0.6,0.1-0.9,0.1c-0.9,0-1.6-0.2-2-0.6c-0.5-0.4-0.7-1-0.7-1.7s0.2-1.3,0.7-1.7
		c0.4-0.4,1-0.6,1.8-0.6c0.7,0,1.2,0.2,1.6,0.6c0.4,0.4,0.5,0.9,0.5,1.6L31.8,6.8L31.8,6.8z M30.3,6c0-0.3-0.1-0.5-0.2-0.7
		c-0.1-0.2-0.4-0.2-0.6-0.2c-0.3,0-0.5,0.1-0.7,0.2c-0.2,0.2-0.3,0.4-0.3,0.7L30.3,6L30.3,6z"></path>
	<path fill="#FFFFFF" d="M37.5,5.7v3.1h-1.4V6.6c0-0.2,0-0.4,0-0.6c0-0.2,0-0.3-0.1-0.4c0-0.1-0.1-0.2-0.2-0.2c-0.1,0-0.2-0.1-0.4-0.1
		c-0.1,0-0.3,0-0.4,0.1c-0.1,0-0.2,0.1-0.4,0.2v3.1h-1.4V4.3h1.4v0.5c0.2-0.2,0.5-0.3,0.7-0.4c0.2-0.1,0.5-0.2,0.7-0.2
		c0.3,0,0.6,0.1,0.8,0.2c0.2,0.1,0.4,0.3,0.5,0.6c0.3-0.2,0.6-0.4,0.8-0.6c0.3-0.1,0.5-0.2,0.8-0.2c0.5,0,0.8,0.2,1.1,0.4
		c0.2,0.3,0.4,0.7,0.4,1.2v2.9H39V6.6c0-0.2,0-0.4,0-0.6c0-0.2,0-0.3-0.1-0.4c0-0.1-0.1-0.2-0.2-0.2c-0.1,0-0.2-0.1-0.4-0.1
		c-0.1,0-0.2,0-0.4,0.1S37.7,5.6,37.5,5.7z"></path>
	<path fill="#FFFFFF" d="M44.9,8.3c-0.1,0-0.2,0.1-0.3,0.2c-0.1,0.1-0.2,0.2-0.3,0.2c-0.1,0.1-0.3,0.1-0.4,0.1c-0.2,0-0.3,0-0.5,0
		c-0.4,0-0.8-0.1-1-0.4c-0.3-0.2-0.4-0.6-0.4-1c0-0.3,0.1-0.6,0.2-0.8c0.2-0.2,0.4-0.4,0.6-0.5c0.3-0.1,0.6-0.2,1-0.2
		c0.4,0,0.8-0.1,1.2-0.1v0c0-0.2-0.1-0.4-0.3-0.5c-0.2-0.1-0.5-0.1-0.9-0.1c-0.2,0-0.5,0-0.8,0.1s-0.4,0.2-0.6,0.2h-0.1v-1
		c0.2,0,0.4-0.1,0.7-0.1c0.3,0,0.7-0.1,1-0.1c0.8,0,1.4,0.1,1.7,0.4c0.4,0.2,0.5,0.6,0.5,1.2v3h-1.4L44.9,8.3L44.9,8.3z M44.9,7.6
		V6.7c-0.2,0-0.4,0-0.6,0.1c-0.2,0-0.4,0-0.5,0.1c-0.2,0-0.2,0.1-0.3,0.2c-0.1,0.1-0.1,0.2-0.1,0.3c0,0.1,0,0.2,0,0.2
		c0,0,0,0.1,0.1,0.2c0,0,0.1,0.1,0.2,0.1c0.1,0,0.2,0,0.4,0c0.2,0,0.3,0,0.4-0.1C44.7,7.8,44.9,7.7,44.9,7.6z"></path>
	<path fill="#FFFFFF" d="M49.6,3.7h-1.5v-1h1.5V3.7z M49.6,8.8h-1.4V4.4h1.4V8.8z"></path>
	<path fill="#FFFFFF" d="M52.9,8.8h-1.4V2.7h1.4V8.8z"></path>
	<path fill="#FFFFFF" d="M31.8,14.5h-3.2c0,0.4,0.2,0.6,0.4,0.8c0.2,0.2,0.6,0.3,1.1,0.3c0.3,0,0.6,0,0.9-0.2c0.3-0.1,0.5-0.2,0.7-0.4
		h0.2v1.1c-0.3,0.1-0.6,0.2-0.9,0.3c-0.3,0-0.6,0.1-0.9,0.1c-0.9,0-1.6-0.2-2-0.6s-0.7-1-0.7-1.7c0-0.7,0.2-1.3,0.7-1.7
		s1-0.6,1.8-0.6c0.7,0,1.2,0.2,1.6,0.6c0.4,0.4,0.5,0.9,0.5,1.6L31.8,14.5L31.8,14.5z M30.3,13.7c0-0.3-0.1-0.5-0.2-0.7
		c-0.1-0.2-0.4-0.2-0.6-0.2c-0.3,0-0.5,0.1-0.7,0.2c-0.2,0.2-0.3,0.4-0.3,0.7L30.3,13.7L30.3,13.7z"></path>
	<path fill="#FFFFFF" d="M37.9,16.4h-1.6l-0.9-1.3l-1,1.3h-1.6l1.7-2.2L32.7,12h1.6l0.9,1.3l0.9-1.3h1.6l-1.7,2.2L37.9,16.4z"></path>
	<path fill="#FFFFFF" d="M43.8,14.1c0,0.4,0,0.7-0.2,1c-0.1,0.3-0.2,0.6-0.4,0.7c-0.2,0.2-0.4,0.4-0.6,0.5c-0.2,0.1-0.5,0.2-0.8,0.2
		c-0.2,0-0.5,0-0.6-0.1c-0.2,0-0.4-0.1-0.5-0.2V18h-1.4v-6h1.4v0.4c0.2-0.2,0.4-0.3,0.7-0.4c0.2-0.1,0.5-0.2,0.8-0.2
		c0.6,0,1,0.2,1.3,0.6C43.6,12.9,43.8,13.5,43.8,14.1z M42.3,14.2c0-0.4-0.1-0.7-0.2-0.9c-0.2-0.2-0.4-0.3-0.7-0.3
		c-0.1,0-0.3,0-0.4,0.1c-0.2,0-0.3,0.1-0.4,0.2v2.2c0.1,0,0.2,0,0.3,0.1c0.1,0,0.2,0,0.3,0c0.4,0,0.6-0.1,0.8-0.3
		C42.2,15,42.3,14.6,42.3,14.2z"></path>
	<path fill="#FFFFFF" d="M49.6,14.5h-3.2c0,0.4,0.2,0.6,0.4,0.8c0.2,0.2,0.6,0.3,1.1,0.3c0.3,0,0.6,0,0.9-0.2c0.3-0.1,0.5-0.2,0.7-0.4
		h0.2v1.1c-0.3,0.1-0.6,0.2-0.9,0.3c-0.3,0-0.6,0.1-0.9,0.1c-0.9,0-1.6-0.2-2.1-0.6c-0.5-0.4-0.7-1-0.7-1.7c0-0.7,0.2-1.3,0.7-1.7
		c0.4-0.4,1-0.6,1.8-0.6c0.7,0,1.2,0.2,1.6,0.6c0.4,0.4,0.5,0.9,0.5,1.6L49.6,14.5L49.6,14.5z M48.2,13.7c0-0.3-0.1-0.5-0.2-0.7
		c-0.1-0.2-0.4-0.2-0.6-0.2s-0.5,0.1-0.7,0.2c-0.2,0.2-0.3,0.4-0.3,0.7L48.2,13.7L48.2,13.7z"></path>
	<path fill="#FFFFFF" d="M54.3,13.4h-0.1c0,0-0.2,0-0.3,0c-0.1,0-0.2,0-0.3,0c-0.2,0-0.4,0-0.5,0c-0.2,0-0.3,0.1-0.5,0.1v2.9h-1.4V12
		h1.4v0.6c0.3-0.3,0.6-0.4,0.8-0.5c0.2-0.1,0.4-0.1,0.6-0.1c0,0,0.1,0,0.2,0c0.1,0,0.1,0,0.2,0L54.3,13.4L54.3,13.4z"></path>
	<path fill="#FFFFFF" d="M57.1,11.4h-1.5v-1.1h1.5V11.4z M57.1,16.4h-1.4V12h1.4V16.4z"></path>
	<path fill="#FFFFFF" d="M63.3,14.5h-3.2c0,0.4,0.2,0.6,0.4,0.8c0.2,0.2,0.6,0.3,1.1,0.3c0.3,0,0.6,0,0.9-0.2c0.3-0.1,0.5-0.2,0.7-0.4
		h0.2v1.1c-0.3,0.1-0.6,0.2-0.9,0.3c-0.3,0-0.6,0.1-0.9,0.1c-0.9,0-1.6-0.2-2-0.6c-0.5-0.4-0.7-1-0.7-1.7c0-0.7,0.2-1.3,0.7-1.7
		c0.4-0.4,1-0.6,1.8-0.6c0.7,0,1.2,0.2,1.6,0.6c0.4,0.4,0.5,0.9,0.5,1.6L63.3,14.5L63.3,14.5z M61.9,13.7c0-0.3-0.1-0.5-0.2-0.7
		c-0.1-0.2-0.4-0.2-0.6-0.2c-0.3,0-0.5,0.1-0.7,0.2c-0.2,0.2-0.3,0.4-0.3,0.7L61.9,13.7L61.9,13.7z"></path>
	<path fill="#FFFFFF" d="M69.3,16.4h-1.4v-2.2c0-0.2,0-0.4,0-0.5c0-0.2,0-0.3-0.1-0.4c0-0.1-0.1-0.2-0.2-0.2s-0.2-0.1-0.4-0.1
		c-0.1,0-0.2,0-0.4,0.1c-0.1,0-0.3,0.1-0.4,0.2v3.1h-1.4v-4.4h1.4v0.5c0.2-0.2,0.5-0.4,0.7-0.4c0.2-0.1,0.5-0.2,0.8-0.2
		c0.5,0,0.8,0.1,1.1,0.4c0.3,0.3,0.4,0.7,0.4,1.2L69.3,16.4L69.3,16.4z"></path>
	<path fill="#FFFFFF" d="M73.4,16.6c-0.4,0-0.7,0-1-0.1s-0.6-0.2-0.8-0.4s-0.4-0.4-0.5-0.7c-0.1-0.3-0.2-0.6-0.2-1c0-0.4,0.1-0.8,0.2-1
		c0.1-0.3,0.3-0.6,0.6-0.7c0.2-0.2,0.5-0.3,0.8-0.4c0.3-0.1,0.6-0.1,1-0.1c0.3,0,0.6,0,0.8,0.1c0.2,0.1,0.5,0.2,0.7,0.2v1.2h-0.2
		c0,0-0.1-0.1-0.2-0.2c-0.1-0.1-0.2-0.1-0.3-0.2c-0.1,0-0.2-0.1-0.4-0.2c-0.1,0-0.3,0-0.4,0c-0.4,0-0.7,0.1-0.9,0.4s-0.3,0.6-0.3,1
		c0,0.4,0.1,0.8,0.3,1c0.2,0.2,0.5,0.3,0.9,0.3c0.2,0,0.3,0,0.5-0.1c0.2,0,0.2-0.1,0.4-0.2c0.1,0,0.2-0.1,0.2-0.2
		c0.1,0,0.1-0.1,0.2-0.2h0.2v1.2c-0.2,0.1-0.4,0.2-0.7,0.2C73.9,16.5,73.6,16.6,73.4,16.6z"></path>
	<path fill="#FFFFFF" d="M80.7,14.5h-3.2c0,0.4,0.2,0.6,0.4,0.8c0.2,0.2,0.6,0.3,1.1,0.3c0.3,0,0.6,0,0.9-0.2c0.3-0.1,0.5-0.2,0.7-0.4
		h0.2v1.1c-0.3,0.1-0.6,0.2-0.9,0.3c-0.3,0-0.6,0.1-0.9,0.1c-0.9,0-1.6-0.2-2.1-0.6s-0.7-1-0.7-1.7c0-0.7,0.2-1.3,0.7-1.7
		c0.4-0.4,1-0.6,1.8-0.6c0.7,0,1.2,0.2,1.6,0.6c0.4,0.4,0.5,0.9,0.5,1.6L80.7,14.5L80.7,14.5z M79.3,13.7c0-0.3-0.1-0.5-0.2-0.7
		c-0.1-0.2-0.4-0.2-0.6-0.2c-0.3,0-0.5,0.1-0.7,0.2c-0.2,0.2-0.3,0.4-0.3,0.7L79.3,13.7L79.3,13.7z"></path>
	<path fill="#FFFFFF" d="M29.7,24.2c-0.4,0-0.7,0-1-0.1c-0.3-0.1-0.6-0.2-0.8-0.4c-0.2-0.2-0.4-0.4-0.5-0.7c-0.1-0.3-0.2-0.6-0.2-1
		c0-0.4,0.1-0.8,0.2-1c0.1-0.3,0.3-0.6,0.6-0.7c0.2-0.2,0.5-0.3,0.8-0.4c0.3-0.1,0.6-0.1,1-0.1c0.3,0,0.6,0,0.8,0.1
		c0.2,0.1,0.5,0.2,0.7,0.2v1.2H31c0,0-0.1-0.1-0.2-0.2c-0.1-0.1-0.2-0.1-0.3-0.2c-0.1,0-0.2-0.1-0.4-0.2c-0.1,0-0.3,0-0.4,0
		c-0.4,0-0.7,0.1-0.9,0.4c-0.2,0.2-0.3,0.6-0.3,1c0,0.4,0.1,0.8,0.3,1c0.2,0.2,0.5,0.3,0.9,0.3c0.2,0,0.3,0,0.5-0.1
		c0.2,0,0.2-0.1,0.4-0.2c0.1,0,0.2-0.1,0.2-0.2c0.1,0,0.1-0.1,0.2-0.2h0.2v1.2C31,24,30.8,24,30.5,24.1C30.3,24.2,30,24.2,29.7,24.2
		z"></path>
	<path fill="#FFFFFF" d="M37.1,21.9c0,0.7-0.2,1.3-0.6,1.7c-0.4,0.4-1,0.6-1.8,0.6S33.4,24,33,23.6c-0.4-0.4-0.6-1-0.6-1.7
		c0-0.7,0.2-1.3,0.6-1.7c0.4-0.4,1-0.6,1.8-0.6s1.4,0.2,1.8,0.6C36.9,20.6,37.1,21.1,37.1,21.9z M35.4,23c0.1-0.1,0.2-0.2,0.2-0.4
		s0.1-0.4,0.1-0.6c0-0.2,0-0.5-0.1-0.6s-0.1-0.3-0.2-0.4c-0.1-0.1-0.2-0.2-0.3-0.2s-0.2-0.1-0.4-0.1s-0.2,0-0.4,0
		c-0.1,0-0.2,0.1-0.3,0.2c-0.1,0.1-0.2,0.2-0.2,0.4c0,0.2-0.1,0.4-0.1,0.7c0,0.2,0,0.4,0.1,0.6c0,0.2,0.1,0.3,0.2,0.4
		s0.2,0.2,0.3,0.2c0.1,0,0.2,0.1,0.4,0.1c0.1,0,0.2,0,0.4-0.1C35.3,23.1,35.3,23,35.4,23z"></path>
	<path fill="#FFFFFF" d="M43.1,24.1h-1.4v-0.5C41.4,23.8,41.2,24,41,24c-0.2,0.1-0.5,0.2-0.8,0.2c-0.5,0-0.8-0.1-1.1-0.4
		c-0.3-0.3-0.4-0.7-0.4-1.2v-2.9h1.4v2.2c0,0.2,0,0.4,0,0.6c0,0.2,0,0.3,0.1,0.4s0.1,0.2,0.2,0.2c0.1,0,0.2,0.1,0.4,0.1
		c0.1,0,0.2,0,0.4-0.1c0.2,0,0.3-0.1,0.4-0.2v-3.1h1.4L43.1,24.1L43.1,24.1z"></path>
	<path fill="#FFFFFF" d="M49.4,24.1H48v-2.2c0-0.2,0-0.4,0-0.5c0-0.2,0-0.3-0.1-0.4s-0.1-0.2-0.2-0.2s-0.2-0.1-0.4-0.1
		c-0.1,0-0.2,0-0.4,0.1c-0.1,0-0.3,0.1-0.4,0.2v3.1h-1.4v-4.4h1.4v0.5c0.2-0.2,0.5-0.4,0.7-0.4c0.2-0.1,0.5-0.2,0.8-0.2
		c0.5,0,0.8,0.1,1.1,0.4c0.3,0.3,0.4,0.7,0.4,1.2L49.4,24.1L49.4,24.1z"></path>
	<path fill="#FFFFFF" d="M53.5,24.2c-0.4,0-0.7,0-1-0.1c-0.3-0.1-0.6-0.2-0.8-0.4c-0.2-0.2-0.4-0.4-0.5-0.7c-0.1-0.3-0.2-0.6-0.2-1
		c0-0.4,0.1-0.8,0.2-1c0.1-0.3,0.3-0.6,0.6-0.7c0.2-0.2,0.5-0.3,0.8-0.4s0.6-0.1,1-0.1c0.3,0,0.6,0,0.8,0.1c0.2,0.1,0.5,0.2,0.7,0.2
		v1.2h-0.2c0,0-0.1-0.1-0.2-0.2c-0.1-0.1-0.2-0.1-0.3-0.2c-0.1,0-0.2-0.1-0.4-0.2c-0.1,0-0.3,0-0.4,0c-0.4,0-0.7,0.1-0.9,0.4
		c-0.2,0.2-0.3,0.6-0.3,1c0,0.4,0.1,0.8,0.3,1c0.2,0.2,0.5,0.3,0.9,0.3c0.2,0,0.3,0,0.5-0.1s0.2-0.1,0.4-0.2c0.1,0,0.2-0.1,0.2-0.2
		c0.1,0,0.1-0.1,0.2-0.2H55v1.2c-0.2,0.1-0.4,0.2-0.7,0.2C54.1,24.2,53.8,24.2,53.5,24.2z"></path>
	<path fill="#FFFFFF" d="M57.9,19h-1.5v-1.1h1.5V19z M57.8,24.1h-1.4v-4.4h1.4V24.1z"></path>
	<path fill="#FFFFFF" d="M61.1,24.1h-1.4V18h1.4V24.1z"></path>
</g>
<g>
	<path d="M28,32c-0.3,0-0.6-0.1-0.8-0.2s-0.3-0.4-0.3-0.7c0-0.4,0.1-0.8,0.4-1.1c0.3-0.3,0.6-0.5,1-0.5c0.3,0,0.5,0.1,0.6,0.2
		c0.2,0.1,0.2,0.3,0.2,0.6c0,0,0,0.1,0,0.2s0,0.2,0,0.3h-1.8c0,0,0,0.1,0,0.1c0,0,0,0.1,0,0.1c0,0.2,0.1,0.4,0.2,0.5
		c0.1,0.1,0.3,0.2,0.5,0.2c0.2,0,0.3,0,0.5-0.1c0.2-0.1,0.3-0.1,0.4-0.2h0l-0.1,0.4c-0.1,0-0.1,0-0.2,0.1c0,0-0.1,0-0.2,0.1
		s-0.2,0-0.2,0C28.2,32,28.1,32,28,32z M28.8,30.4c0,0,0-0.1,0-0.1c0,0,0-0.1,0-0.1c0-0.2,0-0.3-0.1-0.4c-0.1-0.1-0.2-0.1-0.4-0.1
		s-0.4,0.1-0.6,0.2c-0.2,0.1-0.3,0.3-0.3,0.5C27.4,30.4,28.8,30.4,28.8,30.4z"></path>
	<path d="M33.4,30c0,0,0,0.1,0,0.2c0,0,0,0.1,0,0.2L33,31.9h-0.4l0.3-1.4c0-0.1,0-0.2,0-0.2c0-0.1,0-0.1,0-0.2c0-0.1,0-0.2-0.1-0.2
		s-0.2-0.1-0.3-0.1c-0.1,0-0.2,0-0.4,0.1C32.1,30,32,30,31.8,30.1c0,0,0,0.1,0,0.1c0,0,0,0.1,0,0.1l-0.4,1.5H31l0.3-1.4
		c0-0.1,0-0.2,0-0.2s0-0.1,0-0.2c0-0.1,0-0.2-0.1-0.3c-0.1,0-0.2-0.1-0.3-0.1c-0.1,0-0.2,0-0.3,0.1c-0.1,0-0.2,0.1-0.4,0.2L29.9,32
		h-0.4l0.6-2.4h0.4l0,0.2c0.2-0.1,0.3-0.2,0.4-0.2s0.3-0.1,0.4-0.1c0.2,0,0.3,0,0.4,0.1c0.1,0.1,0.2,0.2,0.2,0.3
		c0.2-0.1,0.4-0.2,0.5-0.3c0.2-0.1,0.3-0.1,0.4-0.1c0.2,0,0.4,0,0.5,0.2C33.4,29.7,33.4,29.8,33.4,30z"></path>
	<path d="M35.3,31.6c0,0-0.1,0-0.2,0.1s-0.1,0.1-0.2,0.1c-0.1,0-0.2,0.1-0.2,0.1c-0.1,0-0.2,0-0.3,0c-0.2,0-0.4,0-0.5-0.2
		c-0.1-0.1-0.2-0.2-0.2-0.4c0-0.2,0-0.4,0.1-0.5c0.1-0.1,0.2-0.2,0.4-0.3c0.2-0.1,0.4-0.2,0.6-0.2c0.2,0,0.5,0,0.8-0.1
		c0,0,0-0.1,0-0.1c0,0,0,0,0-0.1c0-0.1,0-0.1,0-0.2s-0.1-0.1-0.1-0.1c0,0-0.1,0-0.2,0c-0.1,0-0.2,0-0.2,0c-0.1,0-0.3,0-0.4,0
		c-0.2,0-0.3,0.1-0.4,0.1h0l0.1-0.4c0.1,0,0.2,0,0.4-0.1s0.3,0,0.4,0c0.3,0,0.5,0,0.7,0.1c0.2,0.1,0.2,0.2,0.2,0.4c0,0,0,0.1,0,0.1
		c0,0,0,0.1,0,0.1l-0.4,1.6h-0.4L35.3,31.6z M35.5,30.6c-0.2,0-0.4,0-0.6,0c-0.2,0-0.3,0.1-0.4,0.1c-0.1,0-0.2,0.1-0.3,0.2
		s-0.1,0.2-0.1,0.3c0,0.1,0,0.2,0.1,0.2c0.1,0,0.2,0.1,0.3,0.1c0.1,0,0.3,0,0.4-0.1c0.1,0,0.3-0.1,0.4-0.2L35.5,30.6z"></path>
	<path d="M37.4,29.5l-0.6,2.4h-0.4l0.6-2.4H37.4z M37.6,28.7l-0.1,0.4h-0.4l0.1-0.4H37.6z"></path>
	<path d="M38.8,28.5l-0.8,3.4h-0.4l0.8-3.4H38.8z"></path>
	<path d="M40,32c-0.3,0-0.6-0.1-0.8-0.2s-0.3-0.4-0.3-0.7c0-0.4,0.1-0.8,0.4-1.1c0.3-0.3,0.6-0.5,1-0.5c0.3,0,0.5,0.1,0.6,0.2
		s0.2,0.3,0.2,0.6c0,0,0,0.1,0,0.2s0,0.2,0,0.3h-1.8c0,0,0,0.1,0,0.1c0,0,0,0.1,0,0.1c0,0.2,0.1,0.4,0.2,0.5
		c0.1,0.1,0.3,0.2,0.5,0.2c0.2,0,0.3,0,0.5-0.1c0.2-0.1,0.3-0.1,0.4-0.2h0L41,31.8c-0.1,0-0.1,0-0.2,0.1c0,0-0.1,0-0.2,0.1
		s-0.2,0-0.2,0C40.2,32,40.1,32,40,32z M40.8,30.4c0,0,0-0.1,0-0.1c0,0,0-0.1,0-0.1c0-0.2,0-0.3-0.1-0.4c-0.1-0.1-0.2-0.1-0.4-0.1
		s-0.4,0.1-0.6,0.2c-0.2,0.1-0.3,0.3-0.3,0.5C39.4,30.4,40.8,30.4,40.8,30.4z"></path>
	<path d="M42.5,30.7l-0.7-1.2h0.4l0.5,0.9l0.9-0.9h0.5l-1.2,1.2l0.7,1.2h-0.4L42.6,31l-0.9,0.9h-0.5L42.5,30.7z"></path>
	<path d="M46.6,30.3c0,0.2,0,0.5-0.1,0.7c-0.1,0.2-0.2,0.4-0.3,0.5c-0.1,0.2-0.3,0.3-0.4,0.4c-0.2,0.1-0.3,0.1-0.5,0.1
		c-0.1,0-0.2,0-0.4,0s-0.2-0.1-0.3-0.1l-0.2,1h-0.4l0.8-3.3h0.4L45,29.7c0.1-0.1,0.3-0.2,0.4-0.2c0.1,0,0.3-0.1,0.4-0.1
		c0.2,0,0.4,0.1,0.5,0.2C46.5,29.8,46.6,30,46.6,30.3z M46.1,30.3c0-0.2,0-0.3-0.1-0.4c-0.1-0.1-0.2-0.1-0.4-0.1
		c-0.1,0-0.2,0-0.4,0.1s-0.2,0.1-0.4,0.2l-0.3,1.4c0.1,0,0.2,0.1,0.3,0.1c0.1,0,0.2,0,0.3,0c0.2,0,0.3,0,0.4-0.1
		c0.1-0.1,0.2-0.2,0.3-0.3c0.1-0.1,0.2-0.2,0.2-0.4C46.1,30.7,46.1,30.5,46.1,30.3z"></path>
	<path d="M48,32c-0.3,0-0.6-0.1-0.8-0.2s-0.3-0.4-0.3-0.7c0-0.4,0.1-0.8,0.4-1.1c0.3-0.3,0.6-0.5,1-0.5c0.3,0,0.5,0.1,0.6,0.2
		s0.2,0.3,0.2,0.6c0,0,0,0.1,0,0.2s0,0.2,0,0.3h-1.8c0,0,0,0.1,0,0.1c0,0,0,0.1,0,0.1c0,0.2,0.1,0.4,0.2,0.5
		c0.1,0.1,0.3,0.2,0.5,0.2c0.2,0,0.3,0,0.5-0.1c0.2-0.1,0.3-0.1,0.4-0.2h0L49,31.8c-0.1,0-0.1,0-0.2,0.1c0,0-0.1,0-0.2,0.1
		s-0.2,0-0.2,0C48.2,32,48.1,32,48,32z M48.8,30.4c0,0,0-0.1,0-0.1c0,0,0-0.1,0-0.1c0-0.2,0-0.3-0.1-0.4c-0.1-0.1-0.2-0.1-0.4-0.1
		s-0.4,0.1-0.6,0.2c-0.2,0.1-0.3,0.3-0.3,0.5C47.4,30.4,48.8,30.4,48.8,30.4z"></path>
	<path d="M51.5,29.9L51.5,29.9c-0.1,0-0.1,0-0.2,0c0,0-0.1,0-0.2,0c-0.1,0-0.3,0-0.4,0.1c-0.1,0.1-0.2,0.1-0.4,0.2l-0.4,1.7h-0.4
		l0.6-2.4h0.4l-0.1,0.4c0.2-0.1,0.4-0.2,0.5-0.3c0.1,0,0.2-0.1,0.4-0.1c0.1,0,0.1,0,0.2,0s0.1,0,0.1,0L51.5,29.9z"></path>
	<path d="M52.4,29.5l-0.6,2.4h-0.4l0.6-2.4H52.4z M52.6,28.7l-0.1,0.4h-0.4l0.1-0.4H52.6z"></path>
	<path d="M53.7,32c-0.3,0-0.6-0.1-0.8-0.2c-0.2-0.2-0.3-0.4-0.3-0.7c0-0.4,0.1-0.8,0.4-1.1c0.3-0.3,0.6-0.5,1-0.5
		c0.3,0,0.5,0.1,0.6,0.2c0.2,0.1,0.2,0.3,0.2,0.6c0,0,0,0.1,0,0.2s0,0.2,0,0.3h-1.8c0,0,0,0.1,0,0.1c0,0,0,0.1,0,0.1
		c0,0.2,0.1,0.4,0.2,0.5c0.1,0.1,0.3,0.2,0.5,0.2c0.2,0,0.3,0,0.5-0.1c0.2-0.1,0.3-0.1,0.4-0.2h0l-0.1,0.4c-0.1,0-0.1,0-0.2,0.1
		c0,0-0.1,0-0.2,0.1s-0.2,0-0.2,0C53.9,32,53.9,32,53.7,32z M54.5,30.4c0,0,0-0.1,0-0.1c0,0,0-0.1,0-0.1c0-0.2,0-0.3-0.1-0.4
		c-0.1-0.1-0.2-0.1-0.4-0.1c-0.2,0-0.4,0.1-0.6,0.2s-0.3,0.3-0.3,0.5C53.1,30.4,54.5,30.4,54.5,30.4z"></path>
	<path d="M57.6,30c0,0,0,0.1,0,0.1c0,0,0,0.1,0,0.2l-0.4,1.6h-0.4l0.3-1.4c0-0.1,0-0.2,0-0.2s0-0.1,0-0.2c0-0.1,0-0.2-0.1-0.3
		c0-0.1-0.2-0.1-0.3-0.1c-0.1,0-0.2,0-0.4,0.1c-0.1,0.1-0.2,0.1-0.4,0.2l-0.4,1.8h-0.4l0.6-2.4h0.4l-0.1,0.3
		c0.2-0.1,0.3-0.2,0.4-0.2c0.1,0,0.3-0.1,0.4-0.1c0.2,0,0.4,0,0.5,0.2C57.6,29.7,57.6,29.8,57.6,30z"></path>
	<path d="M59.1,32c-0.2,0-0.3,0-0.4,0s-0.2-0.1-0.3-0.2c-0.1-0.1-0.2-0.2-0.2-0.3c0-0.1-0.1-0.2-0.1-0.4c0-0.2,0-0.4,0.1-0.6
		c0.1-0.2,0.2-0.4,0.3-0.5c0.1-0.2,0.3-0.2,0.5-0.4c0.2-0.1,0.4-0.1,0.6-0.1c0.2,0,0.3,0,0.4,0c0.1,0,0.2,0.1,0.3,0.1L60.2,30h0
		c0,0-0.1,0-0.1-0.1c0,0-0.1-0.1-0.2-0.1c0,0-0.1,0-0.2-0.1s-0.2,0-0.2,0c-0.3,0-0.5,0.1-0.7,0.4c-0.2,0.2-0.3,0.5-0.3,0.8
		c0,0.2,0,0.4,0.2,0.5c0.1,0.1,0.2,0.2,0.4,0.2c0.1,0,0.2,0,0.3,0s0.2,0,0.2-0.1c0.1,0,0.1-0.1,0.2-0.1c0.1,0,0.1-0.1,0.1-0.1h0
		l-0.1,0.5c-0.1,0-0.2,0.1-0.4,0.2C59.4,31.9,59.2,32,59.1,32z"></path>
	<path d="M61.5,32c-0.3,0-0.6-0.1-0.8-0.2s-0.3-0.4-0.3-0.7c0-0.4,0.1-0.8,0.4-1.1c0.3-0.3,0.6-0.5,1-0.5c0.3,0,0.5,0.1,0.6,0.2
		c0.2,0.1,0.2,0.3,0.2,0.6c0,0,0,0.1,0,0.2s0,0.2,0,0.3h-1.8c0,0,0,0.1,0,0.1c0,0,0,0.1,0,0.1c0,0.2,0.1,0.4,0.2,0.5
		c0.1,0.1,0.3,0.2,0.5,0.2c0.2,0,0.3,0,0.5-0.1c0.2-0.1,0.3-0.1,0.4-0.2h0l-0.1,0.4c-0.1,0-0.1,0-0.2,0.1c0,0-0.1,0-0.2,0.1
		s-0.2,0-0.2,0C61.7,32,61.6,32,61.5,32z M62.3,30.4c0,0,0-0.1,0-0.1c0,0,0-0.1,0-0.1c0-0.2,0-0.3-0.1-0.4c-0.1-0.1-0.2-0.1-0.4-0.1
		s-0.4,0.1-0.6,0.2s-0.3,0.3-0.3,0.5C60.9,30.4,62.3,30.4,62.3,30.4z"></path>
	<path d="M63.6,31.9h-0.5l0.2-0.6h0.5L63.6,31.9z"></path>
	<path d="M67,30.3c0,0.2,0,0.4-0.1,0.6c-0.1,0.2-0.2,0.4-0.3,0.5c-0.1,0.2-0.3,0.3-0.4,0.4C66,31.9,65.8,32,65.6,32
		c-0.3,0-0.5-0.1-0.7-0.2c-0.2-0.2-0.2-0.4-0.2-0.7c0-0.2,0-0.4,0.1-0.6c0.1-0.2,0.2-0.4,0.3-0.5c0.1-0.2,0.3-0.3,0.4-0.4
		c0.2-0.1,0.4-0.1,0.6-0.1c0.3,0,0.5,0.1,0.6,0.2C66.9,29.8,67,30,67,30.3z M66.3,31.2c0.1-0.1,0.1-0.2,0.2-0.4
		c0-0.2,0.1-0.3,0.1-0.5c0-0.2,0-0.4-0.2-0.4c-0.1-0.1-0.2-0.2-0.4-0.2c-0.1,0-0.3,0-0.4,0.1c-0.1,0.1-0.2,0.2-0.3,0.3
		c-0.1,0.1-0.1,0.2-0.2,0.4c0,0.2-0.1,0.3-0.1,0.5c0,0.2,0,0.4,0.2,0.4c0.1,0.1,0.2,0.2,0.4,0.2c0.1,0,0.3,0,0.4-0.1
		C66.1,31.5,66.2,31.4,66.3,31.2z"></path>
	<path d="M69.2,29.9L69.2,29.9c-0.1,0-0.1,0-0.2,0c0,0-0.1,0-0.2,0c-0.1,0-0.3,0-0.4,0.1c-0.1,0.1-0.2,0.1-0.4,0.2l-0.4,1.7h-0.4
		l0.6-2.4h0.4l-0.1,0.4c0.2-0.1,0.4-0.2,0.5-0.3c0.1,0,0.2-0.1,0.4-0.1c0.1,0,0.1,0,0.2,0c0,0,0.1,0,0.1,0L69.2,29.9z"></path>
	<path d="M71.7,29.5l-0.5,2.1c-0.1,0.4-0.2,0.7-0.5,0.9c-0.2,0.2-0.5,0.3-0.9,0.3c-0.1,0-0.2,0-0.4,0c-0.1,0-0.2,0-0.4-0.1l0.1-0.4
		h0c0.1,0,0.2,0.1,0.3,0.1c0.1,0,0.3,0,0.4,0c0.1,0,0.2,0,0.4,0c0.1,0,0.2-0.1,0.2-0.2c0.1-0.1,0.1-0.1,0.2-0.2
		c0-0.1,0.1-0.2,0.1-0.3l0-0.2c-0.2,0.1-0.3,0.2-0.4,0.2s-0.2,0.1-0.4,0.1c-0.2,0-0.4-0.1-0.6-0.2c-0.1-0.2-0.2-0.4-0.2-0.6
		c0-0.2,0-0.4,0.1-0.6c0.1-0.2,0.2-0.4,0.3-0.5c0.1-0.2,0.3-0.3,0.4-0.4c0.2-0.1,0.4-0.1,0.5-0.1c0.1,0,0.3,0,0.4,0
		c0.1,0,0.2,0.1,0.3,0.1l0-0.1L71.7,29.5L71.7,29.5z M71.1,29.9c-0.1,0-0.2-0.1-0.3-0.1c-0.1,0-0.2,0-0.3,0c-0.2,0-0.3,0-0.4,0.1
		c-0.1,0.1-0.2,0.2-0.3,0.3c-0.1,0.1-0.2,0.2-0.2,0.4c0,0.2-0.1,0.3-0.1,0.4s0,0.3,0.1,0.4c0.1,0.1,0.2,0.1,0.4,0.1
		c0.1,0,0.2,0,0.4-0.1c0.1,0,0.2-0.1,0.4-0.2L71.1,29.9z"></path>
</g>
</svg>