<svg height="33" width="276" viewbox="0 0 276 33" xmlns="http://www.w3.org/2000/svg">
          <g fill="none">
            <path d="M53.3505 15.4557h-6.4593a1.3196 1.3196 0 00-1.4317 1.4054v.6598a1.3196 1.3196 0 001.4317 1.4053h3.5365v3.1604a7.9175 7.9175 0 01-3.5695.8181c-3.5333-.0423-6.3909-2.8894-6.4463-6.4225-.0554-3.533 2.7116-6.4684 6.2418-6.6215a7.6074 7.6074 0 013.8597.8445c.8182.3827 1.4318.3233 1.9794-.409l.7324-.937a1.2404 1.2404 0 00-.3497-1.9793 11.7772 11.7772 0 00-6.202-1.5769c-6.4066 0-11.0251 4.7967-11.0251 10.5566 0 5.76 4.5328 10.5567 11.1438 10.5567a11.7905 11.7905 0 007.106-2.3687 2.019 2.019 0 00.9039-1.7814V16.828a1.3196 1.3196 0 00-1.4516-1.3724zM65.2531 11.22c-4.7636 0-8.3331 3.51-8.3331 7.8383 0 4.3282 3.5695 7.8383 8.3331 7.8383 4.7637 0 8.3332-3.5101 8.3332-7.8383 0-4.3282-3.5629-7.8383-8.3332-7.8383zm0 12.0213a4.1699 4.1699 0 114.0247-4.1039 4.0313 4.0313 0 01-4.0247 4.1237zM87.3363 8.6401V7.5317a1.3196 1.3196 0 00-1.4318-1.4054H71.917a1.2668 1.2668 0 00-1.4053 1.4054V8.64a1.2668 1.2668 0 001.4053 1.4054h4.678v15.1751a1.2668 1.2668 0 001.4053 1.4054h1.755a1.2668 1.2668 0 001.4054-1.4054V10.0455h4.7372A1.3196 1.3196 0 0087.3363 8.64z" fill="#53565a"></path>
            <path d="M92.5948 11.2199c-4.7637 0-8.3331 3.51-8.3331 7.8383 0 4.3282 3.5694 7.8383 8.333 7.8383s8.353-3.4903 8.353-7.812-3.5826-7.8646-8.353-7.8646zm0 12.0213a4.1699 4.1699 0 114.0379-4.15 4.0313 4.0313 0 01-4.038 4.1698zm34.6257-17.1149h-.6994a.805.805 0 00-.8775.6598l-5.12 16.0527L115.727 7.459a.805.805 0 00-.8775-.6598h-.5872a.8247.8247 0 00-.8776.6598l-4.7966 15.3797-5.087-16.0527a.8511.8511 0 00-.8775-.6598h-.6994c-.5542 0-.8181.3497-.6598.904l5.9381 18.9227a.8511.8511 0 00.8775.6598h.7324a.805.805 0 00.8775-.6598l4.856-15.6436 4.876 15.6436a.8511.8511 0 00.8774.6598h.7324a.8445.8445 0 00.8775-.6598l5.9975-18.9228c.132-.5542-.132-.9039-.6862-.9039zm8.2804 5.5554a7.6338 7.6338 0 00-7.8053 7.6932c0 4.1237 3.1604 7.5414 8.188 7.5414a8.3661 8.3661 0 005.529-1.9002.7851.7851 0 00.1781-1.2272l-.2309-.231a.7786.7786 0 00-1.082-.0857 7.073 7.073 0 01-4.3876 1.4647c-3.5959 0-6.1427-2.395-5.9382-5.6412h12.0742c.5278 0 .8511-.2903.7587-.7918-.3826-4.6845-3.7146-6.8222-7.284-6.8222zm-5.351 5.8787c.7094-2.3762 2.9319-3.9753 5.4104-3.8927 2.019 0 4.2952.8775 4.9748 3.8927zm23.3962-5.8787a6.3736 6.3736 0 00-5.7006 3.1868V6.2451a.7258.7258 0 00-.7917-.7918h-.6598a.7126.7126 0 00-.7588.7918v19.5627a.7126.7126 0 00.7588.7918h.6598a.7258.7258 0 00.7917-.7918v-2.052a6.3142 6.3142 0 005.7006 3.1868c4.447 0 7.3105-3.4243 7.3105-7.6007 0-4.1765-2.8701-7.6602-7.3105-7.6602zm-.231 13.2486c-3.2197 0-5.496-2.3423-5.529-5.6148-.033-3.2726 2.3093-5.6412 5.529-5.6412 3.332 0 5.2784 2.5468 5.2784 5.6412s-1.9464 5.6148-5.285 5.6148zm11.784-19.444a1.6495 1.6495 0 101.6098 1.6693 1.5967 1.5967 0 00-1.6099-1.6693zm.3496 6.5187h-.6598a.739.739 0 00-.7917.7918v13.011a.7258.7258 0 00.7917.7918h.6598a.7126.7126 0 00.7588-.7918V12.7902a.7126.7126 0 00-.7588-.7852zm12.3117-.3233c-2.2624-.095-4.3236 1.2925-5.087 3.4243v-2.3092a.7258.7258 0 00-.7918-.7918h-.6597a.7324.7324 0 00-.7588.7918v13.011a.7126.7126 0 00.7588.7918h.6597a.7258.7258 0 00.7918-.7918V19.52c0-4.7109 3.332-5.8457 4.9418-5.8457 1.8408 0 3.6816 1.1084 3.6816 4.6185v7.4886a.7258.7258 0 00.7918.7918h.6598a.7258.7258 0 00.7917-.7918v-7.4622c.0066-4.823-2.6787-6.6375-5.7797-6.6375zm23.0464.3233h-.6598a.7126.7126 0 00-.7588.7918v2.1047a6.3868 6.3868 0 00-5.7335-3.2198c-4.4734 0-7.2577 3.4507-7.2577 7.6338s2.8635 7.6008 7.2577 7.6008a6.334 6.334 0 005.7335-3.1868v2.0783a.6994.6994 0 00.7588.7918h.6598a.7258.7258 0 00.7917-.7918V12.7902a.7258.7258 0 00-.7917-.7852zm-6.9014 12.9253c-3.365 0-5.3245-2.5468-5.3245-5.6148 0-3.068 1.9266-5.6412 5.2783-5.6412 3.3517 0 5.529 2.428 5.529 5.6412a5.3443 5.3443 0 01-5.4828 5.6148zm18.4543-13.1892a6.0898 6.0898 0 00-.6994-.0594c-2.131 0-3.7146 1.4912-4.2688 3.8598v-2.7513a.7258.7258 0 00-.7918-.7918h-.6597a.7324.7324 0 00-.7588.7918v13.011a.7126.7126 0 00.7588.7918h.6597a.7258.7258 0 00.7918-.7918v-4.7637c0-5.5554 2.2499-7.1917 4.1237-7.1917.2647.006.529.0259.7917.0594.3827.1188.5872-.1187.5872-.6598v-.6136c-.0132-.4486-.099-.805-.5344-.8907z" fill="#53565a"></path>
            <path d="M27.6386 18.8602a4.3414 4.3414 0 00-4.7571.1716.871.871 0 01-.937.0462l-4.3083-2.4874a.1056.1056 0 010-.1848l4.2886-2.4742a.871.871 0 01.9435.0528 4.3414 4.3414 0 004.7703.1913c1.9638-1.212 2.653-3.7382 1.5769-5.7797-.98-1.8055-3.0913-2.677-5.0595-2.0885-1.9682.5885-3.2544 2.476-3.0823 4.5231a.871.871 0 01-.4289.8313l-4.3084 2.4874a.1056.1056 0 01-.165-.0923V9.0756a.871.871 0 01.5147-.7852c1.8531-.8525 2.8628-2.8802 2.4265-4.8728C18.6762 1.425 16.9115.005 14.8716.005s-3.8045 1.4201-4.2409 3.4127.5734 4.0203 2.4265 4.8728a.871.871 0 01.5147.7852v4.9814a.1056.1056 0 01-.165.0923L9.0985 11.662a.8643.8643 0 01-.4289-.8313c.1756-2.0323-1.0873-3.9127-3.035-4.519C3.687 5.7053 1.58 6.5368.5711 8.3097c-1.0089 1.773-.6474 4.009.8687 5.3738 1.516 1.3647 3.7778 1.49 5.4352.3009a.871.871 0 01.9435-.0528l4.2886 2.4742a.1056.1056 0 010 .1848L7.7987 19.078a.871.871 0 01-.9369-.0462 4.3414 4.3414 0 00-4.757-.1716C.147 20.0741-.5389 22.5952.5343 24.6334c.9809 1.813 3.1014 2.6863 5.0746 2.0899 1.9731-.5964 3.2549-2.4981 3.0672-4.551a.871.871 0 01.4289-.8379l4.3084-2.4874a.1056.1056 0 01.165.0924v4.9814a.871.871 0 01-.5147.7852c-1.8531.8525-2.8628 2.8801-2.4265 4.8727.4364 1.9927 2.2011 3.4128 4.241 3.4128s3.8045-1.4201 4.2409-3.4128c.4363-1.9926-.5734-4.0202-2.4265-4.8727a.871.871 0 01-.5147-.7852v-4.9814a.1056.1056 0 01.165-.0924l4.3084 2.4874a.871.871 0 01.4289.838c-.1877 2.0528 1.094 3.9545 3.0672 4.5509 1.9732.5964 4.0937-.2769 5.0746-2.09 1.0708-2.0415.379-4.5635-1.5835-5.773z" fill="#00c0f3"></path>
            <path d="M240.0283 19.9465a.2782.2782 0 01.1039.2078v6.0732c0 1.6324-.7476 3.211-3.5134 3.211h-.0333c-1.8253 0-2.8252-.922-3.0515-1.8365a.2929.2929 0 01.0334-.2597.3537.3537 0 01.2096-.115c.091-.0185 1.2614 0 1.3096 0a.3339.3339 0 01.269.1391 1.4914 1.4914 0 001.6083.7995 1.432 1.432 0 001.3318-1.2354c.0186-.0835.0705-.7234.0705-.7234.0186-.167 0-.2783-.0927-.334a.2079.2079 0 00-.1633 0 .2411.2411 0 00-.0908.052 2.6637 2.6637 0 01-1.7753.6864c-1.6008 0-2.9957-1.0722-2.9957-3.5542v-.3339c.063-.8087.6362-3.0514 2.9976-3.0514a2.2929 2.2929 0 011.7548.6993.204.204 0 00.1762.0798c.1169-.013.1725-.1428.2004-.3024v-.0909a.3339.3339 0 01.0723-.1261.3874.3874 0 01.1966-.0594h1.1872a.297.297 0 01.1948.0742zm-3.3297 5.2403h-.0037c.9683 0 1.6417-.7957 1.6583-2.1907 0-1.2706-.9386-1.8958-1.6657-1.8958-.8088 0-1.5508.6363-1.5508 1.881 0 1.5025.6585 2.2074 1.562 2.2074zm-7.5961-5.4962a3.4725 3.4725 0 013.6098 3.6005v.0204c0 2.5413-1.7623 3.6988-3.6098 3.6988-1.8494 0-2.8288-1.0128-3.2944-2.033a4.0438 4.0438 0 01-.3154-1.6992c0-1.1464.6418-3.5875 3.5616-3.5875zm-.065 5.9025c.7235 0 1.7808-.3951 1.7808-2.2223 0-1.4469-.7067-2.2482-1.6398-2.2482-.933 0-1.8048.6121-1.8048 2.239 0 1.625.9126 2.2315 1.6639 2.2315zm45.0945-9.2137a.8858.8858 0 110-1.7715.8858.8858 0 010 1.7715zm0-1.6324a.7457.7457 0 100 1.4914.7457.7457 0 000-1.4914zm-48.797 10.4194a.303.303 0 01.076.2078v1.0796a.3895.3895 0 010 .1484.3638.3638 0 01-.3338.2041l-5.3702-.0186c-.0853-.0111-.1613-.0557-.2096-.1299a.3824.3824 0 01-.0538-.2077v-8.9113a.4192.4192 0 01.0464-.1892.3339.3339 0 01.217-.1336h1.5452c.0817-.0037.1577.0353.206.1002a.4128.4128 0 01.0704.2486v6.9765a1.4558 1.4558 0 000 .18c0 .0537.013.1057.0334.1558a.3895.3895 0 00.3766.1762h2.9531c.0927.0037.1855.0148.2782.0334a.2936.2936 0 01.167.0797zm29.8484-5.4907c2.5525-.0742 3.53 2.1444 3.506 3.53 0 .1113-.0056.2226-.0186.334-.0056.0667-.0408.1298-.0928.1743a.4489.4489 0 01-.1966.0742 2.1687 2.1687 0 01-.269 0h-4.0605a.4437.4437 0 00-.1484.0334.3339.3339 0 00-.204.3339v.0983c.0463.46.4266 1.3337 1.7306 1.3337a1.663 1.663 0 001.332-.627c.0315-.037.0667-.0871.0964-.1205a.4273.4273 0 01.293-.1596h1.1372a.1597.1597 0 01.139.1429.1908.1908 0 010 .0649.3354.3354 0 01-.0185.1595c-.0853.2263-.7216 1.9589-3.081 1.9589-3.2444 0-3.5783-2.8159-3.5783-3.6655 0-1.4357.9571-3.5912 3.4335-3.6635zm1.4729 2.8066a.3524.3524 0 00.026-.3358 1.4784 1.4784 0 00-1.3783-1.0758 1.5452 1.5452 0 00-1.5693 1.1556.5155.5155 0 000 .1688.2411.2411 0 00.0872.1336c.0909.052.1929.0742.2968.0705h2.2612a.3339.3339 0 00.2764-.117zm18.496-.3599a7.995 7.995 0 11-15.988.0019c0-4.4155 3.5794-7.995 7.9948-7.995s7.995 3.5795 7.995 7.995zm-10.746 4.643a.6196.6196 0 00.052-.3116v-8.7815a.4452.4452 0 00-.0742-.243.2468.2468 0 00-.2022-.1002h-1.5044a.334.334 0 00-.2467.1392c-.0556.115-.0742.2411-.063.3673v8.5106c0 .0946.0055.1892.0166.2838 0 .0742.0297.1484.0798.204a.3895.3895 0 00.206.078h1.4616a.3535.3535 0 00.2746-.1466zm7.8948-.1818c.0037-.1576.0075-4.1273.0075-4.285a3.2602 3.2602 0 00-.3636-1.5489 1.9292 1.9292 0 00-.8496-.755 3.2019 3.2019 0 00-2.686.13 3.0989 3.0989 0 00-.4934.4154.1707.1707 0 01-.1336.0668c-.1762-.0037-.2337-.4155-.2337-.4656-.0334-.2077-.2987-.2077-.5157-.2077h-.766c-.2134 0-.3303.0333-.3822.1075-.0482.0557-.0742.1299-.078.204v6.1864a.549.549 0 00.091.3525.2987.2987 0 00.217.0927c.0965.0241 1.1946.0334 1.3319 0a.2892.2892 0 00.2151-.1762.4452.4452 0 00.0409-.1985v-2.7565a9.9921 9.9921 0 01.0834-1.3318 1.3319 1.3319 0 011.3616-1.176 1.1686 1.1686 0 011.2391 1.1685c.0408.2839.0408.59.0408.9238v3.2314a.401.401 0 00.063.2059.2735.2735 0 00.193.1168c.4733.0266.9476.0266 1.421 0a.2832.2832 0 00.1965-.3023zm-21.3804.2226l-1.28-.013a.3524.3524 0 01-.3116-.1335.2708.2708 0 01-.052-.1762v-5.5353a2.383 2.383 0 000-.282c-.011-.0741-.05-.089-.0778-.0964-.026-.0056-.089.0464-.1058.0464a.896.896 0 00-.1168.1966c-.334.8125-1.6194 4.7859-1.9978 5.7597a.2928.2928 0 01-.2542.2208h-1.2317c-.154 0-.2634-.1299-.3339-.2968-.026-.0557-1.9291-5.4333-1.9291-5.45a1.3319 1.3319 0 00-.1484-.3097l-.052-.0464a.1854.1854 0 00-.0667-.026c-.0798-.0111-.1113.0928-.1113.1633v5.6595a.2791.2791 0 01-.052.178.2671.2671 0 01-.204.1188.5083.5083 0 01-.23.0204h-1.1854a.3339.3339 0 01-.204-.0742.3045.3045 0 01-.0928-.2096 2.7267 2.7267 0 010-.2894v-8.5218a2.0103 2.0103 0 010-.2114.5093.5093 0 01.0408-.1558.3339.3339 0 01.217-.1336.0828.0828 0 01.052 0h2.2594a.5565.5565 0 01.3339.0927.373.373 0 01.1298.1967c.0278.0872 1.8494 5.4313 1.9032 5.5742.089.2782.2096.4656.2634.4656s.1039-.0464.1466-.1354c.0185-.0242 1.8253-5.591 1.8716-5.732l.0798-.2188a.351.351 0 01.1465-.1762.3339.3339 0 01.2097-.0668h2.3317a.2968.2968 0 01.1929.0538.3114.3114 0 01.1484.3024v8.9595c0 .0779-.0297.154-.0854.2077a.3394.3394 0 01-.204.0742zM233.1 8.891c.1632 0 .2745.1632.217.3153l-2.521 6.6854-.4896 1.2057s-.2876.6975-1.1872 1.0035a3.3204 3.3204 0 01-.8793.1484c-.2003 0-.7587-.026-.7587-.026-.3672 0-.5398-.256-.5305-.5527l-.0074-.627a.3803.3803 0 01.3914-.3691s.295.0148.3933.0148c.0649 0 .2634-.013.2634-.013.525-.037.8903-.538.7624-1.048a7.828 7.828 0 00-.2894-.9646 950.1641 950.1641 0 01-2.0702-5.463c-.0575-.1483.052-.3097.2133-.3097h1.3468a.492.492 0 01.4637.3265l1.4469 4.0345 1.497-4.0624a.4563.4563 0 01.4284-.2968zm-10.1597 5.7096c1.0016 0 1.6156-.9442 1.6156-2.2093 0-1.267-.5935-2.2315-1.636-2.2315-1.0852 0-1.6176.9646-1.6176 2.2315 0 1.2651.5936 2.2093 1.638 2.2093zm2.9865-4.4408c.338.6744.52 1.4161.5323 2.1703 0 .8589-.2244 2.046-.8996 2.7825-.6752.7383-1.4951.9219-2.1889.9219-.6975 0-1.5563-.408-1.9032-.7568-.0556-.0557-.1521-.026-.167.052l-.0278.1836a.375.375 0 01-.371.3153h-1.0239a.4148.4148 0 01-.4155-.4155V6.6816a.4304.4304 0 01.4303-.4303h1.0425a.408.408 0 01.4081.408v2.6508c0 .1002.1076.167.1985.1224l.1076-.0556c.358-.2708 1.0388-.6696 1.905-.6696 1.3097 0 2.1277.983 2.3744 1.4524zm47.9177 4.8656h.269c.0612 0 .1131.0056.1576.0185.0427.0112.0798.0279.1076.0501a.204.204 0 01.065.0798.2597.2597 0 01.0185.1057.2374.2374 0 01-.063.167.2213.2213 0 01-.0724.0556c-.0279.0167-.0612.0278-.0983.0371a.1372.1372 0 01.0426.0371l.2783.3655h-.115a.0601.0601 0 01-.052-.026l-.2467-.3283a.088.088 0 00-.0241-.0223.0928.0928 0 00-.0408-.0056h-.0983v.3822h-.128zm.1298.0983v.345h.1354a.3236.3236 0 00.0984-.013.204.204 0 00.0723-.037.172.172 0 00.0427-.0557.2036.2036 0 00.0148-.0742c0-.0556-.0185-.0965-.0556-.1243a.2782.2782 0 00-.167-.0408z" fill="#a7a8aa"></path>
          </g>
        </svg>