<svg xmlns="http://www.w3.org/2000/svg" data-name="Layer 1" viewbox="0 0 100 100">
											<circle cx="50.04" cy="25.35" r="24.6"></circle>
											<path d="M87.28 70a18.64 18.64 0 0 0-21-18.6L50.1 67.5l-.1-.12v-.09L33.73 51.14a18.62 18.62 0 0 0-21.16 18.25h-.06v29.86h74.74V70.56c.01-.2.03-.39.03-.56z"></path>
										</svg>