<?xml version="1.0" encoding="utf-8"?>
<!-- Generator: Adobe Illustrator 16.0.0, SVG Export Plug-In . SVG Version: 6.00 Build 0)  -->
<!DOCTYPE svg PUBLIC "-//W3C//DTD SVG 1.1//EN" "http://www.w3.org/Graphics/SVG/1.1/DTD/svg11.dtd">
<svg version="1.1" id="Layer_1" xmlns="http://www.w3.org/2000/svg" xmlns:xlink="http://www.w3.org/1999/xlink" x="0px" y="0px"
	 width="367.384px" height="87.326px" viewBox="0 0 367.384 87.326" enable-background="new 0 0 367.384 87.326"
	 xml:space="preserve">
<g>
	<path fill="#FF4338" d="M28.243,37.135l-8.166-0.007c-1.014-0.001-1.665-0.35-1.824-0.874c-0.079-0.243-0.045-0.522,0.109-0.825
		c0.012-0.023,0.023-0.05,0.036-0.072c0.001-0.004,0.003-0.004,0.003-0.004c0.034-0.064,0.07-0.124,0.112-0.182l0.01-0.006
		c-0.001-0.004-0.001-0.004,0.001-0.008L44.352,3.413C40.831,2.048,37.004,1.297,33,1.297c-17.347,0-31.408,14.063-31.408,31.41
		c0,11.584,6.271,21.703,15.604,27.148L29.904,39.16C30.599,38.049,29.849,37.138,28.243,37.135"/>
	<path fill="#FF4338" d="M48.803,5.558L36.095,26.253c-0.695,1.112,0.051,2.022,1.661,2.025l8.168,0.006
		c1.014,0.003,1.664,0.352,1.822,0.878c0.08,0.241,0.043,0.521-0.11,0.82c-0.013,0.027-0.021,0.049-0.035,0.075
		c0,0.002-0.005,0.004-0.005,0.004c-0.029,0.062-0.067,0.122-0.111,0.182l-0.007,0.005c0,0.002-0.003,0.005-0.007,0.005L21.646,62
		c3.521,1.365,7.35,2.116,11.354,2.116c17.347,0,31.409-14.063,31.409-31.41C64.41,21.121,58.136,11.003,48.803,5.558"/>
	<polygon fill="#FFFFFF" points="80.934,11.204 105.671,11.204 105.671,17.356 87.542,17.356 87.542,28.963 104.794,28.963 
		104.794,35.115 87.542,35.115 87.542,48.174 105.789,48.174 105.789,54.209 80.934,54.209 	"/>
	<polygon fill="#FFFFFF" points="121.055,42.718 114.856,54.209 108.189,54.209 117.897,37.147 109.008,21.767 116.084,21.767 
		121.875,31.806 127.255,21.767 133.921,21.767 125.091,37.436 134.742,54.209 127.722,54.209 	"/>
	<path fill="#FFFFFF" d="M137.141,21.767l5.205-0.058l0.468,3.018c1.521-2.148,4.387-3.54,10.059-3.54
		c9.709,0,10.879,7.892,10.879,16.714c0,8.996-1.404,16.714-11.112,16.714c-5.205,0-7.427-1.103-8.948-3.018v11.781h-6.55V21.767z
		 M157.142,38.191c0-6.558-0.76-10.911-6.375-10.911c-6.433,0-7.076,4.411-7.076,10.911c0,6.5,0.585,10.737,7.076,10.737
		C156.265,48.928,157.142,44.807,157.142,38.191"/>
	<path fill="#FFFFFF" d="M180.852,54.615c-10.995,0-13.1-6.384-13.1-16.714c0-10.157,2.631-16.715,13.274-16.715
		c11.639,0,11.697,7.255,11.58,19.849h-18.539c0.292,5.339,1.638,8.009,7.135,8.009c4.27,0,6.433-0.987,8.363-1.916l2.515,4.992
		C189.39,53.571,186.056,54.615,180.852,54.615 M174.068,35.347h12.516c-0.06-5.281-0.234-8.415-5.731-8.415
		C175.589,26.932,174.302,29.95,174.068,35.347"/>
	<path fill="#FFFFFF" d="M197.483,21.715l5.146-0.006l0.585,3.423c1.345-2.089,3.743-3.656,9.122-3.656v6.152
		c-7.836,0.116-8.304,4.933-8.304,10.447v16.134h-6.55V21.715z"/>
	<path fill="#FFFFFF" d="M228.152,54.383c-7.778,0-9.649-2.728-9.649-9.228V27.454h-3.765v-5.687h3.998l0.994-8.183l5.264-1.102
		v9.285h7.603v5.687h-7.603v17.005c0,2.669,0.41,4.063,3.919,4.063h3.684v5.688C231.543,54.268,229.029,54.383,228.152,54.383"/>
	<polygon fill="#FFFFFF" points="234.698,8.902 241.913,8.902 252.429,44.12 262.762,8.902 269.916,8.902 256.037,54.515 
		248.516,54.515 	"/>
	<path fill="#FFFFFF" d="M268.627,37.028c0-10.273,2.385-17.61,14.124-17.61c11.801,0,14.124,7.459,14.124,17.61
		c0,10.515-2.323,17.67-14.124,17.67C271.134,54.698,268.627,47.422,268.627,37.028 M289.966,37.272
		c0-6.726-0.673-11.434-7.215-11.434c-6.48,0-7.215,4.708-7.215,11.434c0,6.664,0.734,11.434,7.215,11.434
		C289.293,48.706,289.966,43.937,289.966,37.272"/>
	<path fill="#FFFFFF" d="M302.313,8.842h6.909v7.397h-6.909V8.842z M302.313,20.03h6.848v34.179h-6.848V20.03z"/>
	<path fill="#FFFFFF" d="M314.661,37.028c0-10.822,2.446-17.609,14.002-17.609c3.791,0,6.48,0.672,8.743,1.773l-2.996,5.931
		c-1.59-0.857-3.302-1.284-5.441-1.284c-5.809,0-7.337,3.668-7.337,11.372c0,7.704,1.406,11.495,7.459,11.495
		c2.507,0,4.402-0.733,6.114-1.528l2.629,5.258c-3.179,1.528-5.686,2.263-9.599,2.263C317.167,54.698,314.661,47.911,314.661,37.028
		"/>
	<path fill="#FFFFFF" d="M353.484,54.637c-11.495,0-13.697-6.726-13.697-17.609c0-10.7,2.753-17.609,13.881-17.609
		c12.167,0,12.229,7.643,12.105,20.91h-19.382c0.306,5.625,1.712,8.438,7.46,8.438c4.463,0,6.726-1.04,8.743-2.019l2.629,5.259
		C362.411,53.536,358.925,54.637,353.484,54.637 M346.391,34.338h13.085c-0.062-5.564-0.245-8.866-5.992-8.866
		C347.981,25.472,346.636,28.651,346.391,34.338"/>
	<polygon fill="#FFFFFF" points="190.561,67.864 198.499,67.864 198.499,69.335 192.304,69.335 192.304,73.997 197.554,73.997 
		197.554,75.467 192.304,75.467 192.304,81.641 190.561,81.641 	"/>
	<path fill="#FFFFFF" d="M199.717,76.559c0-0.854,0.13-1.613,0.389-2.278s0.605-1.229,1.039-1.69
		c0.435-0.462,0.935-0.812,1.502-1.05s1.165-0.357,1.795-0.357c0.631,0,1.229,0.119,1.796,0.357c0.567,0.238,1.067,0.588,1.502,1.05
		c0.434,0.462,0.78,1.025,1.039,1.69s0.389,1.425,0.389,2.278c0,0.84-0.13,1.593-0.389,2.258s-0.605,1.225-1.039,1.681
		c-0.435,0.454-0.935,0.801-1.502,1.038c-0.566,0.238-1.165,0.357-1.796,0.357c-0.63,0-1.228-0.119-1.795-0.357
		c-0.567-0.237-1.067-0.584-1.502-1.038c-0.434-0.456-0.78-1.016-1.039-1.681S199.717,77.398,199.717,76.559 M201.502,76.559
		c0,0.588,0.07,1.12,0.21,1.596c0.14,0.477,0.339,0.886,0.599,1.229c0.259,0.344,0.57,0.609,0.935,0.798
		c0.362,0.19,0.763,0.284,1.196,0.284c0.435,0,0.832-0.094,1.197-0.284c0.364-0.188,0.675-0.454,0.935-0.798
		c0.259-0.343,0.459-0.752,0.599-1.229c0.14-0.476,0.21-1.008,0.21-1.596s-0.07-1.123-0.21-1.605c-0.14-0.484-0.34-0.9-0.599-1.25
		c-0.26-0.351-0.57-0.62-0.935-0.809c-0.365-0.189-0.763-0.284-1.197-0.284c-0.434,0-0.834,0.095-1.196,0.284
		c-0.364,0.188-0.676,0.458-0.935,0.809c-0.26,0.35-0.459,0.766-0.599,1.25C201.573,75.436,201.502,75.971,201.502,76.559"/>
	<path fill="#FFFFFF" d="M211.855,71.435h1.429l0.146,1.848h0.063c0.35-0.644,0.773-1.154,1.271-1.532
		c0.496-0.377,1.039-0.567,1.627-0.567c0.406,0,0.77,0.07,1.092,0.21l-0.336,1.512c-0.168-0.056-0.322-0.098-0.462-0.126
		c-0.14-0.027-0.314-0.042-0.524-0.042c-0.435,0-0.886,0.176-1.354,0.525c-0.47,0.35-0.879,0.959-1.229,1.827v6.552h-1.723V71.435z"
		/>
	<path fill="#FFFFFF" d="M219.141,71.435h1.429l0.146,1.47h0.063c0.447-0.49,0.935-0.899,1.459-1.229
		c0.525-0.328,1.096-0.493,1.712-0.493c0.783,0,1.396,0.172,1.836,0.515c0.442,0.342,0.768,0.822,0.978,1.438
		c0.532-0.588,1.066-1.061,1.605-1.418c0.54-0.356,1.125-0.535,1.755-0.535c1.05,0,1.829,0.336,2.342,1.008
		c0.511,0.672,0.767,1.666,0.767,2.982v6.468h-1.723v-6.237c0-0.966-0.154-1.662-0.462-2.089s-0.784-0.641-1.429-0.641
		c-0.77,0-1.624,0.524-2.562,1.575v7.392h-1.722v-6.237c0-0.966-0.154-1.662-0.462-2.089c-0.309-0.427-0.791-0.641-1.449-0.641
		c-0.77,0-1.624,0.524-2.562,1.575v7.392h-1.723V71.435z"/>
	<path fill="#FFFFFF" d="M235.794,76.559c0-0.84,0.13-1.593,0.389-2.258c0.259-0.664,0.602-1.229,1.029-1.69
		c0.427-0.462,0.913-0.815,1.459-1.061c0.546-0.244,1.113-0.367,1.7-0.367c0.645,0,1.223,0.112,1.733,0.336
		c0.511,0.225,0.938,0.546,1.281,0.966c0.343,0.42,0.605,0.924,0.787,1.513c0.182,0.588,0.273,1.246,0.273,1.974
		c0,0.378-0.021,0.693-0.063,0.945h-6.888c0.07,1.105,0.409,1.98,1.019,2.625c0.609,0.644,1.403,0.966,2.384,0.966
		c0.489,0,0.941-0.073,1.354-0.221c0.412-0.147,0.809-0.339,1.187-0.577l0.608,1.134c-0.448,0.28-0.944,0.524-1.491,0.734
		c-0.546,0.211-1.169,0.315-1.868,0.315c-0.687,0-1.327-0.123-1.922-0.367c-0.596-0.245-1.113-0.595-1.554-1.05
		c-0.441-0.455-0.788-1.012-1.04-1.67S235.794,77.398,235.794,76.559 M242.935,75.781c0-1.05-0.221-1.851-0.662-2.404
		c-0.44-0.553-1.061-0.829-1.858-0.829c-0.364,0-0.711,0.073-1.039,0.221c-0.329,0.146-0.627,0.356-0.893,0.63
		c-0.267,0.272-0.487,0.608-0.662,1.008c-0.175,0.398-0.29,0.857-0.346,1.375H242.935z"/>
	<path fill="#FFFFFF" d="M246.966,71.435h1.429l0.146,1.848h0.063c0.35-0.644,0.773-1.154,1.271-1.532
		c0.496-0.377,1.039-0.567,1.627-0.567c0.406,0,0.77,0.07,1.092,0.21l-0.336,1.512c-0.168-0.056-0.322-0.098-0.462-0.126
		c-0.14-0.027-0.314-0.042-0.524-0.042c-0.435,0-0.886,0.176-1.354,0.525c-0.47,0.35-0.879,0.959-1.229,1.827v6.552h-1.723V71.435z"
		/>
	<path fill="#FFFFFF" d="M254.252,66.688h1.723V79.71c0,0.279,0.048,0.475,0.146,0.587c0.098,0.112,0.21,0.168,0.336,0.168h0.158
		c0.049,0,0.122-0.014,0.22-0.042l0.231,1.302c-0.112,0.056-0.245,0.098-0.399,0.126s-0.351,0.042-0.588,0.042
		c-0.658,0-1.127-0.196-1.407-0.588s-0.42-0.966-0.42-1.721V66.688z"/>
	<path fill="#FFFFFF" d="M259.293,84.549c0.14,0.035,0.272,0.053,0.398,0.053c0.588,0,1.067-0.207,1.438-0.619
		s0.662-0.935,0.872-1.564l0.23-0.756l-4.095-10.228h1.785l2.079,5.649c0.153,0.448,0.318,0.92,0.493,1.417s0.34,0.983,0.493,1.46
		h0.084c0.154-0.462,0.302-0.945,0.441-1.449s0.28-0.979,0.42-1.428l1.827-5.649h1.68l-3.843,11.046
		c-0.182,0.504-0.385,0.973-0.609,1.407c-0.224,0.434-0.49,0.809-0.798,1.123c-0.308,0.315-0.658,0.563-1.05,0.746
		c-0.392,0.182-0.847,0.272-1.365,0.272c-0.238,0-0.455-0.018-0.65-0.052c-0.196-0.035-0.378-0.088-0.546-0.157l0.336-1.365
		C259.027,84.482,259.153,84.514,259.293,84.549"/>
	<polygon fill="#FFFFFF" points="273.825,67.864 281.762,67.864 281.762,69.335 275.568,69.335 275.568,73.66 280.797,73.66 
		280.797,75.151 275.568,75.151 275.568,80.149 281.973,80.149 281.973,81.641 273.825,81.641 	"/>
	<path fill="#FFFFFF" d="M286.634,76.307l-3.087-4.872h1.869l1.365,2.247c0.153,0.28,0.314,0.563,0.482,0.851
		c0.168,0.287,0.343,0.57,0.525,0.851h0.084c0.154-0.28,0.308-0.563,0.462-0.851c0.154-0.288,0.308-0.57,0.462-0.851l1.239-2.247
		h1.806l-3.087,5.062l3.318,5.145h-1.869l-1.491-2.373c-0.182-0.308-0.364-0.616-0.546-0.924c-0.182-0.309-0.371-0.609-0.567-0.903
		h-0.084c-0.182,0.294-0.356,0.592-0.524,0.893c-0.168,0.302-0.336,0.612-0.503,0.935l-1.388,2.373h-1.806L286.634,76.307z"/>
	<path fill="#FFFFFF" d="M295.812,82.502v3.443h-1.723v-14.51h1.429l0.146,1.175h0.063c0.462-0.392,0.969-0.728,1.522-1.009
		c0.553-0.279,1.13-0.419,1.732-0.419c0.657,0,1.238,0.123,1.743,0.367c0.504,0.245,0.924,0.596,1.26,1.051s0.591,1.001,0.767,1.638
		c0.175,0.637,0.263,1.354,0.263,2.152c0,0.868-0.119,1.642-0.357,2.32c-0.238,0.68-0.561,1.257-0.966,1.732
		c-0.406,0.477-0.875,0.837-1.407,1.082c-0.532,0.244-1.092,0.367-1.68,0.367c-0.477,0-0.949-0.104-1.418-0.315
		c-0.469-0.21-0.941-0.496-1.417-0.86L295.812,82.502z M295.812,79.373c0.462,0.392,0.909,0.668,1.344,0.829
		c0.434,0.161,0.819,0.241,1.155,0.241c0.42,0,0.809-0.094,1.165-0.283s0.665-0.455,0.924-0.798s0.462-0.767,0.609-1.271
		c0.146-0.504,0.221-1.071,0.221-1.701c0-0.56-0.05-1.071-0.147-1.533s-0.256-0.857-0.473-1.187
		c-0.217-0.328-0.497-0.584-0.84-0.767c-0.343-0.182-0.753-0.272-1.229-0.272c-0.433,0-0.87,0.119-1.312,0.356
		c-0.44,0.238-0.913,0.581-1.417,1.029V79.373z"/>
	<path fill="#FFFFFF" d="M304.988,76.559c0-0.84,0.13-1.593,0.389-2.258c0.259-0.664,0.602-1.229,1.029-1.69
		c0.427-0.462,0.913-0.815,1.459-1.061c0.546-0.244,1.113-0.367,1.7-0.367c0.645,0,1.223,0.112,1.733,0.336
		c0.511,0.225,0.938,0.546,1.281,0.966c0.343,0.42,0.605,0.924,0.787,1.513c0.182,0.588,0.273,1.246,0.273,1.974
		c0,0.378-0.021,0.693-0.063,0.945h-6.888c0.07,1.105,0.409,1.98,1.019,2.625c0.608,0.644,1.403,0.966,2.384,0.966
		c0.489,0,0.941-0.073,1.354-0.221c0.411-0.147,0.809-0.339,1.187-0.577l0.608,1.134c-0.448,0.28-0.944,0.524-1.491,0.734
		c-0.546,0.211-1.169,0.315-1.868,0.315c-0.687,0-1.327-0.123-1.922-0.367c-0.596-0.245-1.113-0.595-1.554-1.05
		c-0.441-0.455-0.788-1.012-1.04-1.67S304.988,77.398,304.988,76.559 M312.128,75.781c0-1.05-0.221-1.851-0.662-2.404
		c-0.441-0.553-1.061-0.829-1.859-0.829c-0.363,0-0.71,0.073-1.038,0.221c-0.329,0.146-0.628,0.356-0.893,0.63
		c-0.267,0.272-0.487,0.608-0.662,1.008c-0.175,0.398-0.29,0.857-0.346,1.375H312.128z"/>
	<path fill="#FFFFFF" d="M316.16,71.435h1.429l0.146,1.848h0.063c0.35-0.644,0.773-1.154,1.271-1.532
		c0.496-0.377,1.039-0.567,1.627-0.567c0.406,0,0.77,0.07,1.092,0.21l-0.336,1.512c-0.168-0.056-0.322-0.098-0.462-0.126
		c-0.14-0.027-0.314-0.042-0.524-0.042c-0.435,0-0.886,0.176-1.354,0.525c-0.47,0.35-0.879,0.959-1.229,1.827v6.552h-1.723V71.435z"
		/>
	<path fill="#FFFFFF" d="M323.741,72.842h-1.512V71.54l1.596-0.105l0.21-2.855h1.449v2.855h2.751v1.407h-2.751v5.67
		c0,0.63,0.115,1.116,0.347,1.459c0.231,0.344,0.64,0.516,1.229,0.516c0.182,0,0.378-0.028,0.588-0.085
		c0.21-0.056,0.399-0.118,0.567-0.188l0.336,1.302c-0.28,0.099-0.585,0.186-0.914,0.263c-0.329,0.076-0.654,0.115-0.977,0.115
		c-0.546,0-1.004-0.084-1.375-0.252s-0.672-0.399-0.903-0.693c-0.23-0.293-0.396-0.65-0.494-1.07
		c-0.098-0.42-0.146-0.883-0.146-1.387V72.842z"/>
	<path fill="#FFFFFF" d="M331.426,69.335c-0.336,0-0.619-0.105-0.85-0.315c-0.231-0.21-0.347-0.476-0.347-0.798
		c0-0.336,0.115-0.605,0.347-0.809c0.23-0.203,0.514-0.305,0.85-0.305c0.337,0,0.62,0.102,0.851,0.305
		c0.231,0.203,0.347,0.473,0.347,0.809c0,0.322-0.115,0.588-0.347,0.798C332.046,69.229,331.763,69.335,331.426,69.335
		 M330.544,71.435h1.723V81.64h-1.723V71.435z"/>
	<path fill="#FFFFFF" d="M334.955,76.559c0-0.854,0.133-1.613,0.399-2.278c0.266-0.665,0.621-1.229,1.07-1.69
		c0.448-0.462,0.97-0.812,1.565-1.05c0.595-0.238,1.221-0.357,1.879-0.357c0.672,0,1.25,0.123,1.731,0.367
		c0.484,0.245,0.9,0.53,1.25,0.851l-0.86,1.113c-0.308-0.266-0.627-0.483-0.955-0.651c-0.329-0.168-0.697-0.252-1.103-0.252
		c-0.462,0-0.89,0.095-1.281,0.284c-0.393,0.188-0.729,0.458-1.008,0.809c-0.28,0.35-0.5,0.766-0.662,1.25
		c-0.161,0.482-0.241,1.018-0.241,1.605s0.077,1.12,0.231,1.596c0.153,0.477,0.367,0.886,0.64,1.229
		c0.273,0.344,0.605,0.609,0.998,0.798c0.392,0.19,0.819,0.284,1.281,0.284c0.489,0,0.935-0.102,1.333-0.305
		c0.399-0.203,0.752-0.444,1.061-0.725l0.777,1.134c-0.462,0.406-0.977,0.729-1.545,0.966c-0.565,0.238-1.157,0.357-1.773,0.357
		c-0.672,0-1.302-0.119-1.89-0.357c-0.588-0.237-1.096-0.584-1.522-1.038c-0.428-0.456-0.764-1.016-1.008-1.681
		C335.078,78.151,334.955,77.398,334.955,76.559"/>
	<path fill="#FFFFFF" d="M346.167,69.335c-0.336,0-0.619-0.105-0.85-0.315c-0.231-0.21-0.347-0.476-0.347-0.798
		c0-0.336,0.115-0.605,0.347-0.809c0.23-0.203,0.514-0.305,0.85-0.305c0.337,0,0.62,0.102,0.851,0.305
		c0.231,0.203,0.347,0.473,0.347,0.809c0,0.322-0.115,0.588-0.347,0.798C346.788,69.229,346.504,69.335,346.167,69.335
		 M345.286,71.435h1.724V81.64h-1.724V71.435z"/>
	<path fill="#FFFFFF" d="M350.746,72.842h-1.512V71.54l1.596-0.105l0.21-2.855h1.449v2.855h2.751v1.407h-2.751v5.67
		c0,0.63,0.115,1.116,0.347,1.459c0.231,0.344,0.64,0.516,1.229,0.516c0.182,0,0.378-0.028,0.588-0.085
		c0.21-0.056,0.399-0.118,0.567-0.188l0.336,1.302c-0.28,0.099-0.585,0.186-0.914,0.263c-0.329,0.076-0.654,0.115-0.977,0.115
		c-0.546,0-1.004-0.084-1.375-0.252s-0.672-0.399-0.903-0.693c-0.23-0.293-0.396-0.65-0.493-1.07
		c-0.099-0.42-0.147-0.883-0.147-1.387V72.842z"/>
	<path fill="#FFFFFF" d="M357.235,84.549c0.14,0.035,0.272,0.053,0.398,0.053c0.588,0,1.067-0.207,1.438-0.619
		s0.662-0.935,0.872-1.564l0.23-0.756l-4.095-10.228h1.785l2.079,5.649c0.153,0.448,0.318,0.92,0.493,1.417s0.34,0.983,0.493,1.46
		h0.084c0.154-0.462,0.302-0.945,0.441-1.449s0.28-0.979,0.42-1.428l1.827-5.649h1.68L361.54,82.48
		c-0.182,0.504-0.385,0.973-0.609,1.407c-0.224,0.434-0.49,0.809-0.798,1.123c-0.308,0.315-0.658,0.563-1.05,0.746
		c-0.392,0.182-0.847,0.272-1.365,0.272c-0.238,0-0.455-0.018-0.65-0.052c-0.196-0.035-0.378-0.088-0.546-0.157l0.336-1.365
		C356.968,84.482,357.094,84.514,357.235,84.549"/>
</g>
</svg>
