<svg aria-hidden="true" style="position: absolute; width: 0; height: 0; overflow: hidden;" version="1.1" xmlns="http://www.w3.org/2000/svg" xmlns:xlink="http://www.w3.org/1999/xlink">
<defs>
<symbol id="icon-twitter" viewbox="0 0 26 28">
<title>twitter</title>
<path d="M25.312 6.375c-0.688 1-1.547 1.891-2.531 2.609 0.016 0.219 0.016 0.438 0.016 0.656 0 6.672-5.078 14.359-14.359 14.359-2.859 0-5.516-0.828-7.75-2.266 0.406 0.047 0.797 0.063 1.219 0.063 2.359 0 4.531-0.797 6.266-2.156-2.219-0.047-4.078-1.5-4.719-3.5 0.313 0.047 0.625 0.078 0.953 0.078 0.453 0 0.906-0.063 1.328-0.172-2.312-0.469-4.047-2.5-4.047-4.953v-0.063c0.672 0.375 1.453 0.609 2.281 0.641-1.359-0.906-2.25-2.453-2.25-4.203 0-0.938 0.25-1.797 0.688-2.547 2.484 3.062 6.219 5.063 10.406 5.281-0.078-0.375-0.125-0.766-0.125-1.156 0-2.781 2.25-5.047 5.047-5.047 1.453 0 2.766 0.609 3.687 1.594 1.141-0.219 2.234-0.641 3.203-1.219-0.375 1.172-1.172 2.156-2.219 2.781 1.016-0.109 2-0.391 2.906-0.781z"></path>
</symbol>
<symbol id="icon-facebook" viewbox="0 0 16 28">
<title>facebook</title>
<path d="M14.984 0.187v4.125h-2.453c-1.922 0-2.281 0.922-2.281 2.25v2.953h4.578l-0.609 4.625h-3.969v11.859h-4.781v-11.859h-3.984v-4.625h3.984v-3.406c0-3.953 2.422-6.109 5.953-6.109 1.687 0 3.141 0.125 3.563 0.187z"></path>
</symbol>
<symbol id="icon-linkedin" viewbox="0 0 24 28">
<title>linkedin</title>
<path d="M5.453 9.766v15.484h-5.156v-15.484h5.156zM5.781 4.984c0.016 1.484-1.109 2.672-2.906 2.672v0h-0.031c-1.734 0-2.844-1.188-2.844-2.672 0-1.516 1.156-2.672 2.906-2.672 1.766 0 2.859 1.156 2.875 2.672zM24 16.375v8.875h-5.141v-8.281c0-2.078-0.75-3.5-2.609-3.5-1.422 0-2.266 0.953-2.641 1.875-0.125 0.344-0.172 0.797-0.172 1.266v8.641h-5.141c0.063-14.031 0-15.484 0-15.484h5.141v2.25h-0.031c0.672-1.062 1.891-2.609 4.672-2.609 3.391 0 5.922 2.219 5.922 6.969z"></path>
</symbol>
<symbol id="icon-youtube-play" viewbox="0 0 28 28">
<title>youtube-play</title>
<path d="M11.109 17.625l7.562-3.906-7.562-3.953v7.859zM14 4.156c5.891 0 9.797 0.281 9.797 0.281 0.547 0.063 1.75 0.063 2.812 1.188 0 0 0.859 0.844 1.109 2.781 0.297 2.266 0.281 4.531 0.281 4.531v2.125s0.016 2.266-0.281 4.531c-0.25 1.922-1.109 2.781-1.109 2.781-1.062 1.109-2.266 1.109-2.812 1.172 0 0-3.906 0.297-9.797 0.297v0c-7.281-0.063-9.516-0.281-9.516-0.281-0.625-0.109-2.031-0.078-3.094-1.188 0 0-0.859-0.859-1.109-2.781-0.297-2.266-0.281-4.531-0.281-4.531v-2.125s-0.016-2.266 0.281-4.531c0.25-1.937 1.109-2.781 1.109-2.781 1.062-1.125 2.266-1.125 2.812-1.188 0 0 3.906-0.281 9.797-0.281v0z"></path>
</symbol>
<symbol id="icon-instagram" viewbox="0 0 24 28">
<title>instagram</title>
<path d="M16 14c0-2.203-1.797-4-4-4s-4 1.797-4 4 1.797 4 4 4 4-1.797 4-4zM18.156 14c0 3.406-2.75 6.156-6.156 6.156s-6.156-2.75-6.156-6.156 2.75-6.156 6.156-6.156 6.156 2.75 6.156 6.156zM19.844 7.594c0 0.797-0.641 1.437-1.437 1.437s-1.437-0.641-1.437-1.437 0.641-1.437 1.437-1.437 1.437 0.641 1.437 1.437zM12 4.156c-1.75 0-5.5-0.141-7.078 0.484-0.547 0.219-0.953 0.484-1.375 0.906s-0.688 0.828-0.906 1.375c-0.625 1.578-0.484 5.328-0.484 7.078s-0.141 5.5 0.484 7.078c0.219 0.547 0.484 0.953 0.906 1.375s0.828 0.688 1.375 0.906c1.578 0.625 5.328 0.484 7.078 0.484s5.5 0.141 7.078-0.484c0.547-0.219 0.953-0.484 1.375-0.906s0.688-0.828 0.906-1.375c0.625-1.578 0.484-5.328 0.484-7.078s0.141-5.5-0.484-7.078c-0.219-0.547-0.484-0.953-0.906-1.375s-0.828-0.688-1.375-0.906c-1.578-0.625-5.328-0.484-7.078-0.484zM24 14c0 1.656 0.016 3.297-0.078 4.953-0.094 1.922-0.531 3.625-1.937 5.031s-3.109 1.844-5.031 1.937c-1.656 0.094-3.297 0.078-4.953 0.078s-3.297 0.016-4.953-0.078c-1.922-0.094-3.625-0.531-5.031-1.937s-1.844-3.109-1.937-5.031c-0.094-1.656-0.078-3.297-0.078-4.953s-0.016-3.297 0.078-4.953c0.094-1.922 0.531-3.625 1.937-5.031s3.109-1.844 5.031-1.937c1.656-0.094 3.297-0.078 4.953-0.078s3.297-0.016 4.953 0.078c1.922 0.094 3.625 0.531 5.031 1.937s1.844 3.109 1.937 5.031c0.094 1.656 0.078 3.297 0.078 4.953z"></path>
</symbol>
<symbol id="icon-search" viewbox="0 0 32 32">
<title>search</title>
<path class="st0" d="M31.6,29.7l-5.8-5.8c0.9-1.1,1.7-2.4,2.3-3.7c0.7-1.7,1.1-3.6,1.1-5.6c0-1.9-0.4-3.8-1.1-5.5l0-0.1
	c-0.7-1.8-1.8-3.3-3.1-4.7l-0.1-0.1c-1.3-1.3-3-2.4-4.7-3.2h0C18.5,0.4,16.6,0,14.6,0c-4,0-7.7,1.6-10.3,4.3C3,5.6,1.9,7.2,1.1,9
	C0.4,10.7,0,12.6,0,14.6c0,1.9,0.4,3.8,1.1,5.5l0,0.1C1.9,22,3,23.6,4.3,24.9l0,0c1.3,1.3,3,2.4,4.7,3.2c1.7,0.7,3.6,1.1,5.6,1.1
	c2,0,3.9-0.4,5.6-1.1c1.4-0.6,2.6-1.3,3.7-2.3l5.8,5.8c0.5,0.5,1.4,0.5,1.9,0C32.2,31.1,32.2,30.2,31.6,29.7L31.6,29.7z M23.1,23
	L23.1,23L23.1,23L23.1,23c-1.1,1.1-2.4,2-3.9,2.6c-1.4,0.6-2.9,0.9-4.6,0.9c-1.6,0-3.2-0.3-4.6-0.9C8.6,25,7.3,24.1,6.2,23v0
	c-1.1-1.1-2-2.4-2.6-3.9l0-0.1c-0.6-1.4-0.9-2.9-0.9-4.5C2.7,13,3,11.4,3.6,10c0.6-1.4,1.5-2.8,2.6-3.9c2.2-2.1,5.1-3.5,8.4-3.5
	c1.6,0,3.2,0.3,4.6,0.9v0c1.5,0.6,2.8,1.5,3.9,2.6l0.1,0.1c1.1,1.1,1.9,2.4,2.5,3.8l0,0.1c0.6,1.4,0.9,2.9,0.9,4.5
	c0,1.6-0.3,3.2-0.9,4.6C25,20.6,24.1,21.9,23.1,23L23.1,23z"></path></symbol>
<symbol id="icon-sphere" viewbox="0 0 32 32">
<path d="m16 0c4.4 0 8.4 1.8 11.3 4.7s4.7 6.9 4.7 11.3-1.8 8.4-4.7 11.3-6.9 4.7-11.3 4.7-8.4-1.8-11.3-4.7c-2.9-2.9-4.7-6.9-4.7-11.3s1.8-8.4 4.7-11.3c2.9-2.9 6.9-4.7 11.3-4.7zm-.7 29.5v-5.2c-1.5.1-2.9.4-4.2.9-.2.1-.4.1-.5.2.1.2.2.5.3.7.8 1.5 1.8 2.6 2.9 3.3.5 0 1 .1 1.5.1zm10.3-23.1c-.1-.1-.2-.2-.3-.3-.6.5-1.2.8-1.9 1.2.9 2.3 1.4 5 1.5 8h4.7c-.3-3.5-1.7-6.6-4-8.9zm-1.5-1.3c-.8-.6-1.8-1.2-2.8-1.6.4.5.7 1 1.1 1.6.1.2.3.5.4.7.4-.1.9-.4 1.3-.7zm-5.9-2.5c-.5-.1-1-.1-1.5-.2v5.2c1.5-.1 2.9-.4 4.2-.8.2-.1.4-.1.6-.2-.1-.2-.2-.5-.3-.7-.9-1.5-1.9-2.6-3-3.3zm-2.9-.1c-.5 0-1 .1-1.5.2-1.1.7-2.1 1.8-2.9 3.3-.1.2-.2.5-.4.7.2.1.4.1.6.2 1.3.5 2.7.8 4.2.8zm-4.6 1.1c-1 .4-1.9 1-2.8 1.6.4.3.9.6 1.3.8.1-.3.3-.5.4-.7.3-.7.7-1.3 1.1-1.7zm-3.9 2.5c-.2.1-.3.2-.4.3-2.3 2.3-3.8 5.4-3.9 8.8h4.7c.1-3 .6-5.7 1.5-8-.7-.3-1.3-.6-1.9-1.1zm-4.3 10.6c.2 3.5 1.7 6.6 3.9 8.8l.3.3c.6-.4 1.2-.8 1.9-1.2-.9-2.3-1.4-5-1.5-8h-4.6zm5.4 10.2c.9.6 1.8 1.2 2.8 1.6-.4-.5-.7-1.1-1.1-1.7-.1-.2-.3-.5-.4-.7-.4.2-.9.5-1.3.8zm8.8 2.6c.5 0 1-.1 1.5-.2 1.1-.7 2.1-1.8 2.9-3.3.1-.2.2-.4.3-.7-.2-.1-.4-.1-.6-.2-1.3-.5-2.7-.8-4.2-.9v5.3zm4.6-1c1-.4 1.9-1 2.8-1.6-.4-.3-.9-.6-1.3-.8-.1.3-.3.5-.4.7-.3.6-.7 1.2-1.1 1.7zm3.9-2.6.3-.3c2.3-2.3 3.8-5.4 4-8.8h-4.7c-.1 3-.6 5.7-1.5 8 .7.3 1.3.7 1.9 1.1zm-3.2-18c-.2.1-.4.2-.6.2-1.5.5-3 .9-4.7 1v6.1h6.6c0-2.7-.5-5.2-1.3-7.3zm-6.7 1.2c-1.6-.1-3.2-.4-4.7-1-.2 0-.4-.1-.6-.2-.8 2.1-1.3 4.6-1.3 7.3h6.6zm0 13.8v-6.1h-6.7c.1 2.7.6 5.2 1.4 7.3.2-.1.4-.2.6-.2 1.5-.6 3-1 4.7-1zm1.4 0c1.6.1 3.2.4 4.7 1 .2.1.4.2.6.2.8-2.1 1.3-4.6 1.3-7.3h-6.6z" fill=""></path>
</symbol>
<symbol id="icon-sphere-partner" viewbox="0 0 35 35">
	<path d="M30.7,5.3C27.3,1.9,22.8,0,18,0C13.2,0,8.7,1.9,5.3,5.3C1.9,8.7,0,13.2,0,18c0,4.8,1.9,9.3,5.3,12.7
		C8.7,34.1,13.2,36,18,36c4.8,0,9.3-1.9,12.7-5.3C34.1,27.3,36,22.8,36,18C36,13.2,34.1,8.7,30.7,5.3z M13.1,3.6
		c-0.7,0.7-1.3,1.6-1.9,2.7C10.8,7.1,10.4,8,10,9C8.8,8.8,7.6,8.5,6.4,8.2C8.2,6.1,10.5,4.5,13.1,3.6z M5.4,9.6
		c1.4,0.4,2.8,0.7,4.2,1c-0.6,2-0.9,4.2-0.9,6.5H2.9C3,14.3,3.9,11.7,5.4,9.6z M5.3,26.2C3.9,24.1,3,21.7,2.9,19h5.8
		c0.1,2.2,0.4,4.3,0.9,6.3C8.1,25.5,6.6,25.9,5.3,26.2z M6.3,27.6c1.2-0.3,2.4-0.6,3.7-0.8c0.4,1,0.8,2,1.3,2.9
		c0.6,1,1.2,1.9,1.9,2.7C10.4,31.5,8,29.8,6.3,27.6z M17.4,33.2v0.4h0c-0.5-0.1-1-0.2-1.5-0.5c-1.3-0.7-2.5-2-3.6-3.9
		c-0.4-0.8-0.8-1.6-1.1-2.5c2-0.3,4.1-0.4,6.2-0.5h0V33.2z M17.4,24.5L17.4,24.5c-2.3,0-4.5,0.2-6.7,0.5c-0.5-1.9-0.8-3.9-0.9-6.1
		h7.6h0V24.5z M17.4,17L17.4,17H9.8c0.1-2.2,0.4-4.3,0.9-6.3c2.1,0.3,4.4,0.5,6.6,0.5h0V17z M17.4,2.8v6.8h0c-2.1,0-4.2-0.2-6.2-0.5
		c0.3-0.8,0.7-1.6,1.1-2.4c1-1.9,2.2-3.2,3.6-3.9c0.5-0.3,1-0.4,1.5-0.5h0V2.8z M33.1,17h-5.8c-0.1-2.3-0.4-4.5-0.9-6.5
		c1.4-0.3,2.9-0.6,4.2-1C32.1,11.7,33,14.3,33.1,17z M29.6,8.2C28.4,8.5,27.2,8.8,26,9c-0.3-1-0.7-1.9-1.2-2.7
		c-0.6-1-1.2-1.9-1.9-2.7C25.5,4.5,27.8,6.1,29.6,8.2z M18.6,2.8V2.5c0.5,0.1,1,0.2,1.5,0.5c1.3,0.7,2.5,2,3.6,3.9
		c0.4,0.7,0.7,1.5,1.1,2.4c-2,0.3-4.1,0.4-6.2,0.5V2.8z M18.6,11.3c2.3,0,4.5-0.2,6.6-0.5c0.5,1.9,0.9,4.1,0.9,6.3h-7.6V11.3z
		 M18.6,19h7.6c-0.1,2.1-0.4,4.2-0.9,6.1c-2.2-0.3-4.4-0.5-6.7-0.5V19z M20.1,33c-0.5,0.3-1,0.4-1.5,0.5v-0.4v-7
		c2.1,0,4.2,0.2,6.2,0.5c-0.3,0.9-0.7,1.8-1.1,2.5C22.7,31,21.5,32.3,20.1,33z M22.9,32.4c0.7-0.7,1.3-1.6,1.9-2.7
		c0.5-0.9,0.9-1.9,1.3-2.9c1.3,0.2,2.5,0.5,3.7,0.8C28,29.8,25.6,31.5,22.9,32.4z M30.7,26.2c-1.4-0.4-2.8-0.7-4.3-1
		c0.5-1.9,0.8-4.1,0.9-6.3h5.8C33,21.7,32.1,24.1,30.7,26.2z"></path>
</symbol>
<symbol id="icon-envelope" viewbox="0 0 32 32">
<title>envelope</title>
<path d="M29 4h-26c-1.657 0-3 1.343-3 3v18c0 1.656 1.343 3 3 3h26c1.657 0 3-1.344 3-3v-18c0-1.657-1.343-3-3-3zM2.741 25.99l-0.731-0.732 8.249-8.248 0.731 0.732-8.249 8.248zM29.259 25.99l-8.249-8.248 0.731-0.732 8.249 8.248-0.731 0.732zM17 19.325v0.675h-2v-0.675l-12.997-12.050 1.272-1.272 12.725 11.798 12.725-11.798 1.272 1.272-12.997 12.050z"></path>
</symbol>
<symbol id="icon-user" viewbox="0 0 32 32">
<path d="M15.9,2c2.6,0,4.7,2.1,4.7,4.7s-2.1,4.7-4.7,4.7s-4.7-2.1-4.7-4.7S13.3,2,15.9,2 M15.9,0c-3.7,0-6.7,3-6.7,6.7s3,6.7,6.7,6.7s6.7-3,6.7-6.7C22.6,3,19.6,0,15.9,0L15.9,0z"></path>
<path d="M17.2,17.2c3.2,0,6.1,1.2,7.9,3.1c0.8,0.9,1.8,2.4,1.6,4.4L26.3,30H5.7l-0.5-5.2c-0.2-2,0.8-3.5,1.6-4.4
		c1.8-2,4.8-3.1,7.9-3.1L17.2,17.2 M17.2,15.2h-2.4c-6.7,0-12,4.5-11.6,9.7l0.5,5.7C3.8,31.4,4.6,32,5.5,32h20.9
		c1,0,1.8-0.6,1.8-1.3l0.5-5.7C29.2,19.7,23.9,15.2,17.2,15.2L17.2,15.2z"></path>
</symbol>
<symbol id="icon-phone" viewbox="0 0 32 32">
	<path d="M8.3,2.5c1.6,1.7,3.3,4.1,4.2,6.4l-2.6,2.6c0.2,0.9,1.3,3.4,4.2,6.4c3,3,5.4,4,6.4,4.2l2.6-2.6c2.2,0.9,4.7,2.6,6.4,4.2
		c-0.4,1.7-1.1,3.6-2.6,5.8c-2.4-0.1-9-1.6-15.9-8.5C4.1,14.1,2.6,7.6,2.5,5.1C4.8,3.6,6.6,2.9,8.3,2.5 M8.3,0.1
		c-0.2,0-0.4,0-0.6,0.1C6,0.7,3.8,1.4,1.2,3.2c-0.7,0.5-1.1,1.3-1,2.1c0.1,1,0.3,3.6,1.9,7.1c1.6,3.7,4.1,7.1,7.3,10.3
		c3.2,3.2,6.7,5.6,10.3,7.3c3.5,1.6,6.1,1.9,7.1,1.9c0,0,0.1,0,0.1,0c0.8,0,1.5-0.4,2-1c1.8-2.6,2.5-4.8,3-6.6
		c0.2-0.8,0-1.7-0.6-2.3c-1.9-1.9-4.7-3.7-7.1-4.7c-0.3-0.1-0.6-0.2-0.9-0.2c-0.6,0-1.2,0.2-1.7,0.7l-1.5,1.5
		c-1-0.5-2.4-1.4-4.1-3.1c-1.7-1.7-2.6-3.2-3.1-4.1l1.5-1.5c0.7-0.7,0.9-1.7,0.5-2.6c-1-2.4-2.8-5.1-4.7-7.1C9.6,0.4,9,0.1,8.3,0.1
		L8.3,0.1z"></path>
</symbol>
<symbol id="icon-phone-partner" viewbox="0 0 35 35">
<path d="M29,21c-0.8-0.6-1.9-0.6-2.7,0.1l-3.1,2.7c-0.8,0.6-1.9,0.7-2.7,0.1c-1.6-1.2-3.2-2.5-4.6-4c-1.2-1.3-2.4-2.7-3.4-4.1
	c-0.6-0.8-0.5-1.9,0.1-2.7l2.8-3.3C16,9,16,7.9,15.4,7l-4.5-6.1c-0.6-0.8-1.6-1.1-2.5-0.8L1.4,2.7c-1,0.4-1.6,1.4-1.4,2.5
	c1.6,7.4,5.3,14.1,10.6,19.6c6,6.2,14.6,11.2,19.9,11.1c0.6,0,1.2,0.2,1.7,0c0.5-0.2,0.9-0.7,1.2-1.2c0.5-1.3,1.7-4.6,2.4-6.6
	c0.3-0.9,0-2-0.8-2.5L29,21z"></path>
</symbol>
<symbol id="icon-location" viewbox="0 0 32 32">
	<path d="M18.1,0L18.1,0C18.1,0,18,0,18.1,0C18,0,18,0,18,0c0,0,0,0,0,0c0,0-0.1,0-0.1,0v0C9.9,0.1,3.5,6.5,3.5,14.5
		c0,1.9,0.4,3.6,1,5.3h0c0,0,0,0,0,0c0,0,0,0.1,0,0.1c2.6,6.6,7.6,11.2,12.1,15.4c0.5,0.4,0.9,0.6,1.3,0.7v0c0,0,0,0,0,0
		c0,0,0,0,0.1,0c0,0,0,0,0.1,0c0,0,0,0,0,0v0c0.4,0,0.8-0.3,1.3-0.7c4.5-4.2,9.5-8.8,12.1-15.4c0,0,0-0.1,0-0.1c0,0,0,0,0,0
		c0,0,0,0,0,0c0.6-1.6,1-3.4,1-5.3C32.5,6.5,26.1,0.1,18.1,0z M8.5,14.7c0-5.1,4.1-9.2,9.2-9.2c5.1,0,9.2,4.1,9.2,9.2
		c0,5.1-4.1,9.2-9.2,9.2C12.6,23.8,8.5,19.7,8.5,14.7z"></path>
</symbol>
<symbol id="icon-arrow" viewbox="0 0 32 32">
<path class="st0" d="M31.7,16.5c0.1-0.3,0.1-0.7,0-1c-0.1-0.2-0.2-0.3-0.3-0.4c0,0,0,0,0,0L16.9,0.5c-0.5-0.5-1.3-0.5-1.8,0
	c-0.5,0.5-0.5,1.3,0,1.8l12.3,12.3h-26c-0.7,0-1.3,0.6-1.3,1.3s0.6,1.3,1.3,1.3h26L15.1,29.6c-0.5,0.5-0.5,1.3,0,1.8
	c0.3,0.3,0.6,0.4,0.9,0.4s0.7-0.1,0.9-0.4l14.5-14.5l0,0C31.6,16.8,31.7,16.7,31.7,16.5z"></path>
</symbol></defs></svg>