<?xml version="1.0" encoding="utf-8"?>
<!-- Generator: Adobe Illustrator 24.0.1, SVG Export Plug-In . SVG Version: 6.00 Build 0)  -->
<svg version="1.1" id="apartmenthomeliving_x5F_logo"
	 xmlns="http://www.w3.org/2000/svg" xmlns:xlink="http://www.w3.org/1999/xlink" x="0px" y="0px" viewBox="0 0 810 110"
	 style="enable-background:new 0 0 810 110;" xml:space="preserve">
<style type="text/css">
	.st0{fill:#FFFFFF;}
	.st1{fill:#4DBD9B;}
	.st2{fill:#73C6A1;}
</style>
<polygon id="trademarkm" class="st0" points="800.1,69.5 802,59.8 805.1,66.9 808.3,59.8 810,69.5 808.6,69.5 807.7,64.1 805,70 
	802.5,64.1 801.5,69.5 "/>
<path id="trademarks" class="st0" d="M798.5,61.8l-1.1,0.7c-0.2-0.4-0.4-0.6-0.6-0.7c-0.2-0.1-0.4-0.2-0.8-0.2
	c-0.4,0-0.7,0.1-0.9,0.3c-0.3,0.2-0.4,0.5-0.4,0.8c0,0.4,0.3,0.8,1,1.1l0.9,0.4c0.7,0.3,1.3,0.7,1.6,1.1s0.5,0.9,0.5,1.6
	c0,0.8-0.3,1.5-0.8,2.1c-0.6,0.5-1.3,0.8-2.1,0.8s-1.4-0.2-1.9-0.7s-0.8-1.1-0.9-2l1.4-0.3c0.1,0.5,0.2,0.9,0.3,1.1
	c0.3,0.4,0.7,0.6,1.2,0.6c0.4,0,0.8-0.1,1.1-0.4s0.4-0.6,0.4-1.1c0-0.2,0-0.3-0.1-0.5c0-0.1-0.1-0.3-0.2-0.4
	c-0.1-0.1-0.2-0.2-0.4-0.3c-0.2-0.1-0.4-0.2-0.6-0.3l-0.9-0.4c-1.2-0.5-1.9-1.3-1.9-2.3c0-0.7,0.3-1.2,0.8-1.7s1.2-0.7,1.9-0.7
	C797.1,60.3,797.9,60.8,798.5,61.8L798.5,61.8z"/>
<path id="g" class="st0" d="M787.8,65.1c0,15.7-7.6,20.7-23,20.7c-6.3,0-11.5-1.3-14.6-2.4l0.7-10.4c4,2,7.4,3.2,12.9,3.2
	c7.6,0,11.7-3.6,11.7-11.1V63h-0.1c-3.2,4.5-7.5,6.5-12.8,6.5c-10.5,0-17-7.9-17-19.2c0-11.4,5.3-19.9,17.2-19.9
	c5.6,0,10.2,3.1,13,7.8h0.1v-6.9h11.9L787.8,65.1L787.8,65.1z M766.6,59.5c4.7,0,8.4-4,8.4-9.8c0-4.3-2.5-9-8.4-9
	c-4.9,0-7.5,4.3-7.5,9.5C759.1,56.1,762.6,59.5,766.6,59.5z"/>
<path id="n2" class="st0" d="M701.7,31.4h12v7h0.1c2.6-5.5,7.9-7.9,13.9-7.9c10.4,0,14.6,7.3,14.6,15.2v23.8h-13.2V51.1
	c0-7.2-2.5-9.6-6.1-9.6c-5.4,0-8.2,3.7-8.2,11.9v16.1h-13.2L701.7,31.4L701.7,31.4z"/>
<path id="i2" class="st0" d="M694.1,25.2h-13.2v-9.7h13.2V25.2z M680.9,31.4h13.2v38.2h-13.2V31.4z"/>
<path id="v" class="st0" d="M634.6,31.4h14.1l7.9,27.2h0.1l8-27.2h13.1l-14.1,38.2h-15L634.6,31.4z"/>
<path id="i1" class="st0" d="M631.2,25.2H618v-9.7h13.2V25.2z M618,31.4h13.2v38.2H618V31.4z"/>
<path id="l" class="st0" d="M596.9,14.6h13.2v55h-13.2V14.6z"/>
<path id="e2" class="st1" d="M565.9,54.4c0.7,5.3,4.8,7.3,11.2,7.3c3.6,0,7.7-0.8,11.7-2.9v9.3c-4.3,1.7-9.1,2.4-14,2.4
	c-12.6,0-22.2-7.4-22.2-20s8.6-19.9,20.4-19.9c14.1,0,19.3,10,19.3,21.4v2.4C592.2,54.4,565.9,54.4,565.9,54.4z M580.4,46.9
	c0-4.4-2.1-8-7.3-8c-4.8,0-7,3.6-7.3,8H580.4z"/>
<path id="m_1_" class="st1" d="M483.4,31.4h12v7h0.1c2.6-5.5,7.9-7.9,13.9-7.9c5.4,0,9.9,2.3,11.9,7.3c3.1-5.1,8.1-7.3,13.6-7.3
	c11,0,13.5,6.2,13.5,16.6v22.5h-13.2V49.1c0-4.3-1.5-7.5-5.3-7.5c-4.7,0-7.5,3.7-7.5,11.9v16.1h-13.2V49.1c0-4.3-1.5-7.5-5.3-7.5
	c-4.7,0-7.5,3.7-7.5,11.9v16.1h-13.2L483.4,31.4L483.4,31.4z"/>
<path id="o" class="st1" d="M435.3,50.6c0-12.7,9.6-20,22.2-20s22.2,7.3,22.2,20c0,12.6-9.6,19.9-22.2,19.9S435.3,63.2,435.3,50.6z
	 M466.1,50.6c0-5.7-2.5-10.8-8.6-10.8s-8.6,5.1-8.6,10.8c0,5.6,2.5,10.7,8.6,10.7S466.1,56.2,466.1,50.6z"/>
<path id="h" class="st1" d="M391.5,14.6h13.2V37h0.1c2.9-4,7-6.5,12.8-6.5c10.4,0,14.6,7.3,14.6,15.2v23.8H419V51.1
	c0-7.2-2.5-9.6-6.1-9.6c-5.4,0-8.2,3.7-8.2,11.9v16.1h-13.2L391.5,14.6L391.5,14.6z"/>
<path id="t2" class="st0" d="M355.9,31.4h7.8v-8.6l13-4v12.6h9.2v9.2h-9.2v14.1c0,4.6,1.1,7,5.3,7c1.3,0,2.7-0.3,4-0.5l0.4,8.6
	c-2.5,0.3-5,0.7-8.3,0.7c-11.8,0-14.7-5.2-14.7-14.3V40.7h-7.5L355.9,31.4L355.9,31.4z"/>
<path id="n1" class="st0" d="M312.7,31.4h12v7h0.1c2.6-5.5,7.9-7.9,13.9-7.9c10.4,0,14.6,7.3,14.6,15.2v23.8h-13.2V51.1
	c0-7.2-2.5-9.6-6.1-9.6c-5.4,0-8.2,3.7-8.2,11.9v16.1h-13.2L312.7,31.4L312.7,31.4z"/>
<path id="e1" class="st0" d="M282.1,54.4c0.7,5.3,4.8,7.3,11.2,7.3c3.6,0,7.7-0.8,11.7-2.9v9.3c-4.3,1.7-9.1,2.4-14,2.4
	c-12.6,0-22.2-7.4-22.2-20s8.6-19.9,20.4-19.9c14.1,0,19.3,10,19.3,21.4v2.4C308.4,54.4,282.1,54.4,282.1,54.4z M296.6,46.9
	c0-4.4-2.1-8-7.3-8c-4.8,0-7,3.6-7.3,8H296.6z"/>
<path id="m" class="st0" d="M200.3,31.4h12v7h0.1c2.6-5.5,7.9-7.9,13.9-7.9c5.4,0,9.9,2.3,11.9,7.3c3.1-5.1,8.1-7.3,13.6-7.3
	c11,0,13.5,6.2,13.5,16.6v22.5h-13.2V49.1c0-4.3-1.5-7.5-5.3-7.5c-4.7,0-7.5,3.7-7.5,11.9v16.1h-13.2V49.1c0-4.3-1.5-7.5-5.3-7.5
	c-4.7,0-7.5,3.7-7.5,11.9v16.1h-13.2L200.3,31.4L200.3,31.4z"/>
<path id="t1" class="st0" d="M165,31.4h7.8v-8.6l13-4v12.6h9.2v9.2h-9.2v14.1c0,4.6,1.1,7,5.3,7c1.3,0,2.7-0.3,4-0.5l0.4,8.6
	c-2.5,0.3-5,0.7-8.3,0.7c-11.8,0-14.7-5.2-14.7-14.3V40.7H165V31.4L165,31.4z"/>
<path id="r" class="st0" d="M161.2,42c-1.5-0.4-2.9-0.4-4.5-0.4c-6.2,0-9.6,4.5-9.6,11.9v16.1H134V31.4h12v7h0.1
	c2.3-4.8,5.6-7.9,11.3-7.9c1.5,0,3.1,0.2,4.5,0.4L161.2,42z"/>
<path id="a2" class="st0" d="M116.3,69.6c-0.1-2.1-0.3-4-0.3-6h-0.1c-3,4.8-6.7,6.9-12.1,6.9c-7.5,0-14.3-3.7-14.3-12
	c0-11.7,12.7-13,19.7-13c2.1,0,4.5,0.2,6.2,0.5c-0.1-5.2-4-6.6-8.7-6.6c-4.3,0-8.5,0.8-12.2,2.9l-0.2-8.9c4.7-1.9,9.6-2.7,15.2-2.7
	c9.7,0,18.2,4.2,18.2,15.8v14.2c0,3,0.1,6,0.7,9L116.3,69.6L116.3,69.6z M107.2,61.7c5,0,8.1-4.5,8.1-9c-1.7-0.1-3.6-0.2-5.6-0.2
	c-4.5,0-8,1.4-8,5.1C101.8,60.2,104.1,61.7,107.2,61.7z"/>
<path id="p" class="st0" d="M44.2,31.4h12.2v6.9h0.1c2.6-5.4,8.2-7.8,14.2-7.8c10.6,0,16.3,10,16.3,19.3c0,11.3-6.1,20.7-17.4,20.7
	c-4.6,0-9.6-1.7-12.1-6.2h-0.1V85H44.2V31.4L44.2,31.4z M65.4,40.7c-4.8,0-8.1,4.3-8.1,10c0,5.6,3.7,9.7,8.1,9.7c5,0,8-4.2,8-10.3
	C73.4,45.1,70.6,40.7,65.4,40.7z"/>
<path id="a1" class="st0" d="M26.8,69.6c-0.1-2.1-0.3-4-0.3-6h-0.1c-3,4.8-6.7,6.9-12.1,6.9C6.7,70.5,0,66.7,0,58.5
	c0-11.7,12.7-13,19.7-13c2.1,0,4.5,0.2,6.2,0.5c-0.1-5.2-4-6.6-8.7-6.6c-4.3,0-8.5,0.8-12.2,2.9l-0.2-8.9c4.7-1.9,9.6-2.7,15.2-2.7
	c9.7,0,18.2,4.2,18.2,15.8v14.2c0,3,0.1,6,0.7,9L26.8,69.6L26.8,69.6z M17.7,61.7c5,0,8.1-4.5,8.1-9c-1.7-0.1-3.6-0.2-5.6-0.2
	c-4.5,0-8,1.4-8,5.1C12.3,60.2,14.7,61.7,17.7,61.7z"/>
<g>
	<rect x="62" y="82.9" class="st1" width="530" height="2"/>
</g>
<rect x="598.7" y="79.2" class="st2" width="2" height="16.2"/>
<path class="st2" d="M608,84.4h2v11h-2V84.4z M610.1,81.9h-2.3v-2.3h2.3V81.9z"/>
<path class="st2" d="M621.8,95.3h-2.4l-3.9-11h2.2l3,9l0,0l3-9h2L621.8,95.3L621.8,95.3z"/>
<path class="st2" d="M638,88.8c0-1.7-1-3.1-2.7-3.1c-2,0-2.8,1.6-3,3.1H638z M639.3,94.9c-0.8,0.3-1.7,0.7-3.5,0.7
	c-3.9,0-5.7-2.4-5.7-5.9c0-3.3,2-5.6,5.1-5.6c3.7,0,4.8,2.7,4.8,6.2h-7.8c0,2.2,1.7,3.7,3.6,3.7c1.3,0,2.9-0.7,3.4-1.1L639.3,94.9
	L639.3,94.9z"/>
<path class="st2" d="M656.7,86h-2.6v-1.6h2.6v-1c0-2.7,0.7-4.4,3.7-4.4c0.5,0,0.9,0.1,1.4,0.1l-0.1,1.6c-0.2-0.1-0.6-0.1-1-0.1
	c-1.7,0-2,1.1-2,2.6v1.2h2.9V86h-2.9v9.3h-2L656.7,86L656.7,86z"/>
<path class="st2" d="M671.8,94c2.4,0,3.4-2.2,3.4-4.1c0-2.1-1.3-4.1-3.4-4.1c-2.2,0-3.4,2-3.4,4.1C668.4,91.8,669.4,94,671.8,94z
	 M671.8,84.1c3.3,0,5.6,2.4,5.6,5.8c0,3.1-2.3,5.8-5.6,5.8s-5.6-2.6-5.6-5.8C666.2,86.5,668.5,84.1,671.8,84.1L671.8,84.1z"/>
<path class="st2" d="M683.3,84.4h1.9v1.7l0,0c0.5-1.1,1.7-2,2.9-2c0.6,0,0.9,0.1,1.3,0.2v1.8c-0.4-0.2-0.8-0.2-1.1-0.2
	c-1.8,0-3,1.7-3,4.5v5h-2L683.3,84.4L683.3,84.4z"/>
<path class="st2" d="M705,86.8h-2.3v-2.7h2.3v-0.7c0-3.3,1.6-4.5,4.7-4.5c0.8,0,1.5,0.1,2,0.2l-0.2,2.7c-0.3-0.1-0.6-0.2-1.2-0.2
	c-1,0-1.4,0.7-1.4,1.8v0.7h2.8v2.7h-2.8v8.5H705V86.8L705,86.8z"/>
<path class="st2" d="M728.4,95.3h-3.5v-2.1l0,0c-0.8,1.6-2.3,2.3-4.1,2.3c-3.1,0-4.3-2.2-4.3-4.5v-7h3.9v5.4c0,2.1,0.7,2.8,1.8,2.8
	c1.6,0,2.4-1.1,2.4-3.5V84h3.9v11.3H728.4z"/>
<path class="st2" d="M734,84.1h3.5v2.1l0,0c0.8-1.6,2.3-2.3,4.1-2.3c3.1,0,4.3,2.2,4.3,4.5v7H742V90c0-2.1-0.7-2.8-1.8-2.8
	c-1.6,0-2.4,1.1-2.4,3.5v4.7H734V84.1z"/>
</svg>
