<svg width="112px" height="24px" viewbox="0 0 112 24" version="1.1" xmlns="http://www.w3.org/2000/svg" xmlns:xlink="http://www.w3.org/1999/xlink">
<defs></defs>
<g id="Symbols" stroke="none" stroke-width="1" fill="none" fill-rule="evenodd">
<g id="logo-/-blue" fill="#018DC6">
<path d="M106.771493,18.6067447 C105.552811,19.9165207 104.098309,20.4558648 102.211283,20.4558648 C100.481564,20.4558648 98.9877114,19.8009767 97.9262888,18.4911545 C96.8648661,17.1813784 96.3144796,15.6019072 96.3144796,13.5987285 C96.3144796,11.7496084 96.8648661,10.1701373 98.0441984,8.86036122 C99.2235779,7.55053894 100.71743,6.89565092 102.329239,6.89565092 C104.216218,6.89565092 105.710071,7.55053894 106.771493,8.86036122 C107.832916,10.1701373 108.501212,11.7496084 108.501212,13.7527872 C108.501212,15.6789828 107.990176,17.2969686 106.771493,18.6067447 Z M108.265346,7.12678515 L107.439789,6.31779223 C105.710071,4.46867216 103.665832,3.54413524 101.385726,3.54413524 C98.8304514,3.54413524 96.5503461,4.46867216 94.9385841,6.43338246 C93.2088653,8.28250253 92.3833091,10.7865106 92.3833091,13.5602138 C92.3833091,16.4494611 93.3267749,18.9534692 94.9385841,20.8025892 C96.6683029,22.6517093 98.9877114,23.6918364 101.542986,23.6918364 C103.705135,23.6918364 105.592114,22.7672533 107.439789,21.1878283 L108.108086,20.5328941 L108.108086,23.1910071 L112,23.1910071 L112,4.08347927 L108.108086,4.08347927 L108.108086,7.12678515 L108.265346,7.12678515 Z M78.1129875,13.7142725 C78.1129875,17.6822078 76.108099,20.1862159 72.7272678,20.1862159 C69.3464367,20.1862159 67.341501,17.6822078 67.341501,13.7142725 L67.341501,4.08347927 L63.4496337,4.08347927 L63.4496337,13.7142725 C63.4496337,19.4927669 67.341501,23.7303511 72.7272678,23.7303511 C78.1130346,23.7303511 82.0049019,19.5312816 82.0049019,13.7142725 L82.0049019,4.08347927 L78.1130346,4.08347927 L78.1130346,13.7142725 L78.1129875,13.7142725 Z M85.6609028,23.1910533 L89.5527701,23.1910533 L89.5527701,4.08347927 L85.6609028,4.08347927 L85.6609028,23.1910533 Z M60.6584923,13.8683774 C60.6584923,8.32101719 56.2161913,3.96788903 50.7125148,3.7367548 C50.5946052,3.7367548 50.4373451,3.8522988 50.5946052,4.0064037 C50.9877316,4.81539662 51.9311975,6.62600202 53.5430066,7.82023407 C55.7051551,9.39965901 56.9238378,11.3643693 56.9238378,13.7527872 C56.9238378,16.7961393 54.4864725,20.2247305 50.4766483,20.2247305 C46.427521,20.2247305 44.0294589,16.7961393 44.0294589,13.7527872 C44.0294589,11.3643693 45.3660984,9.39965901 47.41029,7.82023407 C49.0220992,6.51041179 50.0835219,4.82311805 50.3587387,4.01412513 C50.4766483,3.89853489 50.3587387,3.74447623 50.2407819,3.74447623 C44.5798454,3.86002023 40.1375916,8.2054732 40.1375916,13.7142725 C40.1375916,18.1829909 44.0294589,23.4607022 50.3587387,23.4607022 C53.1891834,23.4607022 55.5871983,22.6517093 57.3562675,21.226343 L59.361156,23.0754631 L65.0220925,23.0754631 L59.7149793,18.1829909 C60.2653658,17.0272735 60.6584923,15.5633926 60.6584923,13.8683774 L60.6584923,13.8683774 Z M7.27274566,16.4879757 L11.8329091,6.58748736 L16.432423,16.4879757 L7.27274566,16.4879757 Z M11.7149995,0 C11.0466561,0 10.4963168,0.385239127 10.2211471,0.924536917 L0,23.1910071 L4.04912733,23.1910071 L5.54297967,20.032111 L17.9262753,20.032111 L19.4201276,23.1910071 L23.4693022,23.1910071 L13.3267615,1.07864181 C13.0515918,0.423753793 12.3832956,0 11.7149995,0 L11.7149995,0 Z M33.1007124,7.39648028 C34.8304784,7.39648028 36.4815435,8.0513683 37.5430134,9.09149545 C37.9360927,7.8972634 38.604436,6.85713625 39.4299922,5.77849444 C37.7002262,4.46867216 35.5380777,3.65967924 33.1007124,3.65967924 C27.4397759,3.69824014 22.7223524,8.2054732 22.7223524,13.8683774 C22.7223524,19.4157376 27.282563,24 33.0614092,24 C35.4987745,24 37.6216198,23.1910071 39.3906418,21.881231 C38.5650856,20.8411039 38.0540495,19.7624621 37.503663,18.56823 C36.2850275,19.6083572 34.8304784,20.2632452 33.0614092,20.2632452 C29.4447115,20.2632452 26.4570068,17.373998 26.4570068,13.7913481 C26.4963101,10.2857275 29.4447115,7.39648028 33.1007124,7.39648028 L33.1007124,7.39648028 Z" id="Logo"></path>
</g>
</g>
</svg>