<svg version="1.1" class="hamburger-menu" xmlns="http://www.w3.org/2000/svg" xmlns:xlink="http://www.w3.org/1999/xlink" viewbox="0 0 512 512">
<rect class="fl-hamburger-menu-top" width="512" height="102"></rect>
<rect class="fl-hamburger-menu-middle" y="205" width="512" height="102"></rect>
<rect class="fl-hamburger-menu-bottom" y="410" width="512" height="102"></rect>
</svg>