<?xml version="1.0" encoding="UTF-8"?>
<svg width="245px" height="39px" viewBox="0 0 245 39" version="1.1" xmlns="http://www.w3.org/2000/svg" xmlns:xlink="http://www.w3.org/1999/xlink">
    <!-- Generator: Sketch 53.2 (72643) - https://sketchapp.com -->
    <title>Appnovation Logo</title>
    <desc>Created with Sketch.</desc>
    <g id="Symbols" stroke="none" stroke-width="1" fill="none" fill-rule="evenodd">
        <g id="Banners/Footer" transform="translate(-120.000000, -64.000000)" fill="#FFFFFF">
            <g id="Group-4">
                <g id="Appnovation-Logo" transform="translate(120.000000, 64.000000)">
                    <path d="M211.569259,25.3271411 C209.026579,25.3271411 206.965416,22.8451445 206.965416,19.7835931 C206.965416,16.7218891 209.026579,14.2398925 211.569259,14.2398925 C214.11194,14.2398925 216.173102,16.7218891 216.173102,19.7835931 C216.173102,22.8451445 214.11194,25.3271411 211.569259,25.3271411 M211.662598,8.86241135 L211.608592,8.86241135 C208.693011,8.86241135 205.937936,9.98061484 203.847123,12.0153911 C201.694891,14.1087791 200.50388,16.9099353 200.492383,19.902801 C200.470145,26.0045349 205.395453,30.9908128 211.471836,31.0184397 L211.523876,31.0184397 C214.448684,31.0184397 217.21102,29.8947414 219.307128,27.850807 C221.455276,25.7568084 222.640992,22.9623682 222.646136,19.9827817 C222.657028,13.8798267 217.729601,8.89095408 211.662598,8.86241135" id="Fill-3"></path>
                    <path d="M98.538394,18.7871644 C98.5005318,17.3411247 98.279897,15.8700738 97.914352,14.4673572 C96.9016522,10.5806324 91.8457563,8.02456777 87.8817818,9.11553646 C86.9697438,9.36639375 85.7989047,9.88269826 85.1315264,10.3985561 C85.1315264,9.41269442 84.1398105,9.46122823 84.1398105,9.46122823 C84.1398105,9.46122823 80.2828842,9.46107935 79.5533146,9.46107935 C78.823593,9.46107935 78.6465986,9.8369931 78.6465986,10.2577187 L78.6465986,29.2207435 C78.6465986,29.2207435 78.6037185,29.9045344 79.3600501,29.9045344 C80.1163818,29.9045344 83.1310643,29.9106383 84.117002,29.9106383 C85.1027876,29.9106383 85.1395854,28.9730126 85.1395854,28.9730126 C85.1395854,28.9730126 85.1394334,17.0161268 85.1394334,16.994242 C85.1394334,14.4223964 88.6058773,13.736968 90.282458,14.6576217 C91.7831088,15.4818032 91.9975092,17.2782988 92.0146916,18.8062207 C92.0546826,22.3749448 92.0516415,25.5177326 92.0300494,29.0867545 C92.0262479,29.7069749 92.2981259,29.9101917 92.855719,29.9101917 C93.4134641,29.9101917 97.2831633,29.9092984 97.749218,29.9092984 C98.2152728,29.9092984 98.5888769,29.7275199 98.5834029,29.0940494 C98.5542079,25.6584211 98.6281076,22.2207085 98.538394,18.7871644" id="Fill-21"></path>
                    <path d="M198.276923,30.1542814 C198.276923,30.1542814 198.218544,31.0184397 197.426854,31.0184397 C196.63532,31.0184397 193.243118,31.0154468 192.39336,31.0154468 C191.543757,31.0154468 191.633499,30.2361922 191.633499,30.2361922 C191.633499,30.2361922 191.649336,17.4554395 191.633344,10.7501006 C191.633344,9.96170974 192.396155,9.97368131 192.396155,9.97368131 L197.429804,9.97021585 C197.429804,9.97021585 198.276613,9.96170974 198.276613,10.8376821 L198.276923,30.1542814 Z M198.903832,3.89170983 C198.897975,6.02170921 197.202555,7.75619155 195.128,7.75460885 C192.939943,7.75302615 191.156665,6.00888933 191.150016,3.8643291 C191.143684,1.76281834 192.968912,0.00396240469 195.160611,5.65148519e-06 C197.221076,-0.00363456146 198.909531,1.75173943 198.903832,3.89170983 Z" id="Fill-27"></path>
                    <path d="M185.947534,3.44103913 L185.947534,5.2584787 C185.947534,6.54322047 185.9916,8.13581113 185.930951,9.41780151 C185.89533,10.1692341 186.170934,10.3176557 186.875528,10.3176557 C187.394647,10.3176557 187.918371,10.3220885 188.439332,10.3052745 C188.914998,10.2899891 189.149914,10.4666888 189.14454,10.9692743 C189.130261,12.2812242 189.144387,14.5819896 189.144387,15.2623448 C189.144387,15.9427 188.431962,15.9008179 188.431962,15.9008179 L186.620192,15.9008179 C186.620192,15.9008179 185.940317,15.9263446 185.940317,16.5671105 C185.961045,19.2730931 185.939089,20.9364553 185.966265,23.6424379 C185.978395,24.8484596 186.474789,25.209349 187.646606,24.9687561 C187.673475,24.9632533 187.700498,24.9580563 187.727368,24.9519421 C189.415385,24.5568133 189.415538,24.5568133 189.415385,26.2641977 C189.415231,27.2757885 189.392661,28.6991693 189.392661,29.6778964 C189.392661,29.9979736 189.33017,30.3386862 188.93895,30.5208888 C186.691434,31.3140506 183.096759,31.3514999 181.129453,29.1873864 C179.975601,27.9182358 179.47675,26.3429177 179.429306,24.6775683 C179.348084,21.8367681 179.360828,19.6549235 179.39215,16.8125948 C179.399673,16.1302524 179.257495,15.9303188 178.614317,15.9040278 C178.561806,15.9018879 178.135733,15.9008179 178.081841,15.9008179 C177.248733,15.9008179 177.240289,15.0764738 177.240289,15.0764738 L177.230769,11.1504069 C177.230769,11.1504069 177.230769,10.3045103 178.084911,10.3045103 L178.660686,10.3045103 C179.187635,10.3045103 179.383244,10.2056134 179.383244,9.61651232 C179.383244,9.02741121 179.398905,6.86589624 179.398905,6.40152438 C179.398905,5.93699967 179.649636,5.69579532 179.891154,5.59735705 C181.613564,4.89514364 185.603604,3.38708151 185.720448,3.34764505 C185.840977,3.30698577 185.947534,3.30499866 185.947534,3.44103913" id="t"></path>
                    <path d="M159.326065,19.9595073 C159.326065,16.910349 161.391067,14.4386748 163.938484,14.4386748 C166.48575,14.4386748 168.550752,16.910349 168.550752,19.9595073 C168.550752,23.0086655 166.48575,25.4803398 163.938484,25.4803398 C161.391067,25.4803398 159.326065,23.0086655 159.326065,19.9595073 M159.548403,30.2178674 C162.283906,31.4008052 165.618979,31.3226723 168.161092,29.6487439 C168.267335,29.5788195 168.38737,29.5047909 168.550449,29.4306102 C168.550449,29.4306102 168.487551,30.3940464 169.573477,30.3940464 C170.659555,30.3940464 173.801541,30.387662 174.255463,30.387662 C174.709384,30.387662 175.013565,30.2009943 175.012807,29.6305027 C175.000379,19.5714271 174.99856,20.4118875 175.015383,10.3528119 C175.016293,9.681842 174.504172,9.53940911 174.146491,9.53940911 C173.788962,9.53940911 170.071806,9.53956112 169.629403,9.53956112 C168.450722,9.53956112 168.538627,10.4874923 168.538627,10.4874923 C168.538627,10.4874923 167.789315,10.0153508 167.458309,9.8388678 C164.122175,8.0615729 159.696174,8.75808036 156.594957,11.540462 C150.534384,16.9778412 152.088327,26.9925301 159.548403,30.2178674" id="a"></path>
                    <path d="M132.352542,23.6743355 L132.352542,23.6743355 L137.269808,28.5413607 C137.622053,28.8899956 138.193332,28.8899956 138.545576,28.5413607 L141.560514,25.5573177 L143.462842,23.6743355 L151.489663,15.7299144 C151.658782,15.5625283 151.753846,15.3354143 151.753846,15.0987142 L151.753846,10.8630366 C151.753846,10.3698746 151.349898,9.97021277 150.85163,9.97021277 L146.572397,9.97021277 C146.332948,9.97021277 146.103483,10.0641554 145.934364,10.2316889 L137.907692,18.17611 L129.881021,10.2316889 C129.711902,10.0641554 129.482436,9.97021277 129.243286,9.97021277 L124.963755,9.97021277 C124.465487,9.97021277 124.061538,10.3698746 124.061538,10.8630366 L124.061538,15.0987142 C124.061538,15.3354143 124.156603,15.5625283 124.325871,15.7299144 L132.352542,23.6743355 Z" id="v"></path>
                    <path d="M111.876952,25.3271411 C109.334272,25.3271411 107.273109,22.8451445 107.273109,19.7835931 C107.273109,16.7218891 109.334272,14.2398925 111.876952,14.2398925 C114.419481,14.2398925 116.480643,16.7218891 116.480643,19.7835931 C116.480643,22.8451445 114.419481,25.3271411 111.876952,25.3271411 M111.970291,8.86241135 L111.916133,8.86241135 C109.000553,8.86241135 106.245629,9.98061484 104.154816,12.0153911 C102.002585,14.1087791 100.811573,16.9099353 100.800076,19.902801 C100.777687,26.0045349 105.703147,30.9908128 111.779529,31.0184397 L111.831569,31.0184397 C114.756377,31.0184397 117.518562,29.8947414 119.614821,27.850807 C121.762817,25.7568084 122.948685,22.9623682 122.953828,19.9827817 C122.96472,13.8798267 118.037294,8.89095408 111.970291,8.86241135" id="o"></path>
                    <path d="M244.753779,18.7871644 C244.715916,17.3411247 244.495282,15.8700738 244.129737,14.4673572 C243.116885,10.5806324 238.06099,8.02456777 234.097017,9.11553646 C233.185131,9.36639375 232.014292,9.88269826 231.346762,10.3985561 C231.346762,9.41269442 230.355198,9.46122823 230.355198,9.46122823 C230.355198,9.46122823 226.498121,9.46107935 225.768551,9.46107935 C225.038982,9.46107935 224.861987,9.8369931 224.861987,10.2577187 L224.861987,29.2207435 C224.861987,29.2207435 224.818955,29.9045344 225.575439,29.9045344 C226.33177,29.9045344 229.346452,29.9106383 230.332238,29.9106383 C231.318175,29.9106383 231.354821,28.9730126 231.354821,28.9730126 C231.354821,28.9730126 231.354669,17.0161268 231.354669,16.994242 C231.354669,14.4223964 234.821264,13.736968 236.497692,14.6576217 C237.998495,15.4818032 238.212895,17.2782988 238.230078,18.8062207 C238.269917,22.3749448 238.267027,25.5177326 238.245283,29.0867545 C238.241634,29.7069749 238.51336,29.9101917 239.071105,29.9101917 C239.62885,29.9101917 243.498548,29.9092984 243.964603,29.9092984 C244.430658,29.9092984 244.804109,29.7275199 244.798787,29.0940494 C244.769593,25.6584211 244.843492,22.2207085 244.753779,18.7871644" id="n"></path>
                    <path d="M65.3537909,25.2391946 C62.8064977,25.2391946 60.7413216,22.8032386 60.7413216,19.7984783 C60.7413216,16.7935682 62.8064977,14.3576121 65.3537909,14.3576121 C67.9012355,14.3576121 69.9662601,16.7935682 69.9662601,19.7984783 C69.9662601,22.8032386 67.9012355,25.2391946 65.3537909,25.2391946 M72.6972457,11.501457 C69.5961471,8.75960195 65.1700984,8.07320193 61.8337764,9.82470544 C61.5029178,9.9984776 61.1800919,10.2041579 60.7534465,10.4639173 C60.747384,10.4724561 60.696611,9.52959238 59.6626588,9.52959238 C59.6567479,9.52959238 54.9901712,9.52944257 54.9901712,9.52944257 C54.9901712,9.52944257 54.2769231,9.471918 54.2769231,10.3311914 C54.2769231,20.2441439 54.2793481,28.1074839 54.2793481,38.0204364 C54.2793481,38.7652599 55.0367006,38.7667579 55.0367006,38.7667579 L59.7763299,38.7730496 C59.7763299,38.7730496 60.7378357,38.7652599 60.7378357,37.8297365 L60.7416247,29.1540117 C63.0897661,30.7596065 67.0671929,31.0485776 69.7437679,29.9079731 C77.2039251,26.7292909 78.7580361,16.860081 72.6972457,11.501457" id="p"></path>
                    <path d="M42.0923604,25.2391946 C39.5449257,25.2391946 37.4799092,22.8032386 37.4799092,19.7984783 C37.4799092,16.7935682 39.5449257,14.3576121 42.0923604,14.3576121 C44.6396435,14.3576121 46.7046599,16.7935682 46.7046599,19.7984783 C46.7046599,22.8032386 44.6396435,25.2391946 42.0923604,25.2391946 M49.4357863,11.501457 C46.3345484,8.75960195 41.9086686,8.07320193 38.5723598,9.82470544 C38.2413509,9.9984776 37.9185263,10.2041579 37.4920341,10.4639173 C37.4859717,10.4724561 37.4351988,9.52959238 36.4012507,9.52959238 C36.3951883,9.52959238 31.7287815,9.52944257 31.7287815,9.52944257 C31.7287815,9.52944257 31.0153846,9.471918 31.0153846,10.3311914 C31.0153846,20.2441439 31.0178096,28.1074839 31.0178096,38.0204364 C31.0178096,38.7652599 31.7751591,38.7667579 31.7751591,38.7667579 L36.5147698,38.7730496 C36.5147698,38.7730496 37.4762718,38.7652599 37.4762718,37.8297365 L37.4802124,29.1540117 C39.8283445,30.7596065 43.8056041,31.0485776 46.4823202,29.9079731 C53.942448,26.7292909 55.4964013,16.860081 49.4357863,11.501457" id="p"></path>
                    <path d="M19.4014528,15.0986472 L19.4014528,15.0986472 L14.484187,10.231798 C14.1317936,9.88301769 13.5606631,9.88301769 13.2084187,10.231798 L10.1934811,13.2156761 L8.29100391,15.0986472 L0.264332278,23.0430216 C0.0952132613,23.2104067 0,23.4375194 0,23.6742181 L0,27.9098708 C0,28.40303 0.403948594,28.8028369 0.902216428,28.8028369 L5.18159806,28.8028369 C5.42089775,28.8028369 5.6503632,28.7087473 5.81963122,28.5412148 L13.8461538,20.5968404 L21.8728255,28.5412148 C22.0420935,28.7087473 22.2715589,28.8028369 22.5107096,28.8028369 L26.7902403,28.8028369 C27.2885081,28.8028369 27.6923077,28.40303 27.6923077,27.9098708 L27.6923077,23.6742181 C27.6923077,23.4375194 27.5972434,23.2104067 27.4281244,23.0430216 L19.4014528,15.0986472 Z" id="A"></path>
                </g>
            </g>
        </g>
    </g>
</svg>