<svg style="position: absolute; width: 0; height: 0;" width="0" height="0" version="1.1" xmlns="http://www.w3.org/2000/svg" xmlns:xlink="http://www.w3.org/1999/xlink">
        <defs>
            <symbol id="icon-arrow-simple" viewbox="0 0 17 10">
                <g>
                    <polyline id="Chevron_Down" stroke-width="2" stroke-linejoin="round" points="15.499,1.501
      8.501,8.499 1.499,1.508"></polyline>
                </g>
            </symbol>
            <symbol id="icon-arrow" viewbox="0 0 24 24" preserveaspectratio="xMidYMid meet">
                <g><path d="M12 4l-1.41 1.41L16.17 11H4v2h12.17l-5.58 5.59L12 20l8-8z"></path></g>
            </symbol>
            <symbol id="icon-tick" viewbox="0 0 15 13">
                <g><polyline id="Tik_20x16" stroke-width="2" stroke="#0D313F" points="11 17.4233681 15.3848401 22.4 24 12"></polyline></g>
            </symbol>
            <symbol id="icon-play" viewbox="0 0 24 24">
                <path fill="#FFF" fill-rule="evenodd" d="M12 1c6.075 0 11 4.925 11 11 0 6.076-4.925 11-11 11S1 18.076 1 12C1 5.925 5.925 1 12 1zM8.846 7.831v8l8-4.21-8-3.79z"></path>
            </symbol>
            <symbol id="icon-play1" viewbox="0 0 64 64">
                <g fill="none" fill-rule="evenodd">
                    <circle cx="32" cy="32" r="31" stroke="#FFF" stroke-opacity=".5" stroke-width="2"></circle>
                    <path fill="#FFF" fill-opacity=".5" d="M24 41.6V21.241a2.4 2.4 0 0 1 3.636-2.057l16.94 10.178a2.4 2.4 0 0 1 0 4.115l-16.94 10.178A2.4 2.4 0 0 1 24 41.6z"></path>
                </g>
            </symbol>
            <symbol id="icon-play-simple" width="13" height="13" viewbox="0 0 13 13">
                <path fill="currentColor" fill-rule="evenodd" d="M0 12.64L0 0 12.64 5.987z"></path>
            </symbol>
            <symbol id="playvideo" width="60" height="59" viewbox="0 0 60 59">
                <path fill="#FFF" fill-rule="nonzero" d="M1 43.435c.272 0 .498.199.54.459l.007.088v12.039c0 .859.66 1.564 1.5 1.635l.142.006h12.038a.547.547 0 0 1 .089 1.088l-.089.007H3.19a2.736 2.736 0 0 1-2.731-2.57l-.005-.166V43.982c0-.302.245-.547.547-.547zm57.757 0c.272 0 .497.199.54.459l.007.088v12.039a2.736 2.736 0 0 1-2.57 2.73l-.166.006H44.53a.547.547 0 0 1-.09-1.087l.09-.008h12.038c.859 0 1.564-.66 1.636-1.5l.006-.141V43.982c0-.302.245-.547.547-.547zM21.589 18.883l21.333 10.104-21.333 11.23V18.882zM15.227.453a.547.547 0 0 1 .089 1.087l-.089.007H3.19c-.86 0-1.564.66-1.636 1.5l-.006.142v12.038a.547.547 0 0 1-1.087.089l-.007-.089V3.19A2.736 2.736 0 0 1 3.023.458l.166-.005h12.038zm41.341 0a2.736 2.736 0 0 1 2.731 2.57l.005.166v12.038a.547.547 0 0 1-1.087.089l-.007-.089V3.19c0-.86-.66-1.564-1.5-1.636l-.142-.006H44.53A.547.547 0 0 1 44.44.46l.09-.007h12.038z"></path>
            </symbol>
            <symbol id="close-icon" viewbox="0 0 18 18">
                <path fill="currentColor" fill-rule="evenodd" d="M13.05 11.892a.818.818 0 1 1-1.158 1.158L9 10.157 6.108 13.05a.819.819 0 0 1-1.157-1.158L7.843 9 4.951 6.108A.818.818 0 1 1 6.108 4.95L9 7.843l2.892-2.892a.817.817 0 1 1 1.157 1.157L10.157 9l2.892 2.892zM9 0a9 9 0 1 0 0 18A9 9 0 0 0 9 0z"></path>
            </symbol>
            <filter id="dropshadow" height="150%" width="150%">
                <fegaussianblur in="SourceAlpha" stddeviation="6"></fegaussianblur>
                <feoffset dx="2" dy="2" result="offsetblur"></feoffset>
                <fecomponenttransfer>
                    <fefunca type="linear" slope="0.15"></fefunca>
                </fecomponenttransfer>
                <femerge>
                    <femergenode></femergenode>
                    <femergenode in="SourceGraphic"></femergenode>
                </femerge>
            </filter>
        </defs>
    </svg>