<?xml version="1.0" encoding="utf-8"?>
<!-- Generator: Adobe Illustrator 15.1.0, SVG Export Plug-In . SVG Version: 6.00 Build 0)  -->
<svg version="1.2" baseProfile="tiny" id="Layer_12"
	 xmlns="http://www.w3.org/2000/svg" xmlns:xlink="http://www.w3.org/1999/xlink" x="0px" y="0px" width="230px" height="159px"
	 viewBox="0 0 230 159" xml:space="preserve">
<g>
	<path fill="#455E86" d="M46.423,156.802l-43.838-42.73V22.883c0-11.407,10.083-20.688,22.476-20.688l179.877,0.002
		c12.394,0,22.477,9.28,22.477,20.688l0.001,113.228c0,11.409-10.083,20.691-22.477,20.691L46.423,156.802z"/>
	<path fill="#FFFFFF" d="M25.061,4.195l179.877,0.002c11.308,0,20.477,8.365,20.477,18.688l0.001,113.228
		c0,10.321-9.168,18.691-20.477,18.691l-157.702-0.001L4.585,113.229V22.883C4.585,12.56,13.755,4.195,25.061,4.195 M25.061,0.195
		L25.061,0.195c-13.496,0-24.476,10.178-24.476,22.688v90.346v1.687l1.208,1.177l42.651,41.574l1.165,1.136h1.627l157.702,0.001
		c13.496,0,24.477-10.179,24.477-22.691l-0.001-113.228c0-12.51-10.98-22.688-24.477-22.688L25.061,0.195L25.061,0.195z"/>
</g>
<g>
	<path fill="#FFD520" d="M74.17,109.565l4.335-0.429c0.257,1.457,0.785,2.525,1.587,3.212c0.795,0.675,1.87,1.021,3.224,1.021
		c1.432,0,2.517-0.305,3.241-0.916c0.728-0.604,1.094-1.314,1.094-2.125c0-0.522-0.154-0.962-0.462-1.333
		c-0.304-0.37-0.837-0.687-1.602-0.951c-0.52-0.188-1.71-0.505-3.565-0.968c-2.387-0.587-4.062-1.315-5.021-2.179
		c-1.356-1.215-2.034-2.695-2.034-4.438c0-1.126,0.32-2.172,0.956-3.153c0.637-0.974,1.556-1.72,2.752-2.236
		c1.202-0.506,2.645-0.764,4.338-0.764c2.774,0,4.854,0.605,6.255,1.82c1.397,1.215,2.132,2.83,2.203,4.861l-4.451,0.194
		c-0.191-1.133-0.602-1.949-1.228-2.443c-0.628-0.499-1.566-0.745-2.819-0.745c-1.295,0-2.312,0.264-3.042,0.798
		c-0.471,0.335-0.707,0.792-0.707,1.362c0,0.528,0.22,0.975,0.662,1.344c0.56,0.47,1.926,0.962,4.092,1.474
		c2.168,0.511,3.77,1.039,4.807,1.585c1.039,0.546,1.851,1.292,2.44,2.243c0.586,0.951,0.878,2.119,0.878,3.51
		c0,1.263-0.35,2.455-1.053,3.552c-0.703,1.104-1.695,1.926-2.979,2.46c-1.283,0.54-2.885,0.805-4.8,0.805
		c-2.789,0-4.931-0.64-6.425-1.932C75.352,113.91,74.458,112.032,74.17,109.565L74.17,109.565z M95.82,98.592v-3.91h4.225v3.91
		H95.82L95.82,98.592z M95.82,116.74v-15.975h4.225v15.975H95.82L95.82,116.74z M104.063,100.765h3.897v2.171
		c1.391-1.689,3.056-2.541,4.981-2.541c1.022,0,1.91,0.21,2.658,0.634c0.757,0.423,1.373,1.057,1.855,1.907
		c0.699-0.851,1.455-1.484,2.268-1.907c0.816-0.424,1.679-0.634,2.607-0.634c1.168,0,2.167,0.246,2.977,0.722
		c0.81,0.47,1.415,1.174,1.819,2.096c0.288,0.681,0.434,1.785,0.434,3.312v10.216h-4.227v-9.136c0-1.585-0.141-2.606-0.434-3.07
		c-0.394-0.599-0.993-0.904-1.803-0.904c-0.599,0-1.15,0.182-1.674,0.545c-0.519,0.358-0.896,0.893-1.124,1.586
		c-0.232,0.699-0.35,1.802-0.35,3.305v7.674h-4.227v-8.76c0-1.556-0.077-2.554-0.226-3.006c-0.148-0.451-0.385-0.786-0.699-1.009
		c-0.317-0.218-0.744-0.335-1.288-0.335c-0.652,0-1.238,0.176-1.755,0.534c-0.524,0.347-0.898,0.857-1.125,1.515
		c-0.226,0.663-0.338,1.761-0.338,3.293v7.768h-4.227V100.765L104.063,100.765z M145.919,108.626l4.316,1.368
		c-0.664,2.407-1.762,4.198-3.306,5.366c-1.532,1.169-3.493,1.75-5.859,1.75c-2.924,0-5.337-0.998-7.222-2.994
		c-1.885-2.009-2.824-4.745-2.824-8.208c0-3.67,0.945-6.523,2.841-8.555c1.896-2.031,4.386-3.047,7.479-3.047
		c2.695,0,4.885,0.799,6.57,2.396c1.01,0.939,1.755,2.296,2.261,4.063l-4.41,1.05c-0.258-1.145-0.804-2.048-1.638-2.712
		c-0.822-0.664-1.832-0.992-3.012-0.992c-1.632,0-2.965,0.586-3.981,1.761c-1.016,1.175-1.527,3.07-1.527,5.701
		c0,2.789,0.5,4.779,1.51,5.959c0.998,1.186,2.301,1.772,3.903,1.772c1.187,0,2.208-0.375,3.06-1.126
		C144.933,111.427,145.544,110.241,145.919,108.626L145.919,108.626z M157.187,105.638l-3.839-0.699
		c0.434-1.544,1.174-2.684,2.225-3.429c1.056-0.739,2.618-1.115,4.696-1.115c1.885,0,3.289,0.229,4.216,0.675
		c0.916,0.446,1.567,1.01,1.943,1.703c0.376,0.688,0.564,1.943,0.564,3.781l-0.041,4.938c0,1.397,0.064,2.438,0.199,3.106
		c0.136,0.663,0.394,1.379,0.764,2.143h-4.186c-0.106-0.282-0.248-0.699-0.406-1.25c-0.063-0.252-0.117-0.417-0.146-0.5
		c-0.728,0.705-1.498,1.228-2.319,1.585c-0.821,0.346-1.696,0.523-2.636,0.523c-1.638,0-2.941-0.446-3.887-1.339
		s-1.421-2.02-1.421-3.387c0-0.898,0.217-1.703,0.646-2.414c0.434-0.71,1.039-1.245,1.814-1.62c0.774-0.376,1.902-0.704,3.364-0.987
		c1.973-0.37,3.341-0.722,4.104-1.039v-0.423c0-0.815-0.199-1.391-0.598-1.738c-0.405-0.346-1.157-0.522-2.272-0.522
		c-0.758,0-1.339,0.153-1.762,0.452C157.785,104.37,157.445,104.893,157.187,105.638L157.187,105.638z M162.84,109.066
		c-0.539,0.177-1.396,0.394-2.572,0.646c-1.173,0.252-1.937,0.499-2.301,0.734c-0.552,0.399-0.827,0.887-0.827,1.491
		c0,0.594,0.223,1.104,0.664,1.533c0.439,0.434,0.999,0.646,1.685,0.646c0.763,0,1.485-0.247,2.178-0.747
		c0.517-0.381,0.852-0.851,1.01-1.403c0.111-0.358,0.164-1.045,0.164-2.061V109.066L162.84,109.066z M175.21,116.74h-4.227v-15.975
		h3.923v2.266c0.674-1.075,1.279-1.779,1.813-2.12c0.541-0.34,1.145-0.516,1.827-0.516c0.968,0,1.89,0.27,2.783,0.804l-1.31,3.682
		c-0.705-0.458-1.368-0.687-1.979-0.687c-0.599,0-1.098,0.158-1.508,0.488c-0.412,0.322-0.734,0.915-0.969,1.766
		s-0.353,2.637-0.353,5.355V116.74L175.21,116.74z M197.802,116.74h-3.922v-2.349c-0.651,0.916-1.421,1.591-2.312,2.038
		c-0.888,0.447-1.78,0.669-2.684,0.669c-1.837,0-3.411-0.74-4.721-2.22c-1.303-1.479-1.96-3.546-1.96-6.188
		c0-2.712,0.64-4.773,1.908-6.177c1.274-1.409,2.889-2.119,4.832-2.119c1.784,0,3.329,0.745,4.633,2.231v-7.944h4.226V116.74
		L197.802,116.74z M186.524,108.404c0,1.702,0.234,2.936,0.704,3.704c0.681,1.098,1.638,1.65,2.859,1.65
		c0.975,0,1.802-0.417,2.483-1.239c0.682-0.828,1.022-2.067,1.022-3.711c0-1.831-0.335-3.159-0.993-3.963
		c-0.663-0.811-1.509-1.215-2.548-1.215c-0.998,0-1.837,0.404-2.512,1.197C186.859,105.626,186.524,106.818,186.524,108.404
		L186.524,108.404z"/>
	<path fill-rule="evenodd" fill="#FFD520" d="M72.847,44.612c2.418,0.808,4.444,2.02,6.064,3.637l-5.66,27.875
		c-2.791,1.479-8.043,0.639-8.819,0.417l3.469-16.65c-2.117,1.23-4.508,2.541-7.696,4.356c-2.012-2.02-3.521-5.089-3.927-7.51
		C62.215,53.176,67.898,49.551,72.847,44.612L72.847,44.612z"/>
	<path fill="#FFFFFF" d="M96.011,74.087h5.704v2.601c0.853-1.062,1.715-1.819,2.587-2.277c0.874-0.456,1.936-0.688,3.189-0.688
		c1.696,0,3.02,0.511,3.979,1.515c0.955,1.01,1.435,2.565,1.435,4.668v10.157h-6.153v-8.783c0-1.004-0.185-1.709-0.555-2.126
		c-0.374-0.423-0.893-0.628-1.566-0.628c-0.74,0-1.344,0.282-1.801,0.84c-0.463,0.563-0.694,1.573-0.694,3.029v7.667h-6.125V74.087
		L96.011,74.087z M134.295,83.592h-12.271c0.105,0.986,0.376,1.714,0.799,2.201c0.586,0.693,1.362,1.034,2.313,1.034
		c0.599,0,1.175-0.146,1.715-0.452c0.333-0.188,0.686-0.523,1.068-1.004l6.036,0.552c-0.929,1.608-2.032,2.759-3.341,3.458
		c-1.304,0.693-3.171,1.045-5.613,1.045c-2.113,0-3.775-0.299-4.997-0.898c-1.21-0.593-2.216-1.543-3.013-2.841
		c-0.796-1.303-1.195-2.824-1.195-4.58c0-2.501,0.799-4.521,2.398-6.059c1.599-1.549,3.812-2.325,6.63-2.325
		c2.284,0,4.093,0.349,5.414,1.045c1.321,0.687,2.337,1.69,3.023,3c0.694,1.315,1.034,3.029,1.034,5.131V83.592L134.295,83.592z
		 M128.071,80.663c-0.123-1.187-0.44-2.038-0.951-2.542c-0.523-0.517-1.198-0.769-2.037-0.769c-0.981,0-1.755,0.388-2.343,1.157
		c-0.364,0.487-0.605,1.197-0.699,2.155H128.071L128.071,80.663z"/>
	<path fill-rule="evenodd" fill="#FFFFFF" d="M65.882,35.238c2.83,0,6.06,0.405,8.89,1.215c-10.06,9.61-23.465,17.941-37.986,25.053
		C38,46.554,50.523,35.238,65.882,35.238L65.882,35.238z M86.49,43.722L86.49,43.722c5.254,5.254,8.489,12.532,8.489,20.607
		c0,12.124-7.679,22.633-18.595,27.083L86.49,43.722L86.49,43.722z M60.627,93.021L60.627,93.021
		c-10.104-2.013-18.582-8.889-22.222-18.587c4.85-1.209,8.889-2.827,12.929-4.442c2.026,4.847,6.47,8.892,12.124,9.696
		L60.627,93.021L60.627,93.021z"/>
</g>
</svg>
