<svg version="1.1" id="Layer_1" xmlns="http://www.w3.org/2000/svg" x="0" y="0" viewBox="0 0 500 677" xml:space="preserve">
  <style>
    .st1{opacity:.8;fill:#ffa101;enable-background:new}.st2,.st3,.st4,.st5,.st6,.st7,.st8{opacity:.8;fill:#f7ed00;enable-background:new}.st3,.st4,.st5,.st6,.st7,.st8{fill:#b5dd01}.st4,.st5,.st6,.st7,.st8{fill:#60c660}.st5,.st6,.st7,.st8{fill:#668fd1}.st6,.st7,.st8{fill:#9869bc}.st7,.st8{fill:#d35f99}.st8{fill:#e54838}
    .befunky-b { fill: #1D1B2F }
    @media (prefers-color-scheme: dark) {
      .befunky-b { fill: #f2f3f5 }
    }
  </style>
  <g id="Camera_lens">
    <path fill="none" d="M311.1 401.9l-36-36h-50.8l-36 35.9v50.8l36 36h50.8l36-36z"/>
    <path class="st1" d="M275.1 365.9l35.9 35.9V210.1a224.2 224.2 0 00-152 10.7l145 145h-28.9z"/>
    <path class="st2" d="M311.1 401.9v50.8L446.7 317a226.1 226.1 0 00-115.1-100.1v205.2l-20.5-20.2z"/>
    <path class="st1" d="M331.5 422.2V217.1a205 205 0 00-20.5-6.8v191.6l20.5 20.3z"/>
    <path class="st2" d="M331.5 422.2V217.1a205 205 0 00-20.5-6.8v191.6l20.5 20.3z"/>
    <path class="st3" d="M311.1 452.6l-35.9 35.9h191.7a226.7 226.7 0 00-10.5-152.2L311.1 481.6v-29z"/>
    <path class="st2" d="M311.1 481.6l145.2-145.2a231 231 0 00-9.6-19.3L311.1 452.6v29z"/>
    <path class="st3" d="M311.1 481.6l145.2-145.2a231 231 0 00-9.6-19.3L311.1 452.6v29z"/>
    <path class="st4" d="M254.7 509.1l20.5-20.5h-50.9L359.7 624c45.4-25.4 81.2-66 100.3-114.9H254.7z"/>
    <path class="st3" d="M254.7 509.1H460c2.6-6.7 4.9-13.5 6.9-20.5H275.1l-20.4 20.5z"/>
    <path class="st4" d="M254.7 509.1H460c2.6-6.7 4.9-13.5 6.9-20.5H275.1l-20.4 20.5z"/>
    <path class="st5" d="M224.3 488.6l-36-36v191.2c19.6 5.6 40.3 8.5 61.7 8.5a223 223 0 0090.3-18.9l-145-145h29v.2z"/>
    <path class="st4" d="M195.4 488.6l145 145c6.6-2.9 13.1-6.1 19.3-9.6L224.3 488.6h-28.9z"/>
    <path class="st5" d="M195.4 488.6l145 145c6.6-2.9 13.1-6.1 19.3-9.6L224.3 488.6h-28.9z"/>
    <path class="st6" d="M188.3 452.6v-50.9L53.2 536.9c25.3 45.3 65.8 81 114.6 100.1V432.2l20.5 20.4z"/>
    <path class="st5" d="M188.3 452.6l-20.5-20.5v204.8c6.7 2.6 13.5 4.9 20.5 6.9V452.6z"/>
    <path class="st6" d="M188.3 452.6l-20.5-20.5v204.8c6.7 2.6 13.5 4.9 20.5 6.9V452.6z"/>
    <path class="st7" d="M188.3 401.8l35.9-35.9H33.1a225.2 225.2 0 0010.5 151.8L188.3 373v28.8z"/>
    <path class="st6" d="M188.4 372.9L43.6 517.5c2.9 6.6 6.1 13.1 9.6 19.3l135.1-135.1.1-28.8z"/>
    <path class="st7" d="M188.4 372.9L43.6 517.5c2.9 6.6 6.1 13.1 9.6 19.3l135.1-135.1.1-28.8z"/>
    <path class="st8" d="M224.3 365.9h50.9L139.8 230.6a226.6 226.6 0 00-99.9 114.9h204.8l-20.4 20.4z"/>
    <path class="st1" d="M304.1 365.9l-145-145a231 231 0 00-19.3 9.6l135.3 135.3 29 .1z"/>
    <path class="st8" d="M304.1 365.9l-145-145a231 231 0 00-19.3 9.6l135.3 135.3 29 .1z"/>
    <path class="st7" d="M244.7 345.5H40c-2.6 6.7-4.9 13.5-6.9 20.5h191.2l20.4-20.5z"/>
    <path class="st8" d="M244.7 345.5H40c-2.6 6.7-4.9 13.5-6.9 20.5h191.2l20.4-20.5z"/>
    <path class="befunky-b" d="M250 177.1A250 250 0 0039.3 292.7V-1.1H0V427c0 137.9 112.1 250 250 250s250-112.1 250-250-112.1-249.9-250-249.9zm0 460.7c-116.2 0-210.7-94.5-210.7-210.7S133.8 216.3 250 216.3 460.7 310.8 460.7 427 366.2 637.8 250 637.8z"/>
  </g>
</svg>
