<svg height="33" width="262" viewbox="0 0 262 33" xmlns="http://www.w3.org/2000/svg">
          <g fill="none">
            <path d="M27.2409 18.5865a4.2779 4.2779 0 00-4.6895.1674.8562.8562 0 01-.9242.0483l-4.2494-2.4534a.107.107 0 010-.1852l4.2254-2.4396a.8564.8564 0 01.9285.0513 4.2777 4.2777 0 004.7012.1866c1.9355-1.1946 2.6154-3.684 1.5557-5.6965-.9634-1.7847-3.0476-2.6475-4.9905-2.066-1.943.5814-3.2106 2.4473-3.0352 4.4678a.8574.8574 0 01-.421.821l-4.2476 2.4524a.107.107 0 01-.1604-.0926V8.941a.8562.8562 0 01.504-.7763c1.8261-.8398 2.8214-2.8377 2.3917-4.8013S16.661 0 14.651 0c-2.01 0-3.7492 1.3988-4.1795 3.3622-.4303 1.9635.5644 3.9617 2.3903 4.802a.8575.8575 0 01.5052.7771v4.9067a.107.107 0 01-.1604.0926l-4.2479-2.4525a.856.856 0 01-.4209-.8193c.1735-2.002-1.0701-3.8546-2.9885-4.4523C3.6309 5.6187 1.5551 6.437.5606 8.183c-.9944 1.746-.6392 3.9489.8536 5.2939 1.4928 1.345 3.7206 1.4695 5.354.299a.8575.8575 0 01.9295-.052l4.2254 2.4396a.107.107 0 010 .1852l-4.2494 2.4534a.8562.8562 0 01-.9242-.0483 4.2779 4.2779 0 00-4.6895-.1674C.13 19.7833-.546 22.2689.5123 24.2783c.9661 1.7886 3.0573 2.6505 5.0031 2.062 1.9458-.5886 3.2088-2.465 3.0216-4.4892a.8575.8575 0 01.4203-.826l4.2493-2.4533a.107.107 0 01.1604.0926v4.9068a.8562.8562 0 01-.5039.7763c-1.8262.8398-2.8215 2.8378-2.3918 4.8014.4297 1.9636 2.1684 3.3635 4.1785 3.3635s3.7493-1.3988 4.1796-3.3622-.5644-3.9617-2.3903-4.802a.8575.8575 0 01-.5052-.7772v-4.9066a.107.107 0 01.1604-.0926l4.2493 2.4533a.8575.8575 0 01.4203.826c-.1871 2.0242 1.0758 3.9006 3.0216 4.4892 1.9458.5885 4.037-.2734 5.003-2.062 1.0583-2.0094.3824-4.495-1.5476-5.6918z" fill="#992977"></path>
            <path d="M192.169 11.51a6.2928 6.2928 0 015.6489 3.1705v-2.0753a.7042.7042 0 01.7493-.778h.6628a.7126.7126 0 01.7783.778v13.431c0 4.6111-3.3722 6.9457-7.4358 6.9457a9.3659 9.3659 0 01-5.5627-1.5567.7489.7489 0 01-.2303-1.0662l.2018-.3455c.2303-.4904.5761-.5476 1.0376-.2311a8.0134 8.0134 0 004.5536 1.2684c3.1125 0 5.2454-1.9022 5.2454-5.1878v-2.4788a6.2402 6.2402 0 01-5.6488 3.1415c-4.352 0-7.1765-3.3718-7.1765-7.4933 0-4.1216 2.7666-7.5224 7.1765-7.5224zm-58.9605 2.9494l.1322.221v-2.0752a.7042.7042 0 01.646-.7776l.1034-.0003h.6632a.7125.7125 0 01.7803.6724l-.0024.1055v12.8253a.7126.7126 0 01-.6724.7807l-.1055-.0023h-.6632a.6915.6915 0 01-.755-.6744l.0056-.104v-2.0463a6.2402 6.2402 0 01-5.6488 3.1415c-4.3523 0-7.1765-3.3718-7.1765-7.4933 0-4.1216 2.767-7.5224 7.1765-7.5224a6.2933 6.2933 0 015.5166 2.9494zm-41.9492-3.3819c4.6982 0 8.2141 3.4588 8.2141 7.7246 0 4.2653-3.516 7.7236-8.2141 7.7236-4.6973 0-8.2137-3.4298-8.2137-7.7236 0-4.2658 3.5164-7.7246 8.2137-7.7246zm-26.9497 0c4.6982 0 8.2141 3.4588 8.2141 7.7246 0 4.2653-3.516 7.7236-8.2141 7.7236-4.6973 0-8.2137-3.4298-8.2137-7.7236 0-4.2658 3.5164-7.7246 8.2137-7.7246zM52.0882 7.2733a1.2208 1.2208 0 01.4379 1.8207l-.0925.1104-.7203.922c-.5186.7209-1.1238.7784-1.9307.4035a7.4972 7.4972 0 00-3.8047-.8359 6.2583 6.2583 0 00-6.283 6.4272 6.1997 6.1997 0 006.4847 6.4271 7.7719 7.7719 0 003.2157-.6659l.3007-.141V18.629h-3.4874a1.2682 1.2682 0 01-1.4185-1.2405l.006-.143v-.6338a1.268 1.268 0 011.2696-1.3924l.143.009h6.369a1.2679 1.2679 0 011.4186 1.2404l-.006.143v5.8216a1.991 1.991 0 01-.8935 1.758 11.616 11.616 0 01-7.0033 2.3345c-6.5138 0-10.9812-4.7263-10.9812-10.3755 0-5.7064 4.554-10.4332 10.8656-10.4332a11.6062 11.6062 0 016.1103 1.5563zm33.608-.8861a1.268 1.268 0 01.3804.8872l-.006.143v1.0952a1.268 1.268 0 01-1.2692 1.3925l-.1429-.009h-4.6687v14.9292a1.247 1.247 0 01-1.2417 1.392l-.1418-.0084h-1.7295a1.2468 1.2468 0 01-1.392-1.2418l.0085-.1418V9.8962h-4.6116a1.2467 1.2467 0 01-1.3916-1.2418l.0085-.1418V7.4174a1.2467 1.2467 0 011.2413-1.392l.1418.0085h13.7768a1.268 1.268 0 011.0377.3533zm90.8216 5.1228c2.9904 0 5.5938 1.7117 5.7033 6.2428l.0036.2995v7.3782a.7127.7127 0 01-.6727.7808l-.1057-.0024h-.6627a.7127.7127 0 01-.7808-.6728l.0024-.1056v-7.3782c0-3.487-1.8155-4.5822-3.6315-4.5822-1.5511 0-4.704 1.0765-4.8643 5.4726l-.0062.2914v6.1964a.7127.7127 0 01-.6727.7808l-.1056-.0024h-.6628a.7048.7048 0 01-.7528-.675l.0035-.1034V12.6052a.7187.7187 0 01.6467-.7753l.1026-.0026h.6628a.7126.7126 0 01.7807.6723l-.0024.1056v2.277c.701-1.9559 2.5108-3.2753 4.5565-3.3713l.2282-.0056zM112.873 6.2393a.7127.7127 0 01.2078.4673l-.0024.1056v.346a.7048.7048 0 01-.675.7527l-.1033-.0035h-6.2544v17.5231a.7126.7126 0 01-.6723.7807l-.1056-.0023h-.7208a.7126.7126 0 01-.7803-.6728l.0024-.1056V7.9075h-6.2254a.7048.7048 0 01-.778-.646l-.0004-.1034v-.3459a.7127.7127 0 01.6727-.7807l.1057.0024H112.3a.7127.7127 0 01.573.2054zm5.9417 5.2707c.2315.0061.4625.0255.6918.058.396.079.5017.3762.5166.758l.002.106v.6057c0 .5476-.2018.7779-.5767.6628a7.571 7.571 0 00-.7779-.0576c-1.8069 0-3.9457 1.549-4.0591 6.7594l-.0044.3305v4.6977a.7128.7128 0 01-.6732.7808l-.1056-.0024h-.6628a.7045.7045 0 01-.7524-.675l.0035-.1034V12.6052a.7184.7184 0 01.6464-.7753l.1025-.0026h.6628a.7127.7127 0 01.7811.6723l-.0023.1056v2.709c.5472-2.3345 2.1034-3.8042 4.2077-3.8042zm34.2422-.0047l.2299.0047c2.9903 0 5.5938 1.7117 5.7033 6.2428l.0036.2995v7.3782a.7127.7127 0 01-.6728.7808l-.1056-.0024h-.6628a.7127.7127 0 01-.7808-.6728l.0025-.1056v-7.3782c0-3.487-1.8156-4.5822-3.6316-4.5822-1.551 0-4.704 1.0765-4.8643 5.4726l-.0062.2914v6.1964a.7127.7127 0 01-.6727.7808l-.1056-.0024h-.6628a.7048.7048 0 01-.7528-.675l.0035-.1034V12.6052a.7188.7188 0 01.6467-.7753l.1026-.0026h.6628a.7126.7126 0 01.7807.6723l-.0024.1056v2.277c.701-1.9559 2.5109-3.2753 4.5566-3.3713zm-11.9041.322a.7047.7047 0 01.7528.6746l-.0035.1033v12.8253a.7048.7048 0 01-.646.7779l-.1033.0005h-.6628a.7127.7127 0 01-.7807-.6728l.0024-.1056-.0002-12.9301a.7263.7263 0 01.6737-.6734zm23.2312 0a.7048.7048 0 01.7531.6746l-.0034.1033v12.8253a.705.705 0 01-.6463.778l-.1034.0004h-.6628a.7124.7124 0 01-.7804-.6728l.0025-.1056-.0002-12.9301a.726.726 0 01.6733-.6733zm28.0155 1.6428c-3.3143 0-5.2164 2.536-5.2164 5.5623 0 3.0263 1.9311 5.5336 5.2454 5.5336a5.2677 5.2677 0 005.4185-5.5336c0-3.1705-2.1905-5.5623-5.4475-5.5623zm-64.4768 0c-3.3146 0-5.2167 2.536-5.2167 5.5623 0 3.0263 1.931 5.5336 5.2453 5.5336a5.268 5.268 0 005.4185-5.5336c0-3.1705-2.1904-5.5623-5.447-5.5623zm-66.6912 2.4825a4.109 4.109 0 003.0782 6.9706 3.9757 3.9757 0 003.9774-4.0926 4.109 4.109 0 00-7.0556-2.878zm26.9497 0a4.109 4.109 0 003.0782 6.9706 3.9757 3.9757 0 003.9774-4.0926 4.109 4.109 0 00-7.0556-2.878zm52.6257-10.5525a1.5769 1.5769 0 011.5853 1.6429A1.629 1.629 0 11140.8068 5.4zm23.2316 0a1.5768 1.5768 0 011.5848 1.6429A1.629 1.629 0 11164.0384 5.4z" fill="#53565a"></path>
            <path d="M226.9743 19.2888a.2729.2729 0 01.1018.2038v5.956c0 1.6008-.733 3.149-3.4455 3.149h-.0327c-1.7901 0-2.7707-.9042-2.9926-1.801a.2872.2872 0 01.0328-.2547.3468.3468 0 01.2055-.1128c.0892-.0182 1.237 0 1.2844 0a.3275.3275 0 01.2637.1364c.2918.5842.9355.9041 1.5773.7841a1.4044 1.4044 0 001.3062-1.2116c.0181-.0818.069-.7094.069-.7094.0183-.1638 0-.273-.0909-.3275a.2039.2039 0 00-.16 0 .2365.2365 0 00-.0892.051 2.6123 2.6123 0 01-1.741.673c-1.57 0-2.938-1.0515-2.938-3.4855v-.3275c.0619-.7931.624-2.9925 2.9399-2.9925a2.2486 2.2486 0 011.7209.6858.2001.2001 0 00.1728.0782c.1146-.0127.1692-.14.1965-.2965v-.0891a.3275.3275 0 01.071-.1237.38.38 0 01.1928-.0583h1.1643a.2913.2913 0 01.191.0728zm-3.2655 5.1392h-.0036c.9496 0 1.61-.7804 1.6263-2.1485 0-1.246-.9205-1.8592-1.6336-1.8592-.7931 0-1.5208.624-1.5208 1.8447 0 1.4735.6458 2.1648 1.5317 2.1648zm-7.4495-5.3902a3.4055 3.4055 0 013.5401 3.531v.02c0 2.4923-1.7282 3.6275-3.5401 3.6275-1.8138 0-2.7743-.9933-3.2309-1.9939a3.9658 3.9658 0 01-.3093-1.6663c0-1.1243.6295-3.5183 3.4929-3.5183zm-.0637 5.7886c.7095 0 1.7464-.3875 1.7464-2.1794 0-1.419-.693-2.2048-1.6081-2.2048-.915 0-1.7701.6003-1.7701 2.1957 0 1.5936.895 2.1885 1.6318 2.1885zm44.2244-9.0359a.8687.8687 0 110-1.7373.8687.8687 0 010 1.7373zm0-1.6009a.7313.7313 0 100 1.4627.7313.7313 0 000-1.4627zM212.5645 24.408a.297.297 0 01.0746.2037v1.0588a.382.382 0 010 .1455.3567.3567 0 01-.3275.2002l-5.2665-.0182c-.0837-.011-.1583-.0546-.2056-.1274a.375.375 0 01-.0527-.2037v-8.7394a.4111.4111 0 01.0455-.1855.3275.3275 0 01.2128-.131h1.5154a.2386.2386 0 01.202.0982.4048.4048 0 01.069.2438v6.842a1.4279 1.4279 0 000 .1764c0 .0527.0128.1037.0328.1528a.382.382 0 00.3693.1728h2.8961c.091.0037.182.0146.273.0328a.288.288 0 01.1636.0782zm29.2725-5.3848c2.5032-.0728 3.462 2.103 3.4383 3.462 0 .109-.0055.2182-.0182.3274-.0055.0655-.04.1273-.091.171a.4402.4402 0 01-.1928.0727 2.127 2.127 0 01-.2638 0h-3.9822a.4352.4352 0 00-.1455.0328.3275.3275 0 00-.2001.3274v.0965c.0454.4511.4184 1.308 1.6973 1.308a1.6309 1.6309 0 001.3061-.615c.031-.0363.0655-.0854.0946-.1182a.419.419 0 01.2875-.1564h1.1151a.1567.1567 0 01.1365.14.187.187 0 010 .0637.329.329 0 01-.0182.1565c-.0837.222-.7077 1.921-3.0217 1.921-3.1818 0-3.5092-2.7615-3.5092-3.5947 0-1.408.9387-3.522 3.3673-3.5929zm1.4444 2.7524a.3456.3456 0 00.0255-.3292 1.4499 1.4499 0 00-1.3516-1.0552 1.5154 1.5154 0 00-1.539 1.1334.5056.5056 0 000 .1655.2365.2365 0 00.0854.131c.0892.051.1892.0728.291.0691h2.2177a.3275.3275 0 00.271-.1146zm18.1391-.3529a7.8407 7.8407 0 11-15.6795.0018c0-4.3303 3.5104-7.8407 7.8407-7.8407s7.8406 3.5104 7.8406 7.8407zm-10.5385 4.5534a.6076.6076 0 00.051-.3056v-8.612a.4366.4366 0 00-.0728-.2383.242.242 0 00-.1983-.0983h-1.4754a.3276.3276 0 00-.242.1365c-.0545.1128-.0727.2365-.0618.3602v8.3464c0 .0928.0055.1856.0164.2783 0 .0728.029.1456.0782.2001a.382.382 0 00.202.0764h1.4334a.3467.3467 0 00.2693-.1437zm7.7424-.1782c.0037-.1547.0073-4.0477.0073-4.2024a3.1973 3.1973 0 00-.3565-1.519 1.892 1.892 0 00-.8332-.7404 3.14 3.14 0 00-2.6342.1274 3.039 3.039 0 00-.484.4074.1674.1674 0 01-.1309.0655c-.1728-.0036-.2292-.4075-.2292-.4566-.0328-.2037-.2929-.2037-.5057-.2037h-.7514c-.2092 0-.3238.0327-.3747.1055-.0473.0546-.0728.1273-.0764.2001v6.067a.5385.5385 0 00.0891.3456.293.293 0 00.2129.091c.0946.0236 1.1715.0327 1.3061 0a.2836.2836 0 00.211-.1728.4366.4366 0 00.04-.1947v-2.7033a9.7991 9.7991 0 01.082-1.3062 1.3062 1.3062 0 011.3352-1.1533 1.146 1.146 0 011.2152 1.146c.04.2784.04.5785.04.906v3.169a.3932.3932 0 00.062.202.2682.2682 0 00.1891.1146c.4641.026.9294.026 1.3935 0a.2778.2778 0 00.1928-.2966zm-20.9679.2183l-1.2552-.0128a.3456.3456 0 01-.3056-.131.2656.2656 0 01-.051-.1728v-5.4284a2.3373 2.3373 0 000-.2765c-.0109-.0728-.0491-.0874-.0764-.0946-.0255-.0055-.0873.0454-.1037.0454a.8786.8786 0 00-.1146.1929c-.3274.7968-1.5881 4.6935-1.9592 5.6485a.2872.2872 0 01-.2493.2165h-1.208c-.151 0-.2582-.1273-.3274-.291-.0254-.0546-1.892-5.3284-1.892-5.3448a1.3062 1.3062 0 00-.1455-.3038l-.0509-.0455a.1818.1818 0 00-.0655-.0255c-.0782-.0109-.1091.091-.1091.1601v5.5504a.2737.2737 0 01-.051.1746.262.262 0 01-.2.1164.4985.4985 0 01-.2257.02h-1.1624a.3275.3275 0 01-.2001-.0727.2986.2986 0 01-.091-.2056 2.6742 2.6742 0 010-.2838V17.095a1.9712 1.9712 0 010-.2074.4994.4994 0 01.04-.1528.3275.3275 0 01.2129-.131.0812.0812 0 01.051 0h2.2157a.5458.5458 0 01.3274.091.3657.3657 0 01.1274.1928c.0273.0855 1.8137 5.3266 1.8665 5.4666.0873.273.2055.4566.2583.4566.0527 0 .1019-.0454.1437-.1328.0182-.0236 1.79-5.483 1.8356-5.6212l.0782-.2147a.3442.3442 0 01.1437-.1728.3275.3275 0 01.2056-.0655h2.2867a.291.291 0 01.1892.0527.3054.3054 0 01.1455.2966v8.7866c0 .0764-.0291.151-.0837.2038a.3329.3329 0 01-.2.0728zM220.1796 8.4465c.1601 0 .2693.16.2129.3092l-2.4723 6.5564-.4803 1.1824s-.282.684-1.1643.9842a3.2563 3.2563 0 01-.8622.1456c-.1965 0-.744-.0255-.744-.0255-.3603 0-.5295-.251-.5204-.5421l-.0073-.615a.373.373 0 01.3839-.362s.2892.0146.3857.0146c.0636 0 .2583-.0127.2583-.0127.5148-.0364.8732-.5276.7477-1.0279a7.6772 7.6772 0 00-.2838-.946 931.8306 931.8306 0 01-2.0302-5.3574c-.0564-.1456.0509-.3038.2092-.3038h1.3207a.4826.4826 0 01.4548.3201l1.419 3.9568 1.468-3.984a.4475.4475 0 01.4203-.2911zm-9.9637 5.5994c.9824 0 1.5846-.926 1.5846-2.1666 0-1.2425-.5822-2.1885-1.6046-2.1885-1.0642 0-1.5863.946-1.5863 2.1885 0 1.2407.5821 2.1666 1.6063 2.1666zm2.929-4.3551a4.9318 4.9318 0 01.522 2.1284c0 .8423-.22 2.0066-.8823 2.7288-.6621.724-1.4662.9041-2.1466.9041-.684 0-1.5263-.4002-1.8665-.7422-.0546-.0546-.1492-.0254-.1637.051l-.0273.18a.3677.3677 0 01-.3638.3093h-1.0042a.4068.4068 0 01-.4075-.4075V6.2798a.422.422 0 01.422-.422h1.0224c.221 0 .4002.1792.4002.4002v2.5996c0 .0982.1055.1637.1947.12l.1055-.0545c.3511-.2656 1.0187-.6567 1.8683-.6567 1.2843 0 2.0866.9641 2.3286 1.4244zm46.9931 4.7717h.2638c.06 0 .111.0055.1546.0182.0419.011.0782.0273.1055.0491a.2001.2001 0 01.0637.0782.2547.2547 0 01.0182.1037.2329.2329 0 01-.0619.1638.217.217 0 01-.071.0545c-.0272.0164-.06.0273-.0963.0364a.1345.1345 0 01.0418.0364l.2729.3584h-.1128a.059.059 0 01-.051-.0255l-.2419-.322a.0862.0862 0 00-.0236-.0218.091.091 0 00-.04-.0055h-.0965v.3748h-.1255zm.1273.0964v.3384h.1328a.3174.3174 0 00.0965-.0127.2001.2001 0 00.0709-.0364.1688.1688 0 00.0418-.0546.1996.1996 0 00.0146-.0728c0-.0545-.0182-.0946-.0546-.1218a.2729.2729 0 00-.1637-.04z" fill="#a7a8aa"></path>
          </g>
        </svg>