<svg version="1.1" xmlns="http://www.w3.org/2000/svg"><svg class="footer-icon tcom-icon-16" tabindex="-1" role="presentation" focusable="false" aria-label="navigates to external site on same page">
                                    <use xlink:href="/etc/designs/telstra/core/icons/tcom-icons.sprite.svg#icon-ui-external-link">
                                    </use>
                                </svg></svg>