<?xml version="1.0" encoding="utf-8"?>
<!-- Generator: Adobe Illustrator 24.0.1, SVG Export Plug-In . SVG Version: 6.00 Build 0)  -->
<svg version="1.1" id="Logo" xmlns="http://www.w3.org/2000/svg" xmlns:xlink="http://www.w3.org/1999/xlink" x="0px" y="0px"
	 viewBox="0 0 160 40" style="enable-background:new 0 0 160 40;" xml:space="preserve">
<style type="text/css">
	.st0{fill:#FF6720;}
	.st1{fill-rule:evenodd;clip-rule:evenodd;fill:#464653;}
</style>
<g>
	<g>
		<path class="st0" d="M25.3,0l-6.7,4.4V28l0,0c0,2.2-1.1,4.2-2.8,5.4c-1.6-1.3-2.5-3.3-2.5-5.4v-1.3c0-1.3-1.3-2.7-1.3-4
			c0-0.9,0.6-1.9,1-2.8c0.2-0.4,0.3-0.8,0.3-1.2c0-1.5-1.2-2.7-2.7-2.7S8,17.2,8,18.7c0,0.4,0.1,0.9,0.3,1.2c0.4,0.9,1,1.9,1,2.8
			c0,1.3-1.3,2.7-1.3,4V28c0,2.4,0.7,4.6,2,6.4C7.3,33.5,5.3,31,5.3,28l0,0v-1.3c0-1.3-1.3-2.7-1.3-4c0-0.9,0.6-1.9,1-2.8
			c0.2-0.4,0.3-0.8,0.3-1.2c0-1.5-1.2-2.7-2.7-2.7C1.2,16,0,17.2,0,18.7c0,0.4,0.1,0.9,0.3,1.2c0.4,0.9,1,1.9,1,2.8
			c0,1.3-1.3,2.7-1.3,4V28l0,0c0,6.6,5.4,12,12,12s12-5.4,12-12l0,0V7l1.3-0.9L26.7,7c0,0,0,20.6,0,20.7c0,4.4-1.3,8.9-6.4,12
			c5.2,0,11.6-5.8,11.7-13.3v-22L25.3,0z"/>
		<ellipse class="st0" cx="10.7" cy="11.4" rx="2.7" ry="2.7"/>
		<ellipse class="st0" cx="10.7" cy="4.2" rx="2.7" ry="2.7"/>
		<circle class="st0" cx="2.7" cy="11.5" r="2.7"/>
		<circle class="st0" cx="2.7" cy="4.3" r="2.7"/>
	</g>
</g>
<g>
	<g>
		<path id="SVGID_1_" class="st1" d="M92.9,15h-3.1v3.9h3.1c1.3,0,2.1-0.8,2.1-2S94.1,15,92.9,15z M119.8,14.7
			c-1.3,0-2.2,0.6-2.6,1.9c-0.2,0.5-0.3,1.2-0.3,3.4s0.1,2.9,0.3,3.4c0.4,1.2,1.3,1.9,2.6,1.9c1.3,0,2.2-0.6,2.6-1.9
			c0.2-0.5,0.3-1.2,0.3-3.4s-0.1-2.9-0.3-3.4C122.1,15.3,121.2,14.7,119.8,14.7z M159.6,12.2c0.2,0,0.4,0.2,0.4,0.4v1.9
			c0,0.2-0.2,0.4-0.4,0.4h-6.8v3.6h5.7c0.2,0,0.4,0.2,0.4,0.4v1.9c0,0.2-0.2,0.4-0.4,0.4h-5.7v3.7h6.8c0.2,0,0.4,0.2,0.4,0.4v1.9
			c0,0.2-0.2,0.4-0.4,0.4h-9.4c-0.2,0-0.4-0.2-0.4-0.4V12.6c0-0.2,0.2-0.4,0.4-0.4C150.2,12.2,159.6,12.2,159.6,12.2z M131.8,12.2
			c0.2,0,0.4,0.2,0.4,0.4v14.7c0,0.2-0.2,0.4-0.4,0.4h-2.2c-0.2,0-0.4-0.2-0.4-0.4V12.6c0-0.2,0.2-0.4,0.4-0.4
			C129.6,12.2,131.8,12.2,131.8,12.2z M102.3,12.2c0.2,0,0.4,0.1,0.5,0.4l3.2,10.3l3.1-10.3c0.1-0.2,0.2-0.3,0.5-0.3h2.1
			c0.1,0,0.2,0.1,0.3,0.1c0.1,0.1,0.1,0.2,0,0.3l-4.8,14.7c-0.1,0.2-0.2,0.3-0.4,0.3H105c-0.2,0-0.4-0.1-0.4-0.3l-4.7-14.7
			c0-0.1,0-0.2,0-0.3c0.1-0.1,0.2-0.1,0.3-0.1L102.3,12.2L102.3,12.2z M92.9,12.2c2.9,0,5,2,5,4.7c0,1.9-1,3.5-2.8,4.3l3.1,6
			c0.1,0.1,0.1,0.3,0,0.4s-0.2,0.2-0.3,0.2h-2.4c-0.2,0-0.4-0.1-0.5-0.3l-2.8-5.8h-2.4v5.7c0,0.2-0.2,0.4-0.4,0.4h-2.2
			c-0.2,0-0.4-0.2-0.4-0.4V12.6c0-0.2,0.2-0.4,0.4-0.4C87.2,12.2,92.9,12.2,92.9,12.2z M83,12.2c0.2,0,0.4,0.2,0.4,0.4v1.9
			c0,0.2-0.2,0.4-0.4,0.4h-6.8v3.6h5.7c0.2,0,0.4,0.2,0.4,0.4v1.9c0,0.2-0.2,0.4-0.4,0.4h-5.7v3.7H83c0.2,0,0.4,0.2,0.4,0.4v1.9
			c0,0.2-0.2,0.4-0.4,0.4h-9.4c-0.2,0-0.4-0.2-0.4-0.4V12.6c0-0.2,0.2-0.4,0.4-0.4C73.6,12.2,83,12.2,83,12.2z M141.5,12
			c2.4,0,4.3,1.2,5.2,3.4c0.1,0.2,0,0.4-0.2,0.5l-1.9,0.9c-0.1,0.1-0.2,0.1-0.3,0c-0.1,0-0.2-0.1-0.2-0.2c-0.6-1.2-1.4-1.8-2.6-1.8
			c-1.3,0-2.1,0.6-2.5,1.9c-0.2,0.6-0.3,1.2-0.3,3.4v0.3c0,2,0.1,2.6,0.3,3.1c0.4,1.3,1.3,1.9,2.5,1.9s2.1-0.6,2.6-1.9
			c0-0.1,0.1-0.2,0.2-0.2c0.1,0,0.2,0,0.3,0l1.9,0.9c0.2,0.1,0.3,0.3,0.2,0.5c-0.9,2.1-2.8,3.4-5.2,3.4c-2.7,0-4.6-1.4-5.4-3.8
			c-0.3-1-0.4-1.8-0.4-4.2v-0.3c0-2.1,0.1-2.9,0.4-3.9C136.9,13.4,138.8,12,141.5,12z M64.2,12c1.8,0,3.7,0.6,5,1.6
			c0.2,0.2,0.2,0.3,0.1,0.6l-1.1,1.6C68,16,67.8,16,67.7,15.9c-1.2-0.8-2.3-1.2-3.5-1.2c-1.3,0-2.2,0.7-2.2,1.8
			c0,0.7,0.3,1.5,2.6,1.9l0.8,0.1c3.1,0.4,4.6,2,4.6,4.6c0,3-2.2,4.9-5.8,4.9c-2.1,0-4.3-0.8-5.6-2.1c-0.2-0.2-0.2-0.4-0.1-0.6
			l1.4-1.6c0.1-0.1,0.2-0.1,0.3-0.1s0.2,0,0.3,0.1c0.9,0.7,2.3,1.6,4,1.6c1.6,0,2.6-0.8,2.6-2c0-0.8-0.3-1.6-2.6-1.9l-0.8-0.1
			c-3.1-0.4-4.7-2-4.7-4.5C58.9,13.9,61.1,12,64.2,12z M46.6,12.2c0.2,0,0.4,0.2,0.4,0.4v9.6c0,1.9,1,3.1,2.7,3.1s2.8-1.2,2.8-3.1
			v-9.6c0-0.2,0.2-0.4,0.4-0.4H55c0.2,0,0.4,0.2,0.4,0.4v9.6c0,3.4-2.3,5.7-5.7,5.7S44,25.6,44,22.2v-9.6c0-0.2,0.2-0.4,0.4-0.4
			C44.4,12.2,46.6,12.2,46.6,12.2z M119.8,12c2.8,0,4.7,1.3,5.5,3.8c0.3,1,0.4,1.8,0.4,4.2s-0.1,3.2-0.4,4.2
			c-0.8,2.4-2.7,3.8-5.5,3.8c-2.7,0-4.7-1.3-5.5-3.8c-0.3-1-0.4-1.8-0.4-4.2v-0.3c0-2.2,0.1-3,0.4-3.9C115.2,13.3,117.1,12,119.8,12
			z"/>
	</g>
	<g>
		<defs>
			<path id="SVGID_2_" d="M92.9,15h-3.1v3.9h3.1c1.3,0,2.1-0.8,2.1-2S94.1,15,92.9,15z M119.8,14.7c-1.3,0-2.2,0.6-2.6,1.9
				c-0.2,0.5-0.3,1.2-0.3,3.4s0.1,2.9,0.3,3.4c0.4,1.2,1.3,1.9,2.6,1.9c1.3,0,2.2-0.6,2.6-1.9c0.2-0.5,0.3-1.2,0.3-3.4
				s-0.1-2.9-0.3-3.4C122.1,15.3,121.2,14.7,119.8,14.7z M159.6,12.2c0.2,0,0.4,0.2,0.4,0.4v1.9c0,0.2-0.2,0.4-0.4,0.4h-6.8v3.6h5.7
				c0.2,0,0.4,0.2,0.4,0.4v1.9c0,0.2-0.2,0.4-0.4,0.4h-5.7v3.7h6.8c0.2,0,0.4,0.2,0.4,0.4v1.9c0,0.2-0.2,0.4-0.4,0.4h-9.4
				c-0.2,0-0.4-0.2-0.4-0.4V12.6c0-0.2,0.2-0.4,0.4-0.4C150.2,12.2,159.6,12.2,159.6,12.2z M131.8,12.2c0.2,0,0.4,0.2,0.4,0.4v14.7
				c0,0.2-0.2,0.4-0.4,0.4h-2.2c-0.2,0-0.4-0.2-0.4-0.4V12.6c0-0.2,0.2-0.4,0.4-0.4C129.6,12.2,131.8,12.2,131.8,12.2z M102.3,12.2
				c0.2,0,0.4,0.1,0.5,0.4l3.2,10.3l3.1-10.3c0.1-0.2,0.2-0.3,0.5-0.3h2.1c0.1,0,0.2,0.1,0.3,0.1c0.1,0.1,0.1,0.2,0,0.3l-4.8,14.7
				c-0.1,0.2-0.2,0.3-0.4,0.3H105c-0.2,0-0.4-0.1-0.4-0.3l-4.7-14.7c0-0.1,0-0.2,0-0.3c0.1-0.1,0.2-0.1,0.3-0.1L102.3,12.2
				L102.3,12.2z M92.9,12.2c2.9,0,5,2,5,4.7c0,1.9-1,3.5-2.8,4.3l3.1,6c0.1,0.1,0.1,0.3,0,0.4s-0.2,0.2-0.3,0.2h-2.4
				c-0.2,0-0.4-0.1-0.5-0.3l-2.8-5.8h-2.4v5.7c0,0.2-0.2,0.4-0.4,0.4h-2.2c-0.2,0-0.4-0.2-0.4-0.4V12.6c0-0.2,0.2-0.4,0.4-0.4
				C87.2,12.2,92.9,12.2,92.9,12.2z M83,12.2c0.2,0,0.4,0.2,0.4,0.4v1.9c0,0.2-0.2,0.4-0.4,0.4h-6.8v3.6h5.7c0.2,0,0.4,0.2,0.4,0.4
				v1.9c0,0.2-0.2,0.4-0.4,0.4h-5.7v3.7H83c0.2,0,0.4,0.2,0.4,0.4v1.9c0,0.2-0.2,0.4-0.4,0.4h-9.4c-0.2,0-0.4-0.2-0.4-0.4V12.6
				c0-0.2,0.2-0.4,0.4-0.4C73.6,12.2,83,12.2,83,12.2z M141.5,12c2.4,0,4.3,1.2,5.2,3.4c0.1,0.2,0,0.4-0.2,0.5l-1.9,0.9
				c-0.1,0.1-0.2,0.1-0.3,0c-0.1,0-0.2-0.1-0.2-0.2c-0.6-1.2-1.4-1.8-2.6-1.8c-1.3,0-2.1,0.6-2.5,1.9c-0.2,0.6-0.3,1.2-0.3,3.4v0.3
				c0,2,0.1,2.6,0.3,3.1c0.4,1.3,1.3,1.9,2.5,1.9s2.1-0.6,2.6-1.9c0-0.1,0.1-0.2,0.2-0.2c0.1,0,0.2,0,0.3,0l1.9,0.9
				c0.2,0.1,0.3,0.3,0.2,0.5c-0.9,2.1-2.8,3.4-5.2,3.4c-2.7,0-4.6-1.4-5.4-3.8c-0.3-1-0.4-1.8-0.4-4.2v-0.3c0-2.1,0.1-2.9,0.4-3.9
				C136.9,13.4,138.8,12,141.5,12z M64.2,12c1.8,0,3.7,0.6,5,1.6c0.2,0.2,0.2,0.3,0.1,0.6l-1.1,1.6C68,16,67.8,16,67.7,15.9
				c-1.2-0.8-2.3-1.2-3.5-1.2c-1.3,0-2.2,0.7-2.2,1.8c0,0.7,0.3,1.5,2.6,1.9l0.8,0.1c3.1,0.4,4.6,2,4.6,4.6c0,3-2.2,4.9-5.8,4.9
				c-2.1,0-4.3-0.8-5.6-2.1c-0.2-0.2-0.2-0.4-0.1-0.6l1.4-1.6c0.1-0.1,0.2-0.1,0.3-0.1s0.2,0,0.3,0.1c0.9,0.7,2.3,1.6,4,1.6
				c1.6,0,2.6-0.8,2.6-2c0-0.8-0.3-1.6-2.6-1.9l-0.8-0.1c-3.1-0.4-4.7-2-4.7-4.5C58.9,13.9,61.1,12,64.2,12z M46.6,12.2
				c0.2,0,0.4,0.2,0.4,0.4v9.6c0,1.9,1,3.1,2.7,3.1s2.8-1.2,2.8-3.1v-9.6c0-0.2,0.2-0.4,0.4-0.4H55c0.2,0,0.4,0.2,0.4,0.4v9.6
				c0,3.4-2.3,5.7-5.7,5.7S44,25.6,44,22.2v-9.6c0-0.2,0.2-0.4,0.4-0.4C44.4,12.2,46.6,12.2,46.6,12.2z M119.8,12
				c2.8,0,4.7,1.3,5.5,3.8c0.3,1,0.4,1.8,0.4,4.2s-0.1,3.2-0.4,4.2c-0.8,2.4-2.7,3.8-5.5,3.8c-2.7,0-4.7-1.3-5.5-3.8
				c-0.3-1-0.4-1.8-0.4-4.2v-0.3c0-2.2,0.1-3,0.4-3.9C115.2,13.3,117.1,12,119.8,12z"/>
		</defs>
		<clipPath id="SVGID_3_">
			<use xlink:href="#SVGID_2_"  style="overflow:visible;"/>
		</clipPath>
	</g>
</g>
</svg>
