<svg width="404px" height="410px" viewbox="0 0 404 410" version="1.1" xmlns="http://www.w3.org/2000/svg" xmlns:xlink="http://www.w3.org/1999/xlink">
                              <!-- Generator: Sketch 48.2 (47327) - http://www.bohemiancoding.com/sketch-->
                              <title>Group 9</title>
                              <desc>Created with Sketch.</desc>
                              <defs>
                                <lineargradient id="linearGradient-1" x1="50%" y1="0%" x2="50%" y2="76.9258788%">
                                  <stop stop-color="#A0C911" offset="0%"></stop>
                                  <stop stop-color="#6AA528" offset="100%"></stop>
                                </lineargradient>
                                <rect id="path-2" x="0" y="0" width="311.622276" height="315.048193" rx="5"></rect>
                                <filter id="filter-3" x="-10.3%" y="-7.9%" width="120.5%" height="120.3%" filterunits="objectBoundingBox">
                                  <feoffset dx="0" dy="7" in="SourceAlpha" result="shadowOffsetOuter1"></feoffset>
                                  <fegaussianblur stddeviation="9.5" in="shadowOffsetOuter1" result="shadowBlurOuter1"></fegaussianblur>
                                  <fecomposite in="shadowBlurOuter1" in2="SourceAlpha" operator="out" result="shadowBlurOuter1"></fecomposite>
                                  <fecolormatrix values="0 0 0 0 0   0 0 0 0 0   0 0 0 0 0  0 0 0 0.19 0" type="matrix" in="shadowBlurOuter1"></fecolormatrix>
                                </filter>
                                <lineargradient id="linearGradient-4" x1="50%" y1="100%" x2="50%" y2="0%">
                                  <stop stop-color="#36B9FF" offset="0%"></stop>
                                  <stop stop-color="#366FFF" offset="100%"></stop>
                                </lineargradient>
                                <rect id="path-5" x="0" y="0" width="215" height="284" rx="5"></rect>
                                <filter id="filter-6" x="-11.6%" y="-8.1%" width="123.3%" height="117.6%" filterunits="objectBoundingBox">
                                  <feoffset dx="0" dy="2" in="SourceAlpha" result="shadowOffsetOuter1"></feoffset>
                                  <fegaussianblur stddeviation="8" in="shadowOffsetOuter1" result="shadowBlurOuter1"></fegaussianblur>
                                  <fecomposite in="shadowBlurOuter1" in2="SourceAlpha" operator="out" result="shadowBlurOuter1"></fecomposite>
                                  <fecolormatrix values="0 0 0 0 0   0 0 0 0 0   0 0 0 0 0  0 0 0 0.32311481 0" type="matrix" in="shadowBlurOuter1"></fecolormatrix>
                                </filter>
                                <filter id="filter-7" x="0.0%" y="0.0%" width="100.0%" height="100.0%" filterunits="objectBoundingBox">
                                  <fegaussianblur stddeviation="0" in="SourceGraphic"></fegaussianblur>
                                </filter>
                              </defs>
                              <g id="main_ning_A/B_white" stroke="none" stroke-width="1" fill="none" fill-rule="evenodd" transform="translate(-1207.000000, -2271.000000)">
                                <g id="Monetize-screen" transform="translate(0.000000, 2068.000000)">
                                  <g id="BG">
                                    <g id="Group-9" transform="translate(1223.000000, 215.000000)">
                                      <g id="network_page" transform="translate(58.000000, 0.000000)">
                                        <g id="Rectangle-30">
                                          <use fill="black" fill-opacity="1" filter="url(#filter-3)" xlink:href="#path-2"></use>
                                          <use fill="url(#linearGradient-1)" fill-rule="evenodd" xlink:href="#path-2"></use>
                                          <rect stroke-opacity="0.551488904" stroke="#FFFFFF" stroke-width="2" x="1" y="1" width="309.622276" height="313.048193" rx="5"></rect>
                                        </g>
                                        <rect id="Rectangle-31" fill="#FFFFFF" opacity="0.487601902" x="1.59806295" y="19.939759" width="310.024213" height="1.59518072"></rect>
                                        <ellipse id="Oval-14" fill="#FFFFFF" opacity="0.487601902" cx="9.98789346" cy="9.96987952" rx="3.59564165" ry="3.58915663"></ellipse>
                                        <ellipse id="Oval-14-Copy" fill="#FFFFFF" opacity="0.487601902" cx="23.5714286" cy="9.96987952" rx="3.59564165" ry="3.58915663"></ellipse>
                                        <ellipse id="Oval-14-Copy-2" fill="#FFFFFF" opacity="0.487601902" cx="36.3559322" cy="9.96987952" rx="3.59564165" ry="3.58915663"></ellipse>
                                        <path id="Paid-access" d="M240.320349,33.7651084 L244.002349,33.7651084 C244.515685,33.7651084 245.001013,33.8117746 245.458349,33.9051084 C245.915684,33.9984422 246.31468,34.1594406 246.655349,34.3881084 C246.996017,34.6167762 247.266681,34.9247732 247.467349,35.3121084 C247.668016,35.6994437 247.768349,36.1871055 247.768349,36.7751084 C247.768349,37.353778 247.675016,37.8391065 247.488349,38.2311084 C247.301681,38.6231104 247.045017,38.9357739 246.718349,39.1691084 C246.39168,39.4024429 246.004351,39.5681079 245.556349,39.6661084 C245.108346,39.7641089 244.623018,39.8131084 244.100349,39.8131084 L242.504349,39.8131084 L242.504349,43.6771084 L240.320349,43.6771084 L240.320349,33.7651084 Z M242.504349,37.9651084 L243.960349,37.9651084 C244.15635,37.9651084 244.345348,37.946442 244.527349,37.9091084 C244.70935,37.8717749 244.872681,37.8087755 245.017349,37.7201084 C245.162016,37.6314413 245.278682,37.5101092 245.367349,37.3561084 C245.456016,37.2021077 245.500349,37.0084429 245.500349,36.7751084 C245.500349,36.5231072 245.442016,36.3201092 245.325349,36.1661084 C245.208681,36.0121077 245.05935,35.8931089 244.877349,35.8091084 C244.695348,35.725108 244.49235,35.6714419 244.268349,35.6481084 C244.044348,35.624775 243.829683,35.6131084 243.624349,35.6131084 L242.504349,35.6131084 L242.504349,37.9651084 Z M252.402349,33.7651084 L254.208349,33.7651084 L258.520349,43.6771084 L256.056349,43.6771084 L255.202349,41.5771084 L251.352349,41.5771084 L250.526349,43.6771084 L248.118349,43.6771084 L252.402349,33.7651084 Z M253.242349,36.6491084 L252.038349,39.7291084 L254.460349,39.7291084 L253.242349,36.6491084 Z M259.486349,33.7651084 L261.670349,33.7651084 L261.670349,43.6771084 L259.486349,43.6771084 L259.486349,33.7651084 Z M263.658349,33.7651084 L266.934349,33.7651084 C267.727686,33.7651084 268.481345,33.8537742 269.195349,34.0311084 C269.909352,34.2084427 270.532346,34.4954398 271.064349,34.8921084 C271.596351,35.2887771 272.01868,35.8044386 272.331349,36.4391084 C272.644017,37.0737783 272.800349,37.8437706 272.800349,38.7491084 C272.800349,39.5517791 272.648684,40.258772 272.345349,40.8701084 C272.042014,41.4814448 271.633685,41.994773 271.120349,42.4101084 C270.607013,42.8254438 270.014352,43.1404407 269.342349,43.3551084 C268.670345,43.5697762 267.965686,43.6771084 267.228349,43.6771084 L263.658349,43.6771084 L263.658349,33.7651084 Z M265.842349,41.6611084 L266.976349,41.6611084 C267.480351,41.6611084 267.949346,41.6097756 268.383349,41.5071084 C268.817351,41.4044413 269.193014,41.2341096 269.510349,40.9961084 C269.827684,40.7581072 270.077348,40.4454437 270.259349,40.0581084 C270.44135,39.6707732 270.532349,39.1971112 270.532349,38.6371084 C270.532349,38.1517727 270.44135,37.7294436 270.259349,37.3701084 C270.077348,37.0107733 269.83235,36.7144429 269.524349,36.4811084 C269.216347,36.2477739 268.854684,36.0727757 268.439349,35.9561084 C268.024013,35.8394412 267.587684,35.7811084 267.130349,35.7811084 L265.842349,35.7811084 L265.842349,41.6611084 Z M243.582349,52.7651084 L245.388349,52.7651084 L249.700349,62.6771084 L247.236349,62.6771084 L246.382349,60.5771084 L242.532349,60.5771084 L241.706349,62.6771084 L239.298349,62.6771084 L243.582349,52.7651084 Z M244.422349,55.6491084 L243.218349,58.7291084 L245.640349,58.7291084 L244.422349,55.6491084 Z M257.176349,55.3411084 C256.961681,55.0797738 256.698017,54.8791091 256.385349,54.7391084 C256.07268,54.5991077 255.711017,54.5291084 255.300349,54.5291084 C254.88968,54.5291084 254.50935,54.608441 254.159349,54.7671084 C253.809347,54.9257759 253.506017,55.1474403 253.249349,55.4321084 C252.992681,55.7167765 252.792016,56.0551065 252.647349,56.4471084 C252.502681,56.8391104 252.430349,57.2637728 252.430349,57.7211084 C252.430349,58.1877774 252.502681,58.6147732 252.647349,59.0021084 C252.792016,59.3894437 252.990347,59.7254403 253.242349,60.0101084 C253.49435,60.2947765 253.79068,60.516441 254.131349,60.6751084 C254.472017,60.8337759 254.838347,60.9131084 255.230349,60.9131084 C255.678351,60.9131084 256.075014,60.819776 256.420349,60.6331084 C256.765684,60.4464408 257.050348,60.1851101 257.274349,59.8491084 L259.094349,61.2071084 C258.674347,61.7951114 258.142352,62.229107 257.498349,62.5091084 C256.854345,62.7891098 256.191685,62.9291084 255.510349,62.9291084 C254.735678,62.9291084 254.021685,62.8077763 253.368349,62.5651084 C252.715012,62.3224406 252.150351,61.9747774 251.674349,61.5221084 C251.198346,61.0694395 250.82735,60.5211117 250.561349,59.8771084 C250.295347,59.2331052 250.162349,58.5144457 250.162349,57.7211084 C250.162349,56.9277711 250.295347,56.2091117 250.561349,55.5651084 C250.82735,54.9211052 251.198346,54.3727774 251.674349,53.9201084 C252.150351,53.4674395 252.715012,53.1197763 253.368349,52.8771084 C254.021685,52.6344406 254.735678,52.5131084 255.510349,52.5131084 C255.79035,52.5131084 256.082014,52.5387748 256.385349,52.5901084 C256.688684,52.641442 256.987347,52.7231079 257.281349,52.8351084 C257.57535,52.947109 257.857681,53.0964408 258.128349,53.2831084 C258.399017,53.469776 258.641681,53.6984404 258.856349,53.9691084 L257.176349,55.3411084 Z M266.766349,55.3411084 C266.551681,55.0797738 266.288017,54.8791091 265.975349,54.7391084 C265.66268,54.5991077 265.301017,54.5291084 264.890349,54.5291084 C264.47968,54.5291084 264.09935,54.608441 263.749349,54.7671084 C263.399347,54.9257759 263.096017,55.1474403 262.839349,55.4321084 C262.582681,55.7167765 262.382016,56.0551065 262.237349,56.4471084 C262.092681,56.8391104 262.020349,57.2637728 262.020349,57.7211084 C262.020349,58.1877774 262.092681,58.6147732 262.237349,59.0021084 C262.382016,59.3894437 262.580347,59.7254403 262.832349,60.0101084 C263.08435,60.2947765 263.38068,60.516441 263.721349,60.6751084 C264.062017,60.8337759 264.428347,60.9131084 264.820349,60.9131084 C265.268351,60.9131084 265.665014,60.819776 266.010349,60.6331084 C266.355684,60.4464408 266.640348,60.1851101 266.864349,59.8491084 L268.684349,61.2071084 C268.264347,61.7951114 267.732352,62.229107 267.088349,62.5091084 C266.444345,62.7891098 265.781685,62.9291084 265.100349,62.9291084 C264.325678,62.9291084 263.611685,62.8077763 262.958349,62.5651084 C262.305012,62.3224406 261.740351,61.9747774 261.264349,61.5221084 C260.788346,61.0694395 260.41735,60.5211117 260.151349,59.8771084 C259.885347,59.2331052 259.752349,58.5144457 259.752349,57.7211084 C259.752349,56.9277711 259.885347,56.2091117 260.151349,55.5651084 C260.41735,54.9211052 260.788346,54.3727774 261.264349,53.9201084 C261.740351,53.4674395 262.305012,53.1197763 262.958349,52.8771084 C263.611685,52.6344406 264.325678,52.5131084 265.100349,52.5131084 C265.38035,52.5131084 265.672014,52.5387748 265.975349,52.5901084 C266.278684,52.641442 266.577347,52.7231079 266.871349,52.8351084 C267.16535,52.947109 267.447681,53.0964408 267.718349,53.2831084 C267.989017,53.469776 268.231681,53.6984404 268.446349,53.9691084 L266.766349,55.3411084 Z M269.958349,52.7651084 L276.692349,52.7651084 L276.692349,54.7811084 L272.142349,54.7811084 L272.142349,56.6291084 L276.440349,56.6291084 L276.440349,58.6451084 L272.142349,58.6451084 L272.142349,60.6611084 L276.944349,60.6611084 L276.944349,62.6771084 L269.958349,62.6771084 L269.958349,52.7651084 Z M283.594349,55.1871084 C283.417014,54.9631073 283.176684,54.7974423 282.873349,54.6901084 C282.570014,54.5827746 282.283017,54.5291084 282.012349,54.5291084 C281.853681,54.5291084 281.69035,54.5477749 281.522349,54.5851084 C281.354348,54.622442 281.195683,54.6807747 281.046349,54.7601084 C280.897015,54.8394422 280.775682,54.9444411 280.682349,55.0751084 C280.589015,55.2057758 280.542349,55.3644408 280.542349,55.5511084 C280.542349,55.8497766 280.654348,56.078441 280.878349,56.2371084 C281.10235,56.3957759 281.38468,56.5311079 281.725349,56.6431084 C282.066017,56.755109 282.432347,56.8671079 282.824349,56.9791084 C283.216351,57.091109 283.58268,57.2497741 283.923349,57.4551084 C284.264017,57.6604428 284.546348,57.9357734 284.770349,58.2811084 C284.99435,58.6264435 285.106349,59.0884389 285.106349,59.6671084 C285.106349,60.2177779 285.003683,60.6984397 284.798349,61.1091084 C284.593014,61.5197772 284.31535,61.8604404 283.965349,62.1311084 C283.615347,62.4017765 283.209351,62.6024411 282.747349,62.7331084 C282.285346,62.8637758 281.797685,62.9291084 281.284349,62.9291084 C280.640345,62.9291084 280.043018,62.8311094 279.492349,62.6351084 C278.941679,62.4391075 278.428351,62.1217773 277.952349,61.6831084 L279.506349,59.9751084 C279.73035,60.2737766 280.01268,60.5047743 280.353349,60.6681084 C280.694017,60.8314426 281.046347,60.9131084 281.410349,60.9131084 C281.587683,60.9131084 281.767348,60.8921086 281.949349,60.8501084 C282.13135,60.8081082 282.294681,60.7451089 282.439349,60.6611084 C282.584016,60.577108 282.700682,60.4697758 282.789349,60.3391084 C282.878016,60.2084411 282.922349,60.0544427 282.922349,59.8771084 C282.922349,59.5784403 282.808016,59.342776 282.579349,59.1701084 C282.350681,58.9974409 282.063684,58.8504424 281.718349,58.7291084 C281.373014,58.6077745 280.999684,58.4864424 280.598349,58.3651084 C280.197013,58.2437745 279.823684,58.0804428 279.478349,57.8751084 C279.133014,57.6697741 278.846016,57.3991101 278.617349,57.0631084 C278.388681,56.7271068 278.274349,56.2837779 278.274349,55.7331084 C278.274349,55.2011058 278.379348,54.7344438 278.589349,54.3331084 C278.79935,53.9317731 279.079347,53.5957765 279.429349,53.3251084 C279.77935,53.0544404 280.183013,52.8514424 280.640349,52.7161084 C281.097684,52.5807744 281.569013,52.5131084 282.054349,52.5131084 C282.614351,52.5131084 283.155679,52.592441 283.678349,52.7511084 C284.201018,52.9097759 284.672347,53.1757732 285.092349,53.5491084 L283.594349,55.1871084 Z M291.630349,55.1871084 C291.453014,54.9631073 291.212684,54.7974423 290.909349,54.6901084 C290.606014,54.5827746 290.319017,54.5291084 290.048349,54.5291084 C289.889681,54.5291084 289.72635,54.5477749 289.558349,54.5851084 C289.390348,54.622442 289.231683,54.6807747 289.082349,54.7601084 C288.933015,54.8394422 288.811682,54.9444411 288.718349,55.0751084 C288.625015,55.2057758 288.578349,55.3644408 288.578349,55.5511084 C288.578349,55.8497766 288.690348,56.078441 288.914349,56.2371084 C289.13835,56.3957759 289.42068,56.5311079 289.761349,56.6431084 C290.102017,56.755109 290.468347,56.8671079 290.860349,56.9791084 C291.252351,57.091109 291.61868,57.2497741 291.959349,57.4551084 C292.300017,57.6604428 292.582348,57.9357734 292.806349,58.2811084 C293.03035,58.6264435 293.142349,59.0884389 293.142349,59.6671084 C293.142349,60.2177779 293.039683,60.6984397 292.834349,61.1091084 C292.629014,61.5197772 292.35135,61.8604404 292.001349,62.1311084 C291.651347,62.4017765 291.245351,62.6024411 290.783349,62.7331084 C290.321346,62.8637758 289.833685,62.9291084 289.320349,62.9291084 C288.676345,62.9291084 288.079018,62.8311094 287.528349,62.6351084 C286.977679,62.4391075 286.464351,62.1217773 285.988349,61.6831084 L287.542349,59.9751084 C287.76635,60.2737766 288.04868,60.5047743 288.389349,60.6681084 C288.730017,60.8314426 289.082347,60.9131084 289.446349,60.9131084 C289.623683,60.9131084 289.803348,60.8921086 289.985349,60.8501084 C290.16735,60.8081082 290.330681,60.7451089 290.475349,60.6611084 C290.620016,60.577108 290.736682,60.4697758 290.825349,60.3391084 C290.914016,60.2084411 290.958349,60.0544427 290.958349,59.8771084 C290.958349,59.5784403 290.844016,59.342776 290.615349,59.1701084 C290.386681,58.9974409 290.099684,58.8504424 289.754349,58.7291084 C289.409014,58.6077745 289.035684,58.4864424 288.634349,58.3651084 C288.233013,58.2437745 287.859684,58.0804428 287.514349,57.8751084 C287.169014,57.6697741 286.882016,57.3991101 286.653349,57.0631084 C286.424681,56.7271068 286.310349,56.2837779 286.310349,55.7331084 C286.310349,55.2011058 286.415348,54.7344438 286.625349,54.3331084 C286.83535,53.9317731 287.115347,53.5957765 287.465349,53.3251084 C287.81535,53.0544404 288.219013,52.8514424 288.676349,52.7161084 C289.133684,52.5807744 289.605013,52.5131084 290.090349,52.5131084 C290.650351,52.5131084 291.191679,52.592441 291.714349,52.7511084 C292.237018,52.9097759 292.708347,53.1757732 293.128349,53.5491084 L291.630349,55.1871084 Z" fill="#FFFFFF" opacity="0.42017663"></path>
                                        <g id="Group-8" opacity="0.769587862" transform="translate(16.779661, 79.759036)" fill="#FFFFFF">
                                          <rect id="Rectangle-2" opacity="0.396342844" x="0.0950521274" y="0.537830032" width="278.385228" height="151.668069" rx="4"></rect>
                                        </g>
                                        <rect id="Rectangle-3-Copy" fill="#FFFFFF" opacity="0.239526721" x="16.779661" y="244.062651" width="278.062954" height="7.97590361" rx="3.98795181"></rect>
                                        <rect id="Rectangle-3-Copy-4" fill="#FFFFFF" opacity="0.239526721" x="16.779661" y="294.310843" width="265.27845" height="7.97590361" rx="3.98795181"></rect>
                                        <rect id="Rectangle-3-Copy-2" fill="#FFFFFF" opacity="0.239526721" x="16.779661" y="260.812048" width="264.479419" height="7.97590361" rx="3.98795181"></rect>
                                        <rect id="Rectangle-3-Copy-3" fill="#FFFFFF" opacity="0.239526721" x="17.5786925" y="277.561446" width="240.508475" height="7.97590361" rx="3.98795181"></rect>
                                        <g id="Group-3" opacity="0.63502038" transform="translate(131.825397, 114.107895)" fill="#FFFFFF">
                                          <ellipse id="Oval-15" opacity="0.336560236" cx="41.9491525" cy="41.873494" rx="41.9491525" ry="41.873494"></ellipse>
                                          <g id="3F" transform="translate(25.698580, 20.370889)">
                                            <path d="M15.0089143,30.7861702 L15.0089143,32.4146809 C15.0089143,33.1740426 15.6224,33.7870213 16.3803429,33.7870213 C17.1373714,33.7870213 17.7517714,33.1740426 17.7517714,32.4146809 L17.7517714,30.7770213 C18.592,30.2921277 19.1661714,29.3955319 19.1661714,28.3617021 C19.1661714,26.8246809 17.9163429,25.5712766 16.3803429,25.5712766 C14.8434286,25.5712766 13.5936,26.8246809 13.5936,28.3617021 C13.5936,29.377234 14.1421714,30.2921277 15.0089143,30.7861702 M29.1236571,36.7421277 C29.1236571,37.0714894 29.0468571,40.0082979 26.3826286,40.1180851 C22.4064,40.273617 6.59931429,40.136383 6.40274286,40.127234 C6.15862857,40.127234 4.01737143,40.0082979 3.60868571,36.1748936 L3.60868571,20.2740426 L29.1236571,20.2740426 L29.1236571,36.7421277 Z M16.3254857,3.63212766 C24.0283429,3.63212766 24.4699429,10.027234 24.4946286,10.7134043 L24.4946286,17.5293617 L8.15725714,17.5293617 L8.15634286,11.0885106 C8.16457143,10.7774468 8.42971429,3.63212766 16.3254857,3.63212766 Z M30.4950857,17.5293617 L27.2374857,17.5293617 L27.2365714,10.6768085 C27.1506286,7.29170213 24.7588571,0.887446809 16.3254857,0.887446809 C7.8912,0.887446809 5.50034286,7.5112766 5.4144,11.0519149 L5.4144,17.5293617 L2.23725714,17.5293617 C1.48022857,17.5293617 0.865828571,18.1423404 0.865828571,18.9017021 L0.865828571,36.2480851 C0.865828571,36.2938298 0.868571429,36.3395745 0.873142857,36.3853191 C1.40251429,41.6642553 4.7808,42.9725532 6.41371429,42.8719149 C6.82971429,42.8810638 13.2059429,42.9359574 18.8324571,42.9359574 C22.0498286,42.9359574 25.0230857,42.9176596 26.4941714,42.862766 C30.7428571,42.6889362 31.8665143,38.7823404 31.8665143,36.7421277 L31.8665143,18.9017021 C31.8665143,18.1423404 31.2521143,17.5293617 30.4950857,17.5293617 Z"></path>
                                          </g>
                                        </g>
                                        <rect id="Rectangle" fill="#FFFFFF" opacity="0.30102808" x="54.3341404" y="37.486747" width="84.6973366" height="7.97590361" rx="3.98795181"></rect>
                                        <ellipse id="Oval-2" fill="#FFFFFF" opacity="0.201956522" cx="31.1622276" cy="49.8493976" rx="12.7845036" ry="12.3626506"></ellipse>
                                        <rect id="Rectangle-Copy" fill="#FFFFFF" opacity="0.30102808" x="54.3341404" y="54.2361446" width="61.5254237" height="7.97590361" rx="3.98795181"></rect>
                                      </g>
                                      <g id="payment_page" transform="translate(0.000000, 96.000000)">
                                        <g>
                                          <g id="Rectangle-32">
                                            <use fill="black" fill-opacity="1" filter="url(#filter-6)" xlink:href="#path-5"></use>
                                            <use fill="url(#linearGradient-4)" fill-rule="evenodd" xlink:href="#path-5"></use>
                                            <rect stroke="#61B3FF" stroke-width="2" x="1" y="1" width="213" height="282" rx="5"></rect>
                                          </g>
                                          <rect id="Rectangle-43" fill="#9BD8FE" x="125" y="250" width="76.4444444" height="23.9325843" rx="11.9662921"></rect>
                                          <path id="PAY" d="M157.08,259.624 C157.08,261.432 155.944,262.872 153.288,262.872 L150.232,262.872 L150.232,266.152 C150.232,266.696 149.8,267.128 149.256,267.128 C148.712,267.128 148.28,266.696 148.28,266.152 L148.28,257.32 C148.28,256.776 148.712,256.344 149.256,256.344 L153.288,256.344 C155.944,256.344 157.08,257.816 157.08,259.624 Z M155.112,259.624 C155.112,258.92 154.632,258.136 153.56,258.136 L150.232,258.136 L150.232,261.064 L153.56,261.064 C154.632,261.064 155.112,260.344 155.112,259.624 Z M166.296,266.6 L165.384,264.648 L160.648,264.648 L159.736,266.6 C159.56,266.92 159.336,267.128 158.92,267.128 C158.344,267.128 157.992,266.68 157.992,266.216 C157.992,266.088 158.024,265.96 158.088,265.832 L162.184,256.728 C162.328,256.408 162.6,256.216 163.016,256.216 C163.432,256.216 163.704,256.392 163.848,256.728 L167.944,265.832 C168.008,265.96 168.04,266.088 168.04,266.216 C168.04,266.68 167.688,267.128 167.112,267.128 C166.696,267.128 166.472,266.936 166.296,266.6 Z M164.68,262.936 L163.016,258.872 L161.352,262.936 L164.68,262.936 Z M174.248,266.136 C174.248,266.68 173.832,267.128 173.288,267.128 C172.744,267.128 172.296,266.68 172.296,266.136 L172.296,262.312 L168.904,257.672 C168.792,257.496 168.728,257.304 168.728,257.128 C168.728,256.648 169.128,256.216 169.608,256.216 C169.928,256.216 170.168,256.36 170.36,256.616 L173.272,260.584 L176.184,256.616 C176.376,256.36 176.616,256.216 176.936,256.216 C177.416,256.216 177.816,256.648 177.816,257.128 C177.816,257.304 177.768,257.496 177.64,257.672 L174.248,262.312 L174.248,266.136 Z" fill="#FFFFFF" filter="url(#filter-7)"></path>
                                          <rect id="Rectangle-37-Copy" fill="#FFFFFF" opacity="0.23212183" x="60.5185185" y="148.382022" width="144.12963" height="93.3370787" rx="5"></rect>
                                          <rect id="Rectangle-39" fill="#FFFFFF" opacity="0.168478261" x="146.518519" y="170.719101" width="58.1296296" height="11.9662921"></rect>
                                          <rect id="Rectangle-39-Copy" fill="#FFFFFF" opacity="0.137511322" x="175.981481" y="194.651685" width="29.462963" height="11.9662921"></rect>
                                          <rect id="Rectangle-37" fill="#85C8FF" x="10.3518519" y="134.820225" width="144.12963" height="93.3370787" rx="5"></rect>
                                          <rect id="Rectangle-38" fill="#FFFFFF" opacity="0.459975091" x="20.7037037" y="144.393258" width="86" height="10.3707865" rx="5.18539326"></rect>
                                          <rect id="Rectangle-38-Copy" fill="#FFFFFF" opacity="0.459975091" x="20.7037037" y="165.932584" width="108.296296" height="10.3707865" rx="5.18539326"></rect>
                                          <rect id="Rectangle-38-Copy-2" fill="#FFFFFF" opacity="0.46" x="20.7037037" y="205.022472" width="36.6296296" height="10.3707865" rx="5.18539326"></rect>
                                          <rect id="Rectangle-38-Copy-3" fill="#FFFFFF" opacity="0.46" x="64.5" y="205.022472" width="36.6296296" height="10.3707865" rx="5.18539326"></rect>
                                          <rect id="Rectangle-34" fill="#FFFFFF" opacity="0.220844656" x="10.3518519" y="46.2696629" width="194.296296" height="72.5955056" rx="5"></rect>
                                          <rect id="Rectangle-35" fill="#FFFFFF" opacity="0.43" x="35.8333333" y="60.6292135" width="148.907407" height="7.97752809" rx="3.98876404"></rect>
                                          <rect id="Rectangle-35-Copy" fill="#FFFFFF" opacity="0.43" x="35.8333333" y="79.7752809" width="121.833333" height="7.97752809" rx="3.98876404"></rect>
                                          <rect id="Rectangle-35-Copy-2" fill="#FFFFFF" opacity="0.43" x="35.8333333" y="97.3258427" width="144.12963" height="7.97752809" rx="3.98876404"></rect>
                                          <ellipse id="Oval-16" fill="#FFFFFF" opacity="0.43" cx="23.8888889" cy="23.1348315" rx="11.9444444" ry="11.9662921"></ellipse>
                                          <rect id="Rectangle-33" fill="#FFFFFF" opacity="0.43" x="46.1851852" y="12.7640449" width="82.0185185" height="7.17977528" rx="3.58988764"></rect>
                                          <rect id="Rectangle-33-Copy" fill="#FFFFFF" opacity="0.43" x="46.1851852" y="27.1235955" width="62.9074074" height="7.17977528" rx="3.58988764"></rect>
                                          <ellipse id="Oval-17" fill="#FFFFFF" opacity="0.264436141" cx="124.62037" cy="210.207865" rx="8.36111111" ry="8.37640449"></ellipse>
                                          <ellipse id="Oval-17-Copy" fill="#FFFFFF" opacity="0.440104167" cx="135.768519" cy="210.207865" rx="8.36111111" ry="8.37640449"></ellipse>
                                          <ellipse id="Oval-18" fill="#FFFFFF" opacity="0.43" cx="23.8888889" cy="64.6179775" rx="3.18518519" ry="3.19101124"></ellipse>
                                          <ellipse id="Oval-18-Copy" fill="#FFFFFF" opacity="0.43" cx="23.8888889" cy="82.9662921" rx="3.18518519" ry="3.19101124"></ellipse>
                                          <ellipse id="Oval-18-Copy-2" fill="#FFFFFF" opacity="0.43" cx="23.8888889" cy="101.314607" rx="3.18518519" ry="3.19101124"></ellipse>
                                        </g>
                                      </g>
                                    </g>
                                  </g>
                                </g>
                              </g>
                            </svg>