<svg id="Layer_1" data-name="Layer 1" xmlns="http://www.w3.org/2000/svg" viewBox="0 0 626.74 115.51">
  <defs>
    <style>
      .cls-1 {
        fill: #fff;
      }

      .cls-2 {
        fill: #008cd1;
      }

      .cls-3 {
        fill: #20aa4d;
      }

      .cls-4 {
        fill: #00baee;
      }

      .cls-5 {
        fill: #ffdf00;
      }

      .cls-6 {
        fill: #6abd45;
      }
    </style>
  </defs>
  <g>
    <g>
      <path class="cls-1" d="M429.43,90.84a14.88,14.88,0,0,0-5.21-3.78,18.2,18.2,0,0,0-7.51-1.43A20.93,20.93,0,0,0,410,86.79a12.27,12.27,0,0,0-4.85,3l-2.06,2.1V70.84H391.91v61.79h11.21v-27a11.43,11.43,0,0,1,2.7-7.15,8.78,8.78,0,0,1,6.94-2.91c3.32,0,5.78,1,7.31,3a11.54,11.54,0,0,1,2.23,7.21v26.82h11.22v-29a24.58,24.58,0,0,0-1-7.08A15.8,15.8,0,0,0,429.43,90.84Z" transform="translate(-25.83 -52.76)"/>
      <path class="cls-1" d="M308.2,92.28a23.08,23.08,0,0,0-7.63-5,26,26,0,0,0-19.12,0A22.49,22.49,0,0,0,268.8,100a26,26,0,0,0-1.82,9.8,25.49,25.49,0,0,0,1.82,9.75,23.69,23.69,0,0,0,5,7.68,22.66,22.66,0,0,0,7.62,5.07,26,26,0,0,0,19.12,0,22.8,22.8,0,0,0,7.63-5.07,23.69,23.69,0,0,0,5-7.68,27.23,27.23,0,0,0,0-19.55A22.79,22.79,0,0,0,308.2,92.28Zm-5.44,23.64a13.71,13.71,0,0,1-2.81,4.44,11.58,11.58,0,0,1-4.13,2.74,13.17,13.17,0,0,1-9.62,0,11.76,11.76,0,0,1-4.13-2.74,13.63,13.63,0,0,1-2.8-4.44,18.3,18.3,0,0,1,0-12.33,13.55,13.55,0,0,1,2.81-4.44,11.74,11.74,0,0,1,4.12-2.73,13,13,0,0,1,9.62,0A11.73,11.73,0,0,1,300,99.15a13.87,13.87,0,0,1,2.81,4.44,18.3,18.3,0,0,1,0,12.33Z" transform="translate(-25.83 -52.76)"/>
      <path class="cls-1" d="M349.17,86.54a21.27,21.27,0,0,0-4.73.24,15.79,15.79,0,0,0-3.58,1,11.91,11.91,0,0,0-3.33,2.12,10,10,0,0,0-1.84,2.2l-2.22,3.58V86.88H322.65v45.75h11.21V111.78a18.55,18.55,0,0,1,1.06-6.69,12,12,0,0,1,2.84-4.37,10.57,10.57,0,0,1,4.16-2.4,17.58,17.58,0,0,1,6-.67,19.54,19.54,0,0,1,2,.2V86.61Z" transform="translate(-25.83 -52.76)"/>
      <path class="cls-1" d="M522.71,86.88H509.12V74.22H498v45.25c0,4.38,1.28,7.81,3.8,10.2s6,3.63,10.42,3.63a26.53,26.53,0,0,0,9.48-1.85v-8.94a20.28,20.28,0,0,1-6.21,1,7,7,0,0,1-4.7-1.39c-1.11-1-1.67-2.59-1.67-4.88V96.66h11.81L522.71,87Z" transform="translate(-25.83 -52.76)"/>
      <path class="cls-1" d="M383.38,86.88h-13.6V74.22H358.67v45.25c0,4.38,1.27,7.81,3.79,10.2s6,3.63,10.42,3.63a26.65,26.65,0,0,0,9.49-1.85v-8.94a20.42,20.42,0,0,1-6.22,1,7,7,0,0,1-4.7-1.39c-1.11-1-1.67-2.59-1.67-4.88V96.66h11.81L383.38,87Z" transform="translate(-25.83 -52.76)"/>
      <path class="cls-1" d="M589.88,86.88V74.22H578.76v45.25c0,4.38,1.27,7.81,3.79,10.2s6,3.63,10.42,3.63a26.71,26.71,0,0,0,9.49-1.85v-8.94a20.46,20.46,0,0,1-6.21,1,7,7,0,0,1-4.71-1.39c-1.1-1-1.66-2.59-1.66-4.88V96.66h11.79l1.79-9.78Z" transform="translate(-25.83 -52.76)"/>
      <path class="cls-1" d="M569.28,130.08c-.13-1.46-.2-2.86-.2-4.16V102.64A20.48,20.48,0,0,0,568,96.06a13.87,13.87,0,0,0-3.36-5.41,17.12,17.12,0,0,0-6.12-3.77,26.58,26.58,0,0,0-9.25-1.44,23,23,0,0,0-8.18,1.34,19.26,19.26,0,0,0-5.92,3.46A16.46,16.46,0,0,0,531.42,95a15.56,15.56,0,0,0-1.34,3.57l9.87,2.07a9.61,9.61,0,0,1,2.37-4,9.48,9.48,0,0,1,7.06-2.55c2.88,0,5.08.69,6.55,2a6.48,6.48,0,0,1,2.22,4.91,4.09,4.09,0,0,1-.95,2.68,5.07,5.07,0,0,1-3.29,1.47L542.27,107a23.87,23.87,0,0,0-5.33,1.49,13.6,13.6,0,0,0-4.24,2.73,12.35,12.35,0,0,0-3.89,9.33,12.5,12.5,0,0,0,1,5,12.78,12.78,0,0,0,3,4.27,15.48,15.48,0,0,0,4.9,3,17.61,17.61,0,0,0,6.49,1.15,15.56,15.56,0,0,0,8.29-2,16.61,16.61,0,0,0,4.34-3.75l2-2.52.14,3.21c0,.56.06,1.16.11,1.79s.14,1.39.22,1.92h10.16C569.45,131.92,569.36,131.08,569.28,130.08Zm-11.13-15.8a18.53,18.53,0,0,1-.22,3,10.83,10.83,0,0,1-.68,2.35,9.49,9.49,0,0,1-2.44,3.46,8.87,8.87,0,0,1-3.54,1.89,15.57,15.57,0,0,1-4.09.54,6.5,6.5,0,0,1-5-1.78,5.66,5.66,0,0,1-1.66-4,5.32,5.32,0,0,1,1.84-4.39,9.19,9.19,0,0,1,4.45-1.85l11.32-1.68Z" transform="translate(-25.83 -52.76)"/>
      <path class="cls-1" d="M641,120.11a12.31,12.31,0,0,1-2.22,2.39,12,12,0,0,1-7.57,2.19,13.5,13.5,0,0,1-4.81-.87,12.46,12.46,0,0,1-6.71-6,10.91,10.91,0,0,1-1.17-4.14l-.1-1.3h34l.05-.66c.07-.78.1-1.62.1-2.49,0-7.38-2-13.25-6-17.45s-9.53-6.29-16.64-6.29a21.67,21.67,0,0,0-8.44,1.72A22.29,22.29,0,0,0,614.33,92a23.21,23.21,0,0,0-5,7.59,25.74,25.74,0,0,0-1.87,10,26.92,26.92,0,0,0,1.91,10.37,23.14,23.14,0,0,0,5.16,7.72,21.72,21.72,0,0,0,7.53,4.78,25.17,25.17,0,0,0,9,1.64,24.26,24.26,0,0,0,7.68-1.17,21.22,21.22,0,0,0,6.08-3.1,19.47,19.47,0,0,0,4.39-4.58,19.14,19.14,0,0,0,1.66-3Zm-22.17-16.28a10.32,10.32,0,0,1,.84-3,10.66,10.66,0,0,1,2.23-3.22,11.89,11.89,0,0,1,3.5-2.38,11.6,11.6,0,0,1,4.75-.93,13,13,0,0,1,5,.88,11.06,11.06,0,0,1,3.47,2.22l.06.06a9.12,9.12,0,0,1,2.1,3.27,12.36,12.36,0,0,1,.74,3.17l.12,1.31H618.7Z" transform="translate(-25.83 -52.76)"/>
      <path class="cls-1" d="M484.86,103.51c-2.88-3.23-7.14-5.44-12.64-6.55l-8.93-1.84a9.43,9.43,0,0,1-5.35-2.81,7.66,7.66,0,0,1-1-8.21,8.9,8.9,0,0,1,2.13-2.77,10.6,10.6,0,0,1,3.3-1.93,12,12,0,0,1,4.26-.73,13,13,0,0,1,5.25.94,12.11,12.11,0,0,1,3.57,2.32,9.47,9.47,0,0,1,2.14,3,14.35,14.35,0,0,1,1,3.06l.05.24,9.69-3,.19-.06,0-.19a22.26,22.26,0,0,0-1.95-5.49,17.48,17.48,0,0,0-4-5.18,20.92,20.92,0,0,0-6.5-3.85,26.35,26.35,0,0,0-9.45-1.5,22.53,22.53,0,0,0-8.26,1.5,22.23,22.23,0,0,0-6.76,4.11,19.34,19.34,0,0,0-4.61,6.11,17.08,17.08,0,0,0-1.68,7.49,16.07,16.07,0,0,0,4.39,11.62,22,22,0,0,0,11.54,6l8.75,1.84a11.6,11.6,0,0,1,6.06,3,7.21,7.21,0,0,1,2.08,5.14,7.57,7.57,0,0,1-2.77,6c-1.84,1.59-4.64,2.4-8.3,2.4a15.21,15.21,0,0,1-5.78-1,13.94,13.94,0,0,1-4.27-2.72,11.58,11.58,0,0,1-2.7-3.86,15.91,15.91,0,0,1-1.21-4.62l0-.26-10,2.87-.18,0,0,.18a21.63,21.63,0,0,0,1.94,6.82,20,20,0,0,0,4.56,6.23,22.78,22.78,0,0,0,7.33,4.51A28.26,28.26,0,0,0,467,134.08a26.21,26.21,0,0,0,9.49-1.6,21.3,21.3,0,0,0,6.94-4.24,17.83,17.83,0,0,0,4.3-6.12A18.11,18.11,0,0,0,489.2,115,16.84,16.84,0,0,0,484.86,103.51Z" transform="translate(-25.83 -52.76)"/>
      <polygon class="cls-1" points="221.64 17.63 221.64 60.94 193.98 17.74 193.92 17.63 180.24 17.63 180.24 79.87 191.14 79.87 191.14 33.59 221.24 79.77 221.3 79.87 232.54 79.87 232.54 17.63 221.64 17.63"/>
    </g>
    <g>
      <polygon class="cls-2" points="113.36 115.4 121.72 73.09 101.12 80.26 113.36 115.4"/>
      <polygon class="cls-3" points="0 115.44 83.39 86.42 60.45 64.19 0 115.44"/>
      <polygon class="cls-4" points="121.72 73.09 136.16 0 87.53 41.23 101.12 80.26 121.72 73.09"/>
      <polygon class="cls-5" points="87.53 41.23 60.45 64.19 113.35 115.45 113.36 115.4 87.53 41.23"/>
      <polygon class="cls-6" points="113.35 115.45 113.4 115.5 113.36 115.4 113.35 115.45"/>
    </g>
    <g>
      <polygon class="cls-1" points="388.33 109.07 397.53 109.07 397.53 105.55 388.33 105.55 388.33 103.61 399.62 103.61 399.62 99.78 383.13 99.78 383.13 115.01 399.86 115.01 399.86 111.18 388.33 111.18 388.33 109.07"/>
      <polygon class="cls-1" points="454.84 99.78 451.96 99.78 449.08 99.78 444.38 99.78 446.83 104.22 441.36 115.01 446.88 115.01 448.12 112.38 449.73 108.94 451.93 104.24 454.13 108.94 455.74 112.38 456.98 115.01 462.56 115.01 454.84 99.78"/>
      <path class="cls-1" d="M437.1,162.14h4.14v1.26a6.25,6.25,0,0,1-3.66,1c-3.39,0-5.19-1.57-5.19-4.2s1.73-4.13,5.15-4.13a6.23,6.23,0,0,1,4.35,1.5l3.7-2.77a12.15,12.15,0,0,0-8.22-2.71c-6.38,0-10.36,2.89-10.36,8.11s4,8.11,10.36,8.11c4,0,7-1.19,8.76-3.2v-6.3H435.24Z" transform="translate(-25.83 -52.76)"/>
      <path class="cls-1" d="M398,157.85c-2.46-.19-3.83-.35-3.83-1.08s1.78-1,3.33-1a11.87,11.87,0,0,1,6.66,1.85l1.83-3.38a15.92,15.92,0,0,0-8.49-2.17c-4.94,0-8.57,1.83-8.57,5.16,0,3.48,4.15,4.55,8.83,5,2.83.24,3.7.5,3.7,1.24s-1.07,1.13-3.24,1.13a12.28,12.28,0,0,1-7.31-2.2l-2.63,3a16.31,16.31,0,0,0,9.85,2.89c5.63,0,8.57-2.13,8.57-5.41,0-3.61-3.61-4.59-8.7-5" transform="translate(-25.83 -52.76)"/>
      <path class="cls-1" d="M466.59,158.05c0-3.68-2.92-5.49-7.29-5.49H448.62v15.23h5.31V156.37h4.94c1.36,0,2.34.46,2.34,1.81s-1,1.82-2.34,1.82h-3.2l1.92,3.55h0l2.25,4.22h5.59l-2.61-4.72a5,5,0,0,0,3.75-5" transform="translate(-25.83 -52.76)"/>
      <path class="cls-1" d="M366.54,152.71h2.51l8.85,14.9h-2.29l-1.85-3.15H361.83L360,167.61h-2.29Zm1.26,1.65-5,8.45h10Z" transform="translate(-25.83 -52.76)"/>
      <path class="cls-1" d="M498.81,158.12c0-3.76,1.28-5.58,5.31-5.58h7.72c3.66,0,4.67,1.71,4.67,3.71v1.27h-1.77v-.67c0-2.54-1.56-2.66-3.42-2.66h-7c-1.94,0-3.5.58-3.5,3.17V163c0,2.59,1.56,3.17,3.5,3.17h7.06c2.71,0,3.49-.58,3.49-2.6v-.92h1.9v1c0,2.7-.87,4.16-5,4.16h-7.61c-4,0-5.31-1.81-5.31-5.57Z" transform="translate(-25.83 -52.76)"/>
      <path class="cls-1" d="M520.31,158.12c0-3.77,1.27-5.58,5.31-5.58h8.58c4,0,5.31,1.81,5.31,5.58v4.08c0,3.76-1.28,5.57-5.31,5.57h-8.58c-4,0-5.31-1.81-5.31-5.57Zm17.18-.76c0-2.59-1.57-3.17-3.5-3.17h-8.17c-1.93,0-3.5.58-3.5,3.17V163c0,2.59,1.57,3.17,3.5,3.17H534c1.93,0,3.5-.58,3.5-3.17Z" transform="translate(-25.83 -52.76)"/>
      <polygon class="cls-1" points="517.6 99.94 520.75 99.94 529.45 112.44 538.15 99.94 541.3 99.94 541.3 114.84 539.28 114.84 539.28 101.76 539.24 101.76 530.17 114.84 528.73 114.84 519.65 101.76 519.61 101.76 519.61 114.84 517.6 114.84 517.6 99.94"/>
      <path class="cls-1" d="M571.34,152.71h12.27c2.72,0,4.26.57,4.26,4,0,3.32-.27,5-4.65,5h-9.86v5.87h-2Zm14.51,3.85c0-1.77-1-2.2-2.72-2.2h-9.77v5.74h9.94c1.6,0,2.55-.58,2.55-2.12Z" transform="translate(-25.83 -52.76)"/>
      <path class="cls-1" d="M597,152.71h2.51l8.85,14.9h-2.28l-1.85-3.15H592.32l-1.85,3.15h-2.29Zm1.26,1.65-5,8.45h10Z" transform="translate(-25.83 -52.76)"/>
      <polygon class="cls-1" points="585.75 99.94 588.76 99.94 602.4 113.03 602.4 99.94 604.42 99.94 604.42 114.84 601.41 114.84 587.77 101.76 587.77 114.84 585.75 114.84 585.75 99.94"/>
      <polygon class="cls-1" points="616.18 108.55 607.64 99.94 610.36 99.94 617.19 106.86 624.02 99.94 626.74 99.94 618.2 108.55 618.2 114.84 616.18 114.84 616.18 108.55"/>
      <rect class="cls-1" x="180.24" y="105.84" width="140.67" height="3.12"/>
    </g>
  </g>
</svg>
