<svg version="1.1" id="saleicon" xmlns="http://www.w3.org/2000/svg" x="0px" y="0px" viewbox="0 0 512 512" style="enable-background:new 0 0 512 512;" xmlns:xlink="http://www.w3.org/1999/xlink" xml:space="preserve" class="system-icons icon-ios">
<path d="M234.4,301.6l19.8-19.8l-44.8-25L234.4,301.6z"></path>
<path d="M456.8,0H338.4c-26,0-60.8,14.4-79.2,32.8L16.1,275.9C5.7,286.3,0,300.1,0,314.9s5.7,28.6,16.1,39l142,142
	c10.4,10.4,24.2,16.1,39,16.1c14.8,0,28.6-5.7,39-16.1l243.1-243.1c18.4-18.4,32.8-53.2,32.8-79.2V55.2C512,24.7,487.2,0,456.8,0z
	 M212,385.3c-14.9,14.9-33.7,18.8-40.3,12.2c-3.2-3.2-5-10.9-1.5-14.4c4.7-4.7,16.5,1,28.1-10.6c6.8-6.8,9.7-15.8,2.8-22.6
	c-17-17-48.3,24.7-75.2-2.3c-16.9-16.9-8.2-37.3,4.9-50.3c6.7-6.7,23.2-20,30.7-12.5c2.6,2.6,6,9.7,1.9,13.7
	c-3.5,3.5-10.5,1.8-20,11.4c-8.2,8.2-9.5,16.1-4.1,21.6c14.1,14.1,45.7-27.3,75.1,2.2C230.7,349.9,227.7,369.7,212,385.3z
	 M296.3,299c-2.5,2.5-5.2,3.6-8,2l-19.4-10.8l-26,26l10.8,19.4c1.6,2.7,0.4,5.5-2.1,8c-4,4-11.8,6.8-15.4,3.2
	c-0.2-0.2-0.6-0.8-0.9-1.4l-49.5-93.4c-2.4-4.4,0.2-10.2,4.4-14.4c4.3-4.3,10.1-6.9,14.5-4.5l93.4,49.5c0.6,0.3,1,0.6,1.4,0.9
	C303,287.1,300.3,295,296.3,299z M356,239.4l-36,36c-3.3,3.3-8.1,4.9-11.1,1.8L235,203.3c-3.2-3.2-0.9-8.2,2.8-11.9
	c3.6-3.6,8.8-6,11.9-2.8l65.6,65.6l27.7-27.7c3-3,7.6-1.3,10.9,2C357.1,231.6,358.9,236.4,356,239.4z M415.4,179.9l-40.4,40.4
	c-3.3,3.3-8.1,4.9-11.1,1.8l-73.7-73.7c-3.1-3.1-1.5-7.8,1.8-11.1l40.4-40.4c3.2-3.2,8-1.4,11,1.7c3.5,3.5,4.9,8.3,1.9,11.3
	L313.1,142l22.7,22.7l17.3-17.3c3-3,7.5-1.8,10.6,1.2c2.6,2.6,4.2,7.2,1,10.3l-17.3,17.3l22.8,22.8l32.2-32.2c3-3,7.7-1.6,11.3,1.9
	C416.7,172,418.6,176.8,415.4,179.9z M428.1,106c-2.8,2.8-6.7,4.4-10.6,4.4c-4,0-7.8-1.6-10.6-4.4c-2.8-2.8-4.4-6.7-4.4-10.6
	c0-3.9,1.6-7.8,4.4-10.6c2.8-2.8,6.6-4.4,10.6-4.4c3.9,0,7.8,1.6,10.6,4.4c2.8,2.8,4.4,6.7,4.4,10.6
	C432.5,99.3,430.9,103.2,428.1,106z"></path>
</svg>