<?xml version="1.0" encoding="utf-8"?>
<!-- Generator: Adobe Illustrator 23.0.0, SVG Export Plug-In . SVG Version: 6.00 Build 0)  -->
<svg version="1.1" xmlns="http://www.w3.org/2000/svg" xmlns:xlink="http://www.w3.org/1999/xlink" x="0px" y="0px"
	 viewBox="0 0 533.4 95.5" style="enable-background:new 0 0 533.4 95.5;" xml:space="preserve">
<style type="text/css">
	.st0{fill:#00224F;}
	.st1{fill:#008CA8;}
	.st2{fill:#FFFFFF;}
</style>
<g id="Layer_1">
</g>
<g id="Layer_2">
	<rect class="st0" width="533.4" height="95.5"/>
	<rect x="23.2" y="69" class="st1" width="486.8" height="5.3"/>
	<g>
		<path class="st2" d="M49.2,24.7c-1-0.5-2.1-0.9-3.1-1.2c-2.9-0.9-5.8-0.9-8.8-0.5c-3.7,0.6-7.3,2.3-9.9,5.1
			c-3.5,3.7-5,8.9-4.1,13.9c1.1,6.2,5.7,11.1,11.7,12.8c3,0.8,6,1,9,0.7c1.4-0.1,2.8-0.4,4.2-0.8L52,43.5c-1,0.6-2.1,1.1-3.1,1.5
			c-2.4,0.8-4.7,1.2-7.1,0.9c-3.1-0.3-6.2-2.2-6.9-5.5c-0.3-1.3-0.2-2.6,0.3-3.9c1.4-4,5.9-4.9,9.7-4.3c1.2,0.2,2.4,0.5,3.6,1.2
			c0.6,0.4,1.2,0.8,1.8,1.2L49.2,24.7L49.2,24.7z"/>
		<path class="st2" d="M81.4,28.9V55h10c0-3.2,0-6.5,0-9.7c0-2.4,0.1-5.3,1.8-6.8c1.6-1.4,4.4-1.5,5.6-1.4c0.6,0.1,1.2,0.3,1.8,0.5
			V27.6c-1.2,0-2.4-0.1-3.6,0.2c-1.5,0.3-3,1-4,2.1c-0.8,0.8-1.2,1.7-1.6,2.5v-3.5H81.4L81.4,28.9z"/>
		<path class="st2" d="M130.8,20.8V55h10c0-4.5,0-9,0-13.5c0-1,0.2-2,0.7-3.1c0.8-1.5,3.8-2.3,5.1-0.4c0.7,0.9,0.7,2.1,0.7,3.2V55
			h10l0-17.7c0-5.1-1.7-8.3-5.8-9.2c-3.6-0.8-7.4,0.4-10,3.1c-0.3,0.3-0.5,0.6-0.8,0.9V20.8H130.8L130.8,20.8z"/>
		<polygon class="st2" points="249.7,23.9 260.1,55 271.4,55 276.8,37.3 281.8,55 292.9,55 303.7,23.9 292,23.9 286.9,40.7 
			281.8,23.9 271.8,23.9 266.4,40.7 261.3,23.9 249.7,23.9 		"/>
		<path class="st2" d="M462.3,44.4l2.1,9.7c1.9,0.5,3.8,0.8,5.7,1c6.4,0.6,11.8-1.3,13.2-7.2c1-4-1-6.6-3.7-8.4
			c-1.3-0.9-2.6-1.7-3.9-2.6c-0.8-0.5-1.6-1.5-0.8-2.5c0.5-0.6,2.4-0.3,3.5,0c1.3,0.3,2.7,0.9,4,1.9l-2.1-8.7
			c-1.6-0.4-3.2-0.7-4.8-0.8c-5.8-0.2-12.1,1.5-12.7,8.3c-0.3,3,1.7,5.6,4.2,7.1c1.4,0.8,2.9,1.6,4.3,2.5c1.5,1,1.3,2.4-0.6,2.4
			c-1.9,0.1-3.8-0.4-5.7-1.2C464.1,45.6,463.2,45,462.3,44.4L462.3,44.4z"/>
		<path class="st2" d="M68.6,47.4c-0.4,0.3-0.9,0.7-1.3,0.9c-1.2,0.6-3.1,0.4-3.7-0.5c-0.8-1.2-0.4-2.8,0.9-3.5c1-0.5,2-0.6,3-0.6
			c0.4,0,0.7,0,1.1,0V47.4L68.6,47.4z M68.6,55h11.2c-0.2-0.4-0.4-0.8-0.5-1.2c-0.1-0.4-0.1-0.8-0.1-1.1V35.6c0-2.4-1.2-4.7-3.4-5.7
			c-4.4-2-10.4-2-15.7-1.5c-1.1,0.1-2.2,0.3-3.3,0.5l-2.1,9c1-0.6,2.1-1.2,3.1-1.6c1.8-0.6,3.5-0.9,5.2-1.1c1.8-0.2,4.6-0.1,5.2,1.3
			c0.3,0.7,0.3,1.3,0.3,2c-2.8,0-5.6,0.1-8.3,0.9c-2.5,0.7-5,1.9-6.4,4.2c-1.3,2.1-1.4,6.2-0.2,8.3c1.8,3.1,4.4,4,8.2,4
			c1.9,0,3.9-0.8,5.8-2c0.3-0.2,0.6-0.5,1-0.7V55L68.6,55z"/>
		<path class="st2" d="M101.9,28.8V63h10v-9.8c1.1,0.8,2.1,1.5,3.2,2c2.8,1.1,5.9,0.6,8.4-0.9c4.1-2.4,5.9-7.2,6.1-11.8
			c0.2-4.1-1-8.4-4-11.3c-2.6-2.6-6.4-3.5-10-2.6c-1.4,0.3-2.7,0.9-3.6,2.1l-0.1,0.2v-1.8H101.9L101.9,28.8z M111.9,37.5
			c0.7-0.3,1.4-0.5,2.1-0.6c1.4-0.1,2.9,0.2,3.8,1.3c1.2,1.5,1.5,3.6,0.8,5.4c-1,2.5-3.6,3.5-6.3,2c-0.1-0.1-0.3-0.2-0.4-0.2V37.5
			L111.9,37.5z"/>
		<path class="st2" d="M173.3,47c-3.5,0-4.5-3.9-3.9-6.8c0.4-1.7,1.7-3.2,3.6-3.3c3.4-0.2,4.8,2.5,4.3,6.5
			C177.1,45.4,175.4,47,173.3,47z M173.3,55.7c4.3-0.1,8.7-1.3,11.5-4.7c2.6-3.2,3.7-7.3,3.1-11.4c-0.6-3.9-2.9-7.4-6.3-9.4
			c-4.4-2.5-9.7-2.8-14.5-0.9c-3.6,1.4-6.5,4.3-7.7,8c-1.4,4.2-0.8,8.9,1.7,12.6C163.8,54,168.6,55.8,173.3,55.7z"/>
		<path class="st2" d="M226.2,39c-0.1-0.9-0.2-1.7,0.3-2.6c1.1-2,3.8-2,5.1-0.3c0.3,0.3,0.4,0.7,0.6,1.1L226.2,39L226.2,39z
			 M227.3,44.7l16.1-5.2c-0.2-0.8-0.4-1.7-0.7-2.5c-1.6-4.5-5.4-8-10.1-8.9c-6.3-1.1-12.7,2.1-14.8,8.3c-1.8,5.4-0.6,11.4,3.6,15.3
			c4.6,4.2,11.1,4.5,16.8,2.9c0.8-0.2,1.6-0.5,2.4-0.8l2.8-10.2c-0.6,0.5-1.3,0.9-1.9,1.3c-2.1,1.2-4.2,1.9-6.2,2.2
			c-2.7,0.4-6.1,0-7.6-1.9C227.6,45.1,227.4,44.9,227.3,44.7L227.3,44.7z"/>
		<path class="st2" d="M189.1,28.8V55h10c0-4.5,0-9,0-13.5c0-1,0.2-2,0.7-3.1c0.8-1.5,3.8-2.3,5.1-0.4c0.7,0.9,0.7,2.1,0.7,3.2V55
			h10l0-17.7c0-5.1-1.7-8.3-5.8-9.2c-3.6-0.8-7.4,0.4-10,3.1c-0.3,0.3-0.5,0.6-0.8,0.9v-3.3H189.1z"/>
		<path class="st2" d="M315.3,47.4c-0.4,0.3-0.9,0.7-1.3,0.9c-1.2,0.6-3.1,0.4-3.7-0.5c-0.8-1.2-0.4-2.8,0.9-3.5c1-0.5,2-0.6,3-0.6
			c0.4,0,0.7,0,1.1,0V47.4L315.3,47.4z M315.3,55h11.2c-0.2-0.4-0.4-0.8-0.5-1.2c-0.1-0.4-0.1-0.8-0.1-1.1V35.6
			c0-2.4-1.2-4.7-3.4-5.7c-4.4-2-10.4-2-15.7-1.5c-1.1,0.1-2.2,0.3-3.3,0.5l-2.1,9c1-0.6,2.1-1.2,3.1-1.6c1.8-0.6,3.5-0.9,5.2-1.1
			c1.8-0.2,4.6-0.1,5.2,1.3c0.3,0.7,0.3,1.3,0.3,2c-2.8,0-5.6,0.1-8.3,0.9c-2.5,0.7-5,1.9-6.4,4.2c-1.3,2.1-1.4,6.2-0.2,8.3
			c1.8,3.1,4.4,4,8.2,4c1.9,0,3.9-0.8,5.8-2c0.3-0.2,0.6-0.5,1-0.7V55L315.3,55z"/>
		<path class="st2" d="M327.9,28.9V55h10c0-3.2,0-6.5,0-9.7c0-2.4,0.1-5.3,1.8-6.8c1.6-1.4,4.4-1.5,5.6-1.4c0.6,0.1,1.2,0.3,1.8,0.5
			V27.6c-1.2,0-2.4-0.1-3.6,0.2c-1.5,0.3-3,1-4,2.1c-0.8,0.8-1.2,1.7-1.6,2.5v-3.5H327.9L327.9,28.9z"/>
		<path class="st2" d="M357.4,38.9c-0.1-0.9-0.2-1.7,0.3-2.6c1.1-2,3.8-2,5.1-0.3c0.3,0.3,0.4,0.7,0.6,1.1L357.4,38.9L357.4,38.9z
			 M358.5,44.6l16.1-5.2c-0.2-0.8-0.4-1.7-0.7-2.5c-1.6-4.5-5.4-8-10.1-8.9c-6.3-1.1-12.7,2.1-14.8,8.3c-1.8,5.4-0.6,11.4,3.6,15.3
			c4.6,4.2,11.1,4.5,16.8,2.9c0.8-0.2,1.6-0.5,2.4-0.8l2.8-10.2c-0.6,0.5-1.3,0.9-1.9,1.3c-2.1,1.2-4.2,1.9-6.2,2.2
			c-2.7,0.4-6.1,0-7.6-1.9C358.7,44.9,358.6,44.7,358.5,44.6L358.5,44.6z"/>
		<path class="st2" d="M376,20.8V55h10c0-4.5,0-9,0-13.5c0-1,0.2-2,0.7-3.1c0.8-1.5,3.8-2.3,5.1-0.4c0.7,0.9,0.7,2.1,0.7,3.2V55h10
			l0-17.7c0-5.1-1.7-8.3-5.8-9.2c-3.6-0.8-7.4,0.4-10,3.1c-0.3,0.3-0.5,0.6-0.8,0.9V20.8H376L376,20.8z"/>
		<path class="st2" d="M418.5,47c-3.5,0-4.5-3.9-3.9-6.8c0.4-1.7,1.7-3.2,3.6-3.3c3.4-0.2,4.8,2.5,4.3,6.5
			C422.3,45.4,420.6,47,418.5,47z M418.5,55.7c4.3-0.1,8.7-1.3,11.5-4.7c2.6-3.2,3.7-7.3,3.1-11.4c-0.6-3.9-2.9-7.4-6.3-9.4
			c-4.4-2.5-9.7-2.8-14.5-0.9c-3.6,1.4-6.5,4.3-7.7,8c-1.4,4.2-0.8,8.9,1.7,12.6C409,54,413.8,55.8,418.5,55.7z"/>
		<path class="st2" d="M461.2,55V28.8h-10c0,4.5,0,9,0,13.5c0,1-0.2,2-0.7,3.1c-0.8,1.5-3.8,2.3-5.1,0.4c-0.7-0.9-0.7-2.1-0.7-3.2
			V28.8h-10l0,17.7c0,5.1,1.7,8.3,5.8,9.2c3.6,0.8,7.4-0.4,10-3.1c0.3-0.3,0.5-0.6,0.8-0.9V55H461.2z"/>
		<path class="st2" d="M493.5,38.3c-0.1-0.9-0.2-1.7,0.3-2.6c1.1-2,3.8-2,5.1-0.3c0.3,0.3,0.4,0.7,0.6,1.1L493.5,38.3L493.5,38.3z
			 M494.6,44l16.1-5.2c-0.2-0.8-0.4-1.7-0.7-2.5c-1.6-4.5-5.4-8-10.1-8.9c-6.3-1.1-12.7,2.1-14.8,8.3c-1.8,5.4-0.6,11.4,3.6,15.3
			c4.6,4.2,11.1,4.5,16.8,2.9c0.8-0.2,1.6-0.5,2.4-0.8l2.8-10.2c-0.6,0.5-1.3,0.9-1.9,1.3c-2.1,1.2-4.2,1.9-6.2,2.2
			c-2.7,0.4-6.1,0-7.6-1.9C494.8,44.3,494.7,44.1,494.6,44L494.6,44z"/>
	</g>
</g>
</svg>
