<?xml version="1.0" encoding="utf-8"?>
<!-- Generator: Adobe Illustrator 16.0.0, SVG Export Plug-In . SVG Version: 6.00 Build 0)  -->
<!DOCTYPE svg PUBLIC "-//W3C//DTD SVG 1.1//EN" "http://www.w3.org/Graphics/SVG/1.1/DTD/svg11.dtd">
<svg version="1.1" id="Layer_1" xmlns="http://www.w3.org/2000/svg" xmlns:xlink="http://www.w3.org/1999/xlink" x="0px" y="0px"
	 width="413.539px" height="181.455px" viewBox="0 0 413.539 181.455" enable-background="new 0 0 413.539 181.455"
	 xml:space="preserve">
<g>
	<g>
		<path fill="#8CB243" d="M372.963,5.476c-21.651,14.47-38.436,71.379-38.436,71.379c11.582-25.662,27.88-36.845,45.774-33.213
			c12.773,2.589,31.343-1.765,33.137-19.084C415.154,7.952,394.622-8.994,372.963,5.476z"/>
		<path fill="#CC242C" d="M390.846,82.613c-15.126-10.147-56.399-5.841-56.399-5.841c19.685,0.65,31.254,8.214,33.677,20.752
			c1.728,8.949,9.491,19.798,21.165,16.344C400.487,110.556,405.976,92.763,390.846,82.613z"/>
		<path fill="#2D99D3" d="M313.2,119.231c12.461-8.833,21.37-42.484,21.37-42.484c-6.371,15.24-15.743,22.062-26.303,20.229
			c-7.528-1.31-18.35,1.548-19.113,11.733C288.414,118.475,300.739,128.075,313.2,119.231z"/>
		<path fill="#F49E41" d="M304.233,72.323c7.983,5.853,30.491,4.453,30.491,4.453c-10.668-0.8-16.776-5.168-17.811-12.035
			c-0.732-4.898-4.705-10.964-11.122-9.356C299.637,56.93,296.251,66.469,304.233,72.323z"/>
	</g>
	<g>
		<path fill="#585756" d="M37.203,108.377l10.415-7.405v79.557H25.459c-7.746,0-13.926-2.449-18.541-7.351
			C2.306,168.276,0,161.705,0,153.456c0-7.71,2.422-14.058,7.264-19.037c4.842-4.975,11.022-7.466,18.545-7.466
			c3.494,0,7.293,0.752,11.395,2.244V108.377z M37.203,171.62V138.43c-3.23-1.636-6.499-2.453-9.804-2.453
			c-5.166,0-9.281,1.693-12.341,5.067c-3.058,3.378-4.585,7.937-4.585,13.664c0,5.392,1.329,9.549,3.988,12.469
			c1.599,1.747,3.288,2.923,5.073,3.532c1.786,0.605,4.997,0.91,9.632,0.91H37.203z"/>
		<path fill="#585756" d="M67.011,106.063c1.712,0,3.176,0.594,4.395,1.77c1.217,1.18,1.826,2.625,1.826,4.337
			c0,1.672-0.609,3.118-1.826,4.338c-1.219,1.215-2.682,1.824-4.395,1.824c-1.597,0-3.004-0.613-4.223-1.854
			c-1.215-1.238-1.822-2.671-1.822-4.308c0-1.599,0.607-3.014,1.822-4.252C64.006,106.68,65.414,106.063,67.011,106.063z
			 M61.891,128.11h10.357v52.419H61.891V128.11z"/>
		<path fill="#585756" d="M84.686,176.78V165.6c2.923,2.051,5.91,3.714,8.963,4.979c3.057,1.272,5.629,1.909,7.717,1.909
			c2.16,0,4.022-0.528,5.575-1.593c1.558-1.061,2.335-2.326,2.335-3.803c0-1.516-0.503-2.777-1.51-3.779
			c-1.005-1.003-3.172-2.453-6.514-4.354c-6.68-3.714-11.049-6.899-13.118-9.537c-2.067-2.639-3.099-5.516-3.099-8.624
			c0-4.033,1.564-7.312,4.697-9.857c3.132-2.537,7.164-3.811,12.104-3.811c5.122,0,10.38,1.438,15.772,4.323v10.255
			c-6.149-3.706-11.182-5.553-15.093-5.553c-2.013,0-3.637,0.424-4.869,1.276c-1.236,0.852-1.851,1.985-1.851,3.382
			c0,1.211,0.555,2.368,1.674,3.467c1.114,1.1,3.077,2.426,5.885,3.98l3.703,2.109c8.729,4.933,13.099,10.401,13.099,16.398
			c0,4.293-1.682,7.81-5.041,10.563c-3.357,2.746-7.674,4.123-12.95,4.123c-3.112,0-5.881-0.332-8.315-0.999
			C91.423,179.792,88.367,178.566,84.686,176.78z"/>
		<path fill="#585756" d="M124.822,136.393l19.439-19.159v10.876h16.551v9.313h-16.551v25.712c0,6.001,2.482,9.005,7.447,9.005
			c3.712,0,7.634-1.233,11.765-3.702v9.665c-3.982,2.236-8.32,3.352-13.02,3.352c-4.742,0-8.681-1.389-11.826-4.162
			c-0.985-0.837-1.803-1.777-2.445-2.826c-0.644-1.042-1.184-2.411-1.624-4.1c-0.434-1.697-0.652-4.917-0.652-9.673v-23.271h-9.084
			V136.393z"/>
		<path fill="#585756" d="M176.31,106.063c1.71,0,3.174,0.594,4.393,1.77c1.217,1.18,1.826,2.625,1.826,4.337
			c0,1.672-0.609,3.118-1.826,4.338c-1.219,1.215-2.682,1.824-4.393,1.824c-1.599,0-3.006-0.613-4.225-1.854
			c-1.213-1.238-1.822-2.671-1.822-4.308c0-1.599,0.609-3.014,1.822-4.252C173.303,106.68,174.711,106.063,176.31,106.063z
			 M171.19,128.11h10.353v52.419H171.19V128.11z"/>
		<polygon fill="#585756" points="196.761,108.377 207.118,100.972 207.118,180.529 196.761,180.529 		"/>
		<polygon fill="#585756" points="222.335,108.377 232.693,100.972 232.693,180.529 222.335,180.529 		"/>
		<path fill="#585756" d="M292.348,155.245h-36.861c0.266,5.021,1.947,9.013,5.04,11.986c3.09,2.962,7.089,4.443,11.982,4.443
			c6.834,0,13.136-2.118,18.905-6.364v10.124c-3.186,2.117-6.34,3.633-9.479,4.539c-3.131,0.91-6.803,1.365-11.015,1.365
			c-5.77,0-10.436-1.195-14.007-3.587c-3.571-2.391-6.426-5.607-8.565-9.652c-2.145-4.042-3.221-8.72-3.221-14.038
			c0-7.972,2.26-14.451,6.776-19.445c4.523-4.99,10.386-7.486,17.598-7.486c6.953,0,12.495,2.422,16.63,7.281
			c4.142,4.859,6.217,11.366,6.217,19.53V155.245z M255.718,149.051h26.383c-0.266-4.127-1.5-7.312-3.706-9.546
			c-2.202-2.236-5.16-3.351-8.886-3.351s-6.772,1.114-9.148,3.351C257.985,141.739,256.435,144.924,255.718,149.051z"/>
		<path fill="#585756" d="M338.55,106.528l10.417-5.556v79.557h-22.156c-7.744,0-13.931-2.449-18.543-7.351
			c-4.612-4.902-6.919-11.474-6.919-19.723c0-7.71,2.422-14.058,7.267-19.037c4.836-4.975,11.021-7.466,18.542-7.466
			c3.494,0,7.289,0.752,11.393,2.244V106.528z M338.55,171.62V138.43c-3.231-1.636-6.498-2.453-9.804-2.453
			c-5.16,0-9.282,1.693-12.337,5.067c-3.062,3.378-4.586,7.937-4.586,13.664c0,5.392,1.327,9.549,3.988,12.469
			c1.593,1.747,3.285,2.923,5.071,3.532c1.786,0.605,4.998,0.91,9.634,0.91H338.55z"/>
	</g>
</g>
</svg>
