<svg xmlns="http://www.w3.org/2000/svg" viewBox="0 0 343.979 203.813" style="width: 100%; height: 100%;">
<style>
    path {
      fill: black;
    }
    @media (prefers-color-scheme: dark) {
      path {
        fill: white;
      }
    }
 </style>
<path d="M277.49 36.868c-21.448 0-38.79 10.635-54.2 25.666 3.008 3.9 5.932 7.757 8.779 11.509 4.509 5.946 9.328 12.328 14.182 18.345 10.385-10.844 20.695-18.157 31.242-18.157 16.207 0 29.393 13.642 29.393 29.54a29.521 29.521 0 0 1-29.393 29.586c-19.276 0-37.771-24.386-57.353-50.2C206.058 64.6 191.5 45.4 173.427 30.035 151.166 11.114 127.9 1.891 102.3 1.891a101.907 101.907 0 1 0 0 203.813c25.6 0 48.87-9.21 71.131-28.133 11.035-9.381 20.758-20.2 29.863-31.418-8.388-9.421-16.24-19.743-23.941-29.9-9.487 12.1-19.375 23.724-30.121 32.86-15.431 13.116-30.343 19.224-46.932 19.224a64.544 64.544 0 1 1 0-129.088c16.589 0 31.5 6.159 46.932 19.276C164.2 71.253 177.5 88.792 190.37 105.753c24.234 31.943 49.291 64.974 87.12 64.974a66.933 66.933 0 0 0 66.756-66.956c0-36.571-29.946-66.903-66.756-66.903z" transform="translate(-.267 -1.891)" fill="#fff"></path></svg>
