<?xml version="1.0" encoding="utf-8"?>
<!-- Generator: Adobe Illustrator 23.0.6, SVG Export Plug-In . SVG Version: 6.00 Build 0)  -->
<svg version="1.1" id="Layer_1" xmlns="http://www.w3.org/2000/svg" xmlns:xlink="http://www.w3.org/1999/xlink" x="0px" y="0px"
	 viewBox="0 0 100 20.8" style="enable-background:new 0 0 100 20.8;" xml:space="preserve">
<style type="text/css">
	.st0{fill:#80B541;}
</style>
<g>
	<path class="st0" d="M1.1,15.7c1.2,0.6,3,1.2,4.9,1.2c2,0,3.1-0.8,3.1-2.1c0-1.2-0.9-1.9-3.3-2.7C2.6,11,0.4,9.2,0.4,6.3
		c0-3.3,2.8-5.9,7.4-5.9c2.2,0,3.8,0.5,5,1l-1,3.6C11,4.6,9.6,4,7.7,4S4.9,4.9,4.9,5.9c0,1.2,1.1,1.8,3.6,2.7
		c3.4,1.3,5.1,3.1,5.1,5.8c0,3.3-2.5,6-7.9,6c-2.2,0-4.4-0.6-5.5-1.2L1.1,15.7z"/>
	<path class="st0" d="M19.6,2.5c0,1.2-0.9,2.2-2.4,2.2c-1.4,0-2.3-1-2.3-2.2c0-1.3,0.9-2.2,2.3-2.2S19.6,1.2,19.6,2.5z M15.1,20.5
		V6.4h4.4v14.1H15.1z"/>
	<path class="st0" d="M26.7,2v4h3.2v3.2h-3.2v5.1c0,1.7,0.4,2.5,1.7,2.5c0.5,0,1-0.1,1.3-0.1V20c-0.6,0.2-1.6,0.4-2.9,0.4
		c-1.4,0-2.6-0.5-3.3-1.2c-0.8-0.8-1.2-2.2-1.2-4.2V9.3h-1.9V6.1h1.9V3L26.7,2z"/>
	<path class="st0" d="M34.5,14.6c0.1,1.8,1.9,2.7,4,2.7c1.5,0,2.7-0.2,3.9-0.6l0.6,3c-1.4,0.6-3.2,0.9-5.1,0.9
		c-4.8,0-7.5-2.8-7.5-7.2c0-3.6,2.2-7.5,7.1-7.5c4.6,0,6.3,3.6,6.3,7.1c0,0.8-0.1,1.4-0.1,1.7L34.5,14.6L34.5,14.6z M39.7,11.6
		c0-1.1-0.5-2.9-2.5-2.9c-1.9,0-2.6,1.7-2.7,2.9H39.7z"/>
</g>
<path d="M44.6,20.5v-2.7l2.4-2.2c4.1-3.7,6.1-5.8,6.2-8c0-1.5-0.9-2.7-3.1-2.7c-1.6,0-3,0.8-4,1.6l-1.2-3.2c1.4-1.1,3.6-1.9,6.2-1.9
	c4.3,0,6.6,2.5,6.6,5.9c0,3.2-2.3,5.7-5,8.1L51,16.8v0.1h7.1v3.6H44.6z"/>
<path d="M66.6,20.5V16h-8.3v-2.9l7.1-11.5h5.4v11H73V16h-2.3v4.5H66.6z M66.6,12.7V8.6c0-1.1,0.1-2.3,0.1-3.5h-0.1
	c-0.6,1.2-1.1,2.3-1.7,3.5l-2.5,4.1v0.1h4.2V12.7z"/>
<path d="M76.9,6.4l1.4,2.3c0.4,0.7,0.8,1.4,1.2,2.1h0.1c0.4-0.8,0.7-1.5,1.1-2.2l1.2-2.3h4.8L82,13.1l4.7,7.4h-5L80.3,18
	c-0.4-0.7-0.8-1.4-1.1-2.1h-0.1c-0.3,0.8-0.7,1.4-1.1,2.1l-1.3,2.5h-4.8l4.8-7.2L72,6.4H76.9z"/>
<path d="M99.8,1.7v2.8l-7.8,16h-4.7l7.8-15.1V5.3h-8.6V1.7H99.8z"/>
</svg>
